,a_x,a_y,a_z
0,0.0045,0.8184,-0.1204
1,-0.0327,0.8364,-0.1021
2,-0.0466,0.937,-0.1172
3,-0.0421,0.9619,-0.1381
4,-0.0455,0.9161,-0.1131
5,-0.0653,0.8863,-0.058
6,-0.0649,0.942,-0.092
7,-0.0169,0.9784,-0.1116
8,-0.087,0.8636,-0.122
9,-0.0815,0.9631,-0.1102
10,-0.0916,0.8793,-0.1208
11,-0.0681,0.9797,-0.1121
12,-0.0947,0.93,-0.0705
13,-0.0275,1.0626,-0.1618
14,-0.0648,0.9995,-0.1201
15,-0.0118,1.1115,-0.1293
16,-0.0585,1.0773,-0.1292
17,-0.0241,1.2114,-0.1019
18,0.0366,1.2241,-0.1043
19,0.0501,1.0964,-0.157
20,0.0094,1.1429,-0.1024
21,-0.077,1.1127,-0.1031
22,-0.0308,1.21,-0.0933
23,0.0044,1.2692,-0.1063
24,0.0013,1.3786,-0.053
25,-0.0356,1.3143,-0.0454
26,-0.0782,1.2809,-0.0665
27,-0.0955,1.0682,-0.103
28,-0.078,1.3054,-0.1188
29,-0.1205,1.3246,-0.1428
30,-0.0608,1.4105,-0.2294
31,-0.0536,1.7133,-0.1087
32,-0.1017,1.5038,0.0652
33,-0.0818,1.6684,-0.0409
34,-0.0711,1.6031,-0.1177
35,0.0007,1.6786,-0.067
36,-0.14400000000000002,0.9386,-0.034
37,0.032,1.2913,-0.049
38,-0.0211,1.2694,-0.0201
39,0.0108,1.1841,-0.0046
40,0.0075,1.0735,0.0544
41,-0.0515,0.9679,0.0327
42,-0.0107,1.0214,0.0492
43,0.0197,0.8088,0.1367
44,0.0031,0.8271,0.0402
45,-0.0421,0.9086,0.157
46,-0.0368,0.8029999999999999,0.0765
47,-0.0201,0.789,0.1329
48,-0.0671,0.8962,0.0826
49,-0.0491,0.9191,0.0698
50,-0.0889,0.7874,0.1079
51,-0.0662,0.9962,0.0229
52,-0.0716,0.9823,0.1105
53,-0.05,1.0154,0.0597
54,-0.0923,0.8301,0.0211
55,-0.0516,1.0267,0.0735
56,-0.0651,0.8646,0.0287
57,0.0081,0.993,0.0624
58,-0.0594,0.8961,0.0377
59,-0.0438,0.993,0.0199
60,-0.028,0.9502,0.0865
61,-0.0266,0.9376,0.0432
62,-0.0223,0.9991,0.0698
63,-0.0532,0.969,0.0124
64,-0.0526,0.9728,0.0229
65,-0.0671,0.925,0.0194
66,-0.0243,1.0666,-0.0089
67,-0.0588,0.9438,0.0567
68,-0.0414,1.0319,0.013
69,-0.1062,0.8927,0.0859
70,-0.0554,1.0174,0.0352
71,-0.0866,0.8923,0.0804
72,-0.0497,0.894,0.0748
73,-0.0661,0.8386,0.0294
74,0.0137,1.0013,0.069
75,-0.0391,0.8309,-0.0051
76,0.0366,1.0406,0.043
77,-0.0345,0.9235,-0.0006
78,0.0246,1.0764,0.033
79,-0.0204,0.9673,0.0901
80,0.0036,1.0808,0.0193
81,-0.0254,0.958,0.0804
82,0.0022,1.0739,-0.0005
83,-0.0274,0.9377,0.1137
84,-0.0159,1.0404,0.0154
85,-0.0416,0.9893,0.099
86,-0.062,0.9608,0.021
87,-0.0837,0.9848,0.0936
88,-0.0797,0.954,0.0918
89,-0.0535,0.9915,0.0626
90,-0.0663,0.9602,0.0884
91,-0.0576,1.0278,0.0153
92,-0.0508,1.0123,0.0812
93,-0.0641,1.0084,-0.0005
94,-0.02,0.9098,0.0044
95,-0.0168,1.0538,0.0916
96,-0.067,0.8284,0.0519
97,0.024,1.0412,0.0607
98,-0.0589,0.7521,0.0635
99,0.0405,1.0855,0.0815
100,-0.0484,0.7736,-0.0263
101,0.0266,1.158,0.0817
102,-0.0668,0.9013,0.0255
103,0.0201,1.1779,0.0013
104,-0.0397,1.0353,0.0436
105,-0.0293,1.0563,0.0217
106,-0.0522,0.925,0.068
107,0.0043,1.1538,0.0499
108,-0.1206,0.9336,0.0376
109,-0.006,1.3132,0.0839
110,-0.0987,0.8698,0.0543
111,0.0433,1.2524,0.061
112,-0.1328,0.7026,0.0318
113,0.0325,1.2582,0.0642
114,-0.125,0.6788,0.0296
115,0.0884,1.2896,0.0853
116,-0.0941,0.8517,0.0445
117,0.0212,1.2868,0.0616
118,-0.0815,0.9144,0.0892
119,-0.0391,1.1056,0.0896
120,-0.0483,0.9351,0.0438
121,-0.0693,0.9119,0.0433
122,0.0299,1.0678,0.0786
123,-0.1489,0.8115,0.0344
124,0.0304,1.1576,0.0771
125,-0.1739,0.7652,0.0469
126,0.0809,1.3392,0.1165
127,-0.2029,0.64,-0.0036
128,0.0976,1.3687,0.0876
129,-0.2314,0.5992,-0.0115
130,0.1224,1.3391,0.0978
131,-0.2309,0.5198,-0.0004
132,0.1263,1.386,0.0681
133,-0.21,0.5184,0.0183
134,0.1099,1.3428,0.0961
135,-0.2234,0.6,0.0067
136,0.0966,1.3709,0.0699
137,-0.1927,0.6022,0.0051
138,0.0659,1.3159,0.1065
139,-0.1894,0.6605,0.0248
140,0.0489,1.2679,0.0986
141,-0.163,0.7081,0.0245
142,0.0627,1.3386,0.1047
143,-0.2112,0.6976,0.0272
144,0.032,1.2821,0.0997
145,-0.1627,0.7509999999999999,0.0654
146,0.0413,1.2501,0.0705
147,-0.149,0.8149,0.023
148,0.0061,1.1997,0.0515
149,-0.1249,0.7986,0.0282
150,0.0138,1.06,0.0922
151,-0.0842,0.8674,0.0627
152,-0.0245,1.1153,0.0443
153,-0.0835,0.9439,0.041
154,-0.0115,1.0718,0.0413
155,-0.0466,0.94,0.0525
156,-0.0657,0.9998,0.0204
157,-0.0311,0.9499,0.0524
158,-0.0399,0.9697,0.0667
159,-0.0211,1.0354,0.0661
160,-0.0375,0.9915,0.0529
161,-0.028,1.0073,0.0662
162,-0.0674,0.8912,0.0807
163,-0.0157,1.0281,0.0584
164,-0.0142,1.0645,0.044
165,-0.0648,0.9352,0.0433
166,-0.0185,1.151,0.0934
167,-0.0775,0.9255,0.0623
168,-0.0237,1.1005,0.0605
169,-0.0829,0.9126,0.0242
170,-0.0118,1.0866,0.0545
171,-0.1288,0.8426,0.0264
172,-0.0256,1.2018,0.0685
173,-0.116,0.9563,0.0565
174,0.0096,1.2267,0.0655
175,-0.124,0.9374,-0.0139
176,-0.0028,1.1213,0.0366
177,-0.1102,0.8262,0.0344
178,-0.0113,1.015,0.0473
179,-0.1075,0.8477,-0.004
180,0.0054,1.0673,0.0633
181,-0.1219,0.8354,0.065
182,-0.1053,1.0704,0.0328
183,-0.1385,0.8919,0.0593
184,-0.0134,1.1343,0.1057
185,-0.1046,0.9055,0.0406
186,-0.0757,1.0434,0.0346
187,-0.1565,1.0166,0.0726
188,-0.079,0.9077,0.0623
189,-0.0358,1.082,0.0522
190,-0.1476,0.9016,0.0503
191,-0.0549,1.021,0.0768
192,-0.0879,0.7786,0.0314
193,-0.0229,1.0035,0.014
194,-0.0692,0.8778,0.0074
195,-0.0214,1.0502,0.0727
196,-0.0862,0.9395,0.0177
197,-0.0298,1.0754,0.0249
198,-0.0325,0.9905,0.0419
199,-0.0425,1.0061,0.0578
200,-0.0579,1.0045,0.0121
201,-0.075,0.9695,0.0595
202,-0.0521,0.9874,0.0419
203,-0.0538,1.0645,0.0346
204,-0.0638,0.9557,0.0572
205,-0.0933,0.9243,0.0275
206,-0.1158,0.9954,0.0678
207,-0.083,0.9395,0.0394
208,-0.0591,0.9103,0.0362
209,-0.079,0.9873,0.0569
210,-0.113,0.9659,0.0701
211,-0.0966,1.0322,0.0743
212,-0.0995,1.0383,0.0532
213,-0.0956,1.1069,0.0591
214,-0.0965,1.1273,0.0483
215,-0.1219,1.0574,0.0219
216,-0.1132,0.9712,0.0434
217,-0.0763,0.9319,0.0392
218,-0.0789,0.9235,0.0466
219,-0.0543,0.9972,0.0496
220,-0.0317,1.0693,0.0341
221,-0.0813,1.032,0.0424
222,-0.0602,1.1144,0.0565
223,-0.0685,1.0339,0.0263
224,-0.0345,1.0043,0.044
225,-0.0359,0.9733,0.0505
226,-0.0315,1.0071,0.0518
227,-0.0609,0.9945,0.0436
228,-0.0596,1.0055,0.0438
229,-0.0779,0.9388,0.0627
230,-0.083,0.987,0.0695
231,-0.0735,1.0067,0.028
232,-0.0552,0.9974,0.0511
233,-0.0727,0.9886,0.053
234,-0.0856,1.0433,0.0439
235,-0.1133,1.0522,0.0593
236,-0.0662,0.9828,0.0395
237,-0.1031,1.0018,0.0375
238,-0.0922,1.0505,0.0482
239,-0.0992,0.941,0.0731
240,-0.1033,1.0361,0.0473
241,-0.1175,1.0864,0.053
242,-0.0842,1.1125,0.0455
243,-0.0961,1.0188,0.0178
244,-0.0972,0.9861,0.0418
245,-0.0971,0.9575,0.0388
246,-0.1054,0.9158,0.0405
247,-0.1048,0.9771,0.0579
248,-0.0767,1.048,0.0556
249,-0.105,1.0139,0.0062
250,-0.0599,1.0303,0.0308
251,-0.1172,0.9424,0.0131
252,-0.1453,0.9369,0.0457
253,-0.0967,1.0282,0.0628
254,-0.1053,1.0253,0.0271
255,-0.0871,1.1129,0.0245
256,-0.123,1.0654,0.0524
257,-0.1139,1.0734,0.0259
258,-0.1609,0.9839,0.0345
259,-0.1253,0.9568,0.0299
260,-0.1252,0.998,0.0432
261,-0.1176,1.0226,0.0344
262,-0.1745,0.9599,0.0416
263,-0.1488,1.0175,0.0612
264,-0.1746,0.885,0.0496
265,-0.1761,0.9482,0.0062
266,-0.1815,0.8911,0.0308
267,-0.1714,0.9363,0.0519
268,-0.1721,0.9886,0.0295
269,-0.1585,0.9822,0.0386
270,-0.1958,0.9875,0.0623
271,-0.1882,1.0847,0.0241
272,-0.1747,1.0145,0.0201
273,-0.1314,1.0245,0.0309
274,-0.1594,0.9946,0.0458
275,-0.1873,0.9979,0.0484
276,-0.1531,1.0288,0.0587
277,-0.2018,1.0163,0.044
278,-0.1429,1.126,0.0454
279,-0.1558,0.9684,0.0295
280,-0.1851,0.8826,0.022
281,-0.1481,0.8639,0.04
282,-0.1596,0.8381,0.0295
283,-0.1519,0.9609,0.0327
284,-0.1412,0.9296,0.0264
285,-0.1368,0.9845,0.0059
286,-0.1637,1.0266,0.0218
287,-0.1647,1.0565,0.0415
288,-0.1515,0.9902,0.0381
289,-0.1946,1.0665,0.0223
290,-0.1851,1.0866,0.0083
291,-0.1655,1.0704,0.0406
292,-0.1676,1.0636,0.0096
293,-0.2063,1.0735,0.012
294,-0.2073,0.9487,0.009000000000000001
295,-0.1732,0.9417,0.0171
296,-0.1865,0.9603,0.0077
297,-0.1583,0.9786,-0.0112
298,-0.1939,0.9143,-0.0031
299,-0.1769,0.9618,-0.0007
300,-0.1671,0.8821,-0.0322
301,-0.101,0.9984,-0.043
302,-0.1324,0.9929,-0.0542
303,-0.1454,1.0378,-0.0159
304,-0.1935,0.9705,-0.093
305,-0.1472,1.0406,-0.0906
306,-0.1442,0.9962,-0.0952
307,-0.0991,1.0928,-0.0872
308,-0.1511,1.0176,-0.1131
309,-0.1813,1.1247,-0.0709
310,-0.1574,1.0793,-0.1517
311,-0.1246,1.1473,-0.1058
312,-0.1824,1.1019,-0.0775
313,-0.1568,1.0695,-0.0889
314,-0.1949,0.9608,-0.2609
315,-0.1224,1.1606,-0.16899999999999998
316,-0.1694,1.1006,-0.117
317,-0.1669,1.0797,-0.1055
318,-0.2625,0.903,-0.1415
319,-0.1691,0.8628,-0.1752
320,-0.1895,0.6199,-0.1401
321,-0.1317,0.7564,-0.1249
322,-0.2264,0.7338,-0.0916
323,-0.2524,0.8496,-0.1424
324,-0.2626,0.9069,-0.1592
325,-0.2125,0.9302,-0.1243
326,-0.1881,0.9713,-0.1136
327,-0.1961,0.9822,-0.1094
328,-0.2947,0.887,-0.1598
329,-0.2209,0.9726,-0.1465
330,-0.1824,0.9307,-0.109
331,-0.1671,0.9638,-0.0847
332,-0.1804,0.9011,-0.1022
333,-0.1609,0.9272,-0.1193
334,-0.1956,0.8732,-0.175
335,-0.1158,0.9661,-0.1178
336,-0.1309,0.9097,-0.1157
337,-0.1232,0.8562,-0.1085
338,-0.1902,0.8690000000000001,-0.1223
339,-0.1835,0.9988,-0.099
340,-0.1552,1.1495,-0.1506
341,-0.0672,1.0489,-0.1816
342,-0.2021,0.9846,-0.08800000000000001
343,-0.1781,0.9438,-0.0289
344,-0.2835,0.7996,-0.0825
345,-0.1299,1.3896,-0.1442
346,-0.2758,1.0377,-0.1129
347,-0.1513,1.432,-0.129
348,-0.3458,1.1941,-0.1417
349,-0.1454,1.4446,-0.1281
350,-0.2486,0.8543,-0.0769
351,-0.2411,0.8496,-0.1091
352,-0.1696,1.2979,-0.1114
353,-0.1777,1.0453,-0.1163
354,-0.1566,1.1306,-0.1028
355,-0.2049,1.0556,-0.1292
356,-0.2243,1.1139,-0.129
357,-0.1851,0.9675,-0.1376
358,-0.1581,0.9114,-0.1453
359,-0.1265,1.0981,-0.1166
360,-0.1841,0.947,-0.1332
361,-0.1584,0.9702,-0.118
362,-0.1687,0.9462,-0.1237
363,-0.1384,1.0085,-0.1026
364,-0.1494,0.9692,-0.1215
365,-0.165,0.9421,-0.1271
366,-0.1683,0.9692,-0.1295
367,-0.1854,0.9466,-0.1346
368,-0.1359,1.0038,-0.1095
369,-0.1675,0.968,-0.1216
370,-0.1742,0.9643,-0.0612
371,-0.1631,0.9335,-0.0278
372,-0.1641,0.9883,-0.0621
373,-0.1621,0.9028,-0.0834
374,-0.145,0.9736,-0.0239
375,-0.2241,0.7734,-0.0443
376,-0.1622,0.9327,-0.1228
377,-0.1938,0.8370000000000001,-0.1538
378,-0.1271,0.9423,-0.1408
379,-0.1862,0.8522,-0.1481
380,-0.1478,1.0527,-0.113
381,-0.2287,0.9164,-0.0891
382,-0.1392,1.1126,-0.0759
383,-0.1829,1.0107,-0.1144
384,-0.1506,1.0751,-0.1041
385,-0.1981,1.0205,-0.1429
386,-0.1824,1.0549,-0.1362
387,-0.1832,1.0159,-0.1798
388,-0.1365,1.1235,-0.1633
389,-0.1949,0.9802,-0.1501
390,-0.185,1.0601,-0.0784
391,-0.1774,0.9547,-0.0916
392,-0.1357,1.0663,-0.0289
393,-0.1764,1.0548,0.0071
394,-0.1628,1.0743,0.094
395,-0.1835,0.9501,0.0302
396,-0.172,1.0244,-0.0742
397,-0.1888,0.8892,-0.0734
398,-0.1577,0.8616,-0.035
399,-0.2116,0.7751,0.0016
400,-0.1672,0.8713,0.0657
401,-0.1815,0.7667,0.0379
402,-0.1409,0.9163,0.0378
403,-0.1882,0.8454,-0.0058
404,-0.1644,0.9499,-0.0167
405,-0.2247,0.8809999999999999,-0.0636
406,-0.1947,1.0264,-0.0392
407,-0.2332,1.0007,-0.0148
408,-0.2187,1.0663,0.0408
409,-0.2205,1.0916,0.0571
410,-0.1923,1.0613,0.0339
411,-0.1577,1.0746,0.0822
412,-0.1694,1.0428,0.0299
413,-0.2028,1.0062,0.0178
414,-0.1542,1.0612,-0.068
415,-0.2595,0.8885,-0.0048
416,-0.1473,1.1301,-0.0519
417,-0.2271,0.7822,-0.0239
418,-0.1126,1.1627,0.0374
419,-0.2084,0.9548,0.0044
420,-0.1048,0.8667,0.0352
421,-0.1064,1.1823,0.0245
422,-0.2057,0.8735,-0.075
423,-0.1191,1.1072,-0.0453
424,-0.2539,0.9071,-0.0482
425,-0.0999,0.8801,0.0192
426,-0.1207,1.2505,-0.0296
427,-0.2149,0.8464,0.0624
428,-0.0995,1.1658,-0.0204
429,-0.2311,0.8292,-0.0036
430,-0.0717,1.272,-0.0624
431,-0.223,0.9017,-0.0004
432,-0.1198,1.127,-0.0522
433,-0.2566,0.8440000000000001,-0.0502
434,-0.1342,1.1125,-0.0741
435,-0.189,0.7736,0.0053
436,-0.0544,1.048,0.0173
437,-0.1673,0.8162,-0.0001
438,-0.165,0.9841,-0.0185
439,-0.2396,0.8124,-0.0684
440,-0.1879,0.9968,-0.0339
441,-0.2077,0.9539,-0.0085
442,-0.2141,1.0184,0.0015
443,-0.2473,0.9946,-0.0146
444,-0.2743,0.9625,-0.0305
445,-0.2386,1.0095,-0.0054
446,-0.1916,1.0437,-0.0196
447,-0.2106,1.1396,-0.0211
448,-0.2625,0.9985,-0.0222
449,-0.2328,1.1124,-0.0513
450,-0.2275,0.9355,-0.0392
451,-0.1934,1.05,-0.0191
452,-0.2217,0.9636,-0.0654
453,-0.196,0.9455,0.0048
454,-0.1641,0.96,0.0316
455,-0.2397,0.9331,-0.0081
456,-0.1171,1.1053,-0.0884
457,-0.2153,0.9609,-0.0369
458,-0.2053,1.0465,-0.0739
459,-0.2233,0.9921,-0.0387
460,-0.1996,0.8423,-0.0147
461,-0.2241,0.7813,-0.0154
462,-0.2802,0.7141,0.0387
463,-0.2634,0.9163,0.0164
464,-0.2789,0.9093,0.0309
465,-0.2151,0.9636,-0.0148
466,-0.3104,1.0792,-0.0305
467,-0.3157,1.3157,-0.1089
468,-0.3568,1.0756,-0.092
469,-0.261,1.2313,-0.048
470,-0.2531,0.9928,0.0986
471,-0.2518,0.915,0.0048
472,-0.2773,0.7985,-0.0511
473,-0.2132,0.9938,0.0196
474,-0.1864,1.0041,0.0276
475,-0.1966,1.0472,-0.0564
476,-0.1995,1.1423,-0.0832
477,-0.2087,1.1738,-0.1144
478,-0.2376,1.0378,-0.0168
479,-0.23,0.996,0.0261
480,-0.1953,0.9705,0.0047
481,-0.1895,1.0098,-0.0456
482,-0.2005,0.9741,-0.027000000000000003
483,-0.1521,1.2327,-0.0244
484,-0.1946,1.1268,0.0552
485,-0.2517,1.1208,-0.0281
486,-0.3066,1.025,-0.0881
487,-0.2192,0.9755,-0.0759
488,-0.2885,1.0121,-0.0515
489,-0.2341,1.1335,-0.0602
490,-0.2224,1.053,-0.0665
491,-0.13699999999999998,1.1646,0.0417
492,-0.316,0.7988,-0.0085
493,-0.2471,1.0079,0.0504
494,-0.256,0.8682,-0.0342
495,-0.2171,0.9144,-0.0883
496,-0.1763,1.0687,-0.1
497,-0.1982,1.0921,0.0175
498,-0.2436,1.207,0.0186
499,-0.2132,0.6845,0.0057
500,-0.157,0.7744,0.0224
501,-0.2531,0.6624,-0.1239
502,-0.1211,1.123,-0.1092
503,-0.3194,1.3481,-0.1127
504,-0.3574,0.7847,-0.0523
505,-0.0932,1.4145,-0.0637
506,-0.3148,0.7856,-0.0643
507,-0.1938,1.1536,-0.0826
508,-0.386,1.0399,-0.1002
509,-0.2267,1.143,-0.0781
510,-0.2451,1.0719,-0.0834
511,-0.205,1.2441,-0.0784
512,-0.2664,1.0828,-0.0555
513,-0.2457,1.0571,-0.0604
514,-0.3132,0.8286,-0.1337
515,-0.2278,1.0986,-0.1399
516,-0.2951,0.9793,-0.1326
517,-0.1898,1.2321,-0.0363
518,-0.2609,0.9896,-0.087
519,-0.1715,1.0353,-0.064
520,-0.23,0.8762,-0.0305
521,-0.289,0.8743,-0.07200000000000001
522,-0.202,1.0505,-0.0847
523,-0.2157,1.0361,-0.0374
524,-0.1923,1.1152,-0.097
525,-0.2424,1.1036,-0.0961
526,-0.2065,0.9786,-0.1266
527,-0.2551,0.9335,-0.0917
528,-0.2203,1.0413,-0.0844
529,-0.2347,0.9988,-0.0922
530,-0.2106,0.9529,-0.0627
531,-0.2616,0.8514,-0.0836
532,-0.2171,0.9536,-0.0438
533,-0.2387,0.9084,-0.066
534,-0.2097,0.9858,-0.07400000000000001
535,-0.2336,0.9151,-0.1047
536,-0.261,1.025,-0.0848
537,-0.2841,0.9167,-0.0904
538,-0.245,0.9865,-0.0703
539,-0.2761,0.9073,-0.0922
540,-0.2191,1.0562,-0.0816
541,-0.3477,0.8355,-0.0549
542,-0.2454,1.0603,-0.0448
543,-0.2799,0.8607,-0.0981
544,-0.2152,0.9982,-0.0139
545,-0.2721,0.9973,-0.0734
546,-0.2779,1.0027,-0.1392
547,-0.2614,0.9448,-0.0729
548,-0.2696,0.97,-0.1412
549,-0.1889,1.1175,-0.08
550,-0.2594,0.9718,-0.0595
551,-0.2003,0.9432,-0.048
552,-0.2336,0.7866,-0.0917
553,-0.1501,0.8697,-0.0833
554,-0.2345,0.8518,-0.0593
555,-0.1622,1.0367,-0.0697
556,-0.207,0.9391,-0.0777
557,-0.204,1.0312,-0.1091
558,-0.248,1.0582,-0.0766
559,-0.2916,0.9627,-0.0928
560,-0.2347,1.0775,-0.0398
561,-0.2452,0.9958,-0.0649
562,-0.22,1.0227,-0.0822
563,-0.3478,0.9603,-0.1128
564,-0.2787,1.0752,-0.0683
565,-0.2626,1.0009,-0.0483
566,-0.1996,1.0356,-0.0725
567,-0.2339,0.9756,-0.0966
568,-0.2731,0.8765,-0.0893
569,-0.2495,0.9778,-0.0994
570,-0.1681,1.0208,-0.0667
571,-0.1641,1.1075,-0.063
572,-0.1969,1.0753,-0.0742
573,-0.1872,1.0648,-0.0347
574,-0.1879,0.9645,-0.0793
575,-0.1507,1.0487,-0.0417
576,-0.2227,1.0335,-0.0782
577,-0.1998,1.1039,-0.0607
578,-0.225,0.9946,-0.04
579,-0.2246,0.9821,-0.0323
580,-0.2271,1.0245,-0.0675
581,-0.2342,0.96,-0.0759
582,-0.2849,0.9357,-0.0295
583,-0.2133,1.0905,-0.0463
584,-0.2585,1.1432,-0.0646
585,-0.2336,1.092,-0.069
586,-0.2051,1.0339,-0.0659
587,-0.2864,0.9113,-0.0657
588,-0.1864,1.0554,-0.0656
589,-0.1961,0.9324,-0.0696
590,-0.1909,1.0734,-0.0716
591,-0.2162,0.999,-0.1039
592,-0.2005,1.0036,-0.0632
593,-0.1458,1.0298,-0.0981
594,-0.1295,1.032,-0.0741
595,-0.1503,1.0129,-0.075
596,-0.1353,0.9701,-0.0975
597,-0.1447,0.973,-0.0755
598,-0.1115,0.9578,-0.0699
599,-0.1442,0.9197,-0.0693
600,-0.1551,0.9311,-0.0801
601,-0.1487,0.9487,-0.0679
602,-0.1276,1.0454,-0.0957
603,-0.1472,1.0071,-0.0804
604,-0.0773,1.101,-0.0909
605,-0.1431,0.9512,-0.0786
606,-0.0684,1.0246,-0.112
607,-0.1831,0.8068,-0.0821
608,-0.0843,0.8271,-0.0479
609,-0.114,0.7084,-0.0399
610,-0.0142,0.8698,-0.0448
611,-0.0819,0.7090000000000001,-0.0933
612,-0.0826,0.8515,-0.0498
613,-0.1221,0.8311,-0.0514
614,-0.0634,1.0239,-0.0485
615,-0.0275,1.095,-0.1158
616,-0.0373,1.1467,-0.103
617,-0.1044,1.0713,-0.0523
618,-0.0884,1.1326,-0.0872
619,-0.071,1.0662,-0.0397
620,-0.0074,1.1299,-0.0707
621,-0.0596,1.1053,-0.0635
622,-0.0988,1.1277,-0.1086
623,-0.1389,0.8948,-0.09
624,-0.0536,0.9464,-0.0867
625,-0.093,0.9923,-0.1042
626,-0.0686,1.1665,-0.112
627,-0.1388,1.0394,-0.0834
628,-0.116,1.1637,-0.0792
629,-0.1249,0.9558,-0.0933
630,-0.0728,1.1505,-0.0958
631,-0.0977,1.0298,-0.1699
632,-0.0698,1.1386,-0.1196
633,-0.0604,1.09,-0.0378
634,-0.0511,1.0701,-0.0833
635,-0.0233,1.083,-0.1281
636,-0.0466,0.9272,-0.1995
637,-0.0242,0.9408,-0.1068
638,-0.0096,0.8536,-0.0831
639,0.013,0.9119,-0.1521
640,-0.0566,0.9091,-0.1041
641,0.0088,0.9995,-0.0889
642,-0.0185,0.9012,-0.0576
643,0.0609,0.9124,-0.0815
644,0.0251,0.8766,-0.1235
645,-0.0306,0.8322,-0.1639
646,-0.1554,0.8420000000000001,-0.1041
647,-0.0619,1.1031,-0.0872
648,0.0043,0.8931,-0.0647
649,-0.0028,1.0558,-0.1027
650,-0.1268,0.8768,-0.1498
651,-0.1598,0.7964,-0.1107
652,-0.2041,0.6585,-0.0974
653,-0.0892,1.0187,-0.0788
654,-0.0627,0.9456,-0.0745
655,-0.1225,1.0839,-0.1631
656,-0.1556,1.0128,-0.0933
657,-0.1506,1.0598,-0.1112
658,-0.1537,1.0132,-0.1255
659,-0.0646,1.188,-0.1526
660,-0.1031,1.1387,-0.1324
661,-0.1149,1.0909,-0.0859
662,-0.0887,1.0866,-0.0642
663,0.0245,1.1279,-0.1668
664,-0.0182,0.8655,-0.1542
665,-0.1214,0.8079,-0.0849
666,-0.1092,0.6133,-0.0768
667,0.0056,1.0035,-0.1064
668,-0.0271,0.8898,-0.1385
669,-0.0081,0.9626,-0.1393
670,-0.1677,0.8281,-0.1295
671,-0.0988,0.954,-0.1166
672,-0.145,0.7379,-0.0639
673,0.0064,1.1856,-0.1333
674,-0.0735,0.9575,-0.1387
675,-0.0741,1.0273,-0.1436
676,-0.1738,0.8465,-0.08
677,-0.0618,1.0473,-0.1485
678,-0.0633,0.9935,-0.0716
679,0.0104,1.1063,-0.1418
680,-0.0963,0.9509,-0.1462
681,-0.1201,1.0262,-0.0963
682,-0.104,0.9977,-0.1332
683,-0.0417,1.1208,-0.1339
684,-0.0389,0.9778,-0.142
685,-0.0825,0.8238,-0.1036
686,-0.1555,0.7469,-0.0912
687,-0.0575,0.8319,-0.1476
688,-0.0206,0.7878,-0.094
689,-0.1152,0.8463,-0.0894
690,-0.1379,0.9202,-0.1024
691,-0.0926,0.9467,-0.112
692,-0.1097,0.8954,-0.0908
693,0.0028,1.1194,-0.1347
694,-0.1,1.004,-0.0822
695,-0.061,1.1008,-0.1129
696,-0.0894,0.9177,-0.1045
697,-0.0873,1.0043,-0.0788
698,-0.0911,0.8531,-0.0656
699,0.0043,1.0211,-0.1079
700,-0.0073,0.9539,-0.085
701,-0.0818,1.0076,-0.1108
702,-0.0566,1.0751,-0.0897
703,-0.0137,1.1882,-0.1364
704,-0.0481,1.0283,-0.1099
705,0.0331,1.1606,-0.0663
706,-0.0286,1.119,-0.1133
707,-0.0001,1.103,-0.0874
708,-0.0048,1.1487,-0.1041
709,0.0079,1.2033,-0.1042
710,0.015,1.149,-0.0848
711,0.018000000000000002,1.1476,-0.1119
712,0.0189,1.1685,-0.1205
713,0.0091,1.0994,-0.0999
714,-0.0143,1.0521,-0.095
715,0.0314,1.0704,-0.1484
716,-0.0188,0.9667,-0.1143
717,-0.0383,1.0518,-0.1172
718,-0.0251,1.0549,-0.1306
719,-0.0375,0.9805,-0.1144
720,-0.0353,1.0408,-0.1082
721,-0.0537,0.97,-0.1356
722,-0.0061,0.8879,-0.1271
723,-0.009000000000000001,0.9479,-0.1239
724,-0.0673,0.9161,-0.1051
725,-0.0181,0.8472,-0.1235
726,-0.006999999999999999,0.9209,-0.1364
727,0.0173,1.0096,-0.11
728,0.0536,0.9443,-0.1157
729,0.0092,0.8422,-0.1122
730,0.0082,1.0018,-0.1226
731,0.0117,0.9689,-0.0939
732,0.0315,0.9216,-0.1035
733,0.0609,0.9723,-0.1195
734,0.0219,0.9348,-0.1183
735,0.005,0.8726,-0.1301
736,0.0219,0.9578,-0.1184
737,0.022,0.9674,-0.0842
738,-0.0105,0.9077,-0.1061
739,-0.0172,0.9407,-0.1071
740,-0.0232,0.9518,-0.1167
741,0.0215,0.9941,-0.1047
742,-0.0197,0.9512,-0.1178
743,-0.0056,1.0211,-0.1161
744,0.0014,1.0895,-0.1266
745,0.0121,1.0504,-0.1022
746,0.0014,1.0963,-0.1058
747,0.0026,1.1392,-0.0992
748,0.0426,1.0944,-0.1392
749,0.003,0.9695,-0.1225
750,0.0013,1.0365,-0.1227
751,0.0572,1.0911,-0.0871
752,0.0287,0.9764,-0.1604
753,0.0318,1.0473,-0.1229
754,0.0442,1.0849,-0.1068
755,0.0503,0.9063,-0.103
756,0.0049,0.9196,-0.1271
757,0.0362,0.9809,-0.1158
758,0.0193,0.8878,-0.1148
759,0.0576,1.027,-0.1035
760,-0.0085,0.9932,-0.1427
761,0.0378,1.1215,-0.0911
762,0.0023,0.939,-0.1187
763,0.053,1.0584,-0.1234
764,0.0132,0.9846,-0.1319
765,0.0463,0.9615,-0.0804
766,0.0311,0.9758,-0.1336
767,0.0226,0.929,-0.1058
768,0.0394,1.0879,-0.0973
769,0.0231,0.9274,-0.1155
770,0.0278,0.949,-0.1128
771,0.0286,1.0189,-0.1136
772,0.038,0.9793,-0.115
773,0.0062,0.9932,-0.1374
774,0.0308,1.0279,-0.1092
775,0.0102,1.03,-0.0955
776,0.0467,1.0024,-0.113
777,0.0433,1.0433,-0.1015
778,0.022,0.9456,-0.1109
779,0.0485,1.0184,-0.1134
780,0.0409,1.0286,-0.1153
781,0.0483,1.0758,-0.1231
782,0.0614,1.1223,-0.1089
783,0.0463,1.1088,-0.1048
784,0.0229,1.0524,-0.1088
785,0.0533,1.1026,-0.1149
786,0.0593,0.9682,-0.1131
787,0.0452,1.0243,-0.1286
788,0.0356,1.004,-0.1094
789,0.0263,1.006,-0.0919
790,0.0368,1.024,-0.1151
791,0.052000000000000005,1.0335,-0.1234
792,0.0265,0.9781,-0.1042
793,0.0281,0.9951,-0.1141
794,0.0122,0.9274,-0.1216
795,0.0558,1.0231,-0.1064
796,0.0245,0.9993,-0.1113
797,0.0645,1.048,-0.108
798,0.0202,0.988,-0.1279
799,0.0571,1.0411,-0.128
800,0.0511,1.0217,-0.1091
801,0.0642,0.997,-0.0975
802,0.0467,0.9987,-0.122
803,0.0501,0.9976,-0.1149
804,0.0595,0.9894,-0.1207
805,0.0773,1.0239,-0.1122
806,0.0305,0.9892,-0.1112
807,0.0521,0.99,-0.1111
808,0.0267,0.9645,-0.1428
809,0.0505,1.0117,-0.1384
810,0.0529,0.9832,-0.1192
811,0.0526,0.9907,-0.1167
812,-0.0069,0.9946,-0.1277
813,0.0388,1.0385,-0.1405
814,0.0316,0.9614,-0.107
815,0.0531,0.9454,-0.1304
816,0.0331,0.9484,-0.1375
817,0.0583,0.9578,-0.1415
818,0.0501,0.8932,-0.1174
819,0.0607,0.9926,-0.138
820,0.0406,0.9432,-0.1223
821,0.0623,0.9949,-0.1313
822,0.037000000000000005,0.9323,-0.127
823,0.0694,0.9771,-0.1163
824,0.0187,0.8678,-0.0992
825,0.0554,0.9817,-0.1043
826,0.0197,0.9273,-0.1097
827,0.0538,0.9893,-0.1256
828,0.0023,0.9028,-0.0992
829,0.0372,0.9858,-0.123
830,0.0098,0.8824,-0.119
831,0.0451,0.9894,-0.1181
832,0.0273,0.9957,-0.1022
833,0.0239,1.0186,-0.0871
834,0.0368,1.0136,-0.1159
835,0.0413,1.02,-0.1064
836,0.0725,0.9819,-0.0898
837,0.0494,1.0274,-0.0941
838,0.0094,0.9631,-0.1144
839,0.0681,1.0712,-0.1047
840,0.0476,1.0579,-0.1102
841,0.0558,1.1167,-0.0939
842,0.0173,1.0707,-0.0978
843,0.0256,1.1042,-0.1462
844,0.0304,1.1275,-0.0769
845,0.0308,1.1129,-0.0894
846,0.0156,1.1083,-0.0977
847,-0.0173,1.0919,-0.1345
848,0.0079,1.1379,-0.1104
849,0.0311,1.0844,-0.0898
850,0.0287,1.1479,-0.1373
851,-0.006,1.0869,-0.1055
852,0.0141,1.1339,-0.1238
853,0.0112,1.0958,-0.127
854,0.0303,1.1186,-0.1347
855,0.0666,1.1367,-0.105
856,-0.0086,0.9653,-0.1097
857,0.008,0.9975,-0.1235
858,0.0369,1.046,-0.1198
859,0.0418,0.9246,-0.1035
860,0.0652,1.0214,-0.1465
861,0.0077,0.9318,-0.1306
862,0.0362,0.9861,-0.1011
863,0.0457,0.959,-0.1065
864,0.0656,1.0151,-0.1255
865,0.0106,0.9656,-0.1082
866,0.0303,0.9839,-0.1172
867,0.034,0.962,-0.1261
868,0.0723,1.0161,-0.1085
869,0.0399,0.9913,-0.1047
870,0.0406,1.0082,-0.1161
871,0.0306,0.9738,-0.1288
872,0.0562,0.9969,-0.1094
873,0.069,1.0517,-0.1121
874,0.0605,0.9302,-0.0991
875,0.0659,0.9893,-0.0946
876,0.0374,0.9245,-0.1213
877,0.0496,0.9641,-0.1145
878,0.0538,0.9591,-0.1111
879,0.0446,0.984,-0.1073
880,0.0297,1.0526,-0.1082
881,0.0037,0.981,-0.1346
882,0.0413,1.0698,-0.1382
883,0.0148,0.997,-0.104
884,0.0464,1.0346,-0.0791
885,0.0301,1.0339,-0.1085
886,0.0258,1.0123,-0.1299
887,0.03,1.004,-0.1065
888,0.0383,1.0328,-0.0891
889,0.0629,1.0694,-0.1227
890,0.0652,0.9941,-0.1349
891,0.064,1.0319,-0.1074
892,0.0134,1.0488,-0.1058
893,0.0375,1.0467,-0.1162
894,0.0557,0.9864,-0.1334
895,0.0602,1.0052,-0.0953
896,0.0305,0.9748,-0.1077
897,0.0347,0.9354,-0.1136
898,0.0291,0.9456,-0.1161
899,0.0079,1.0114,-0.1321
900,0.0555,1.0521,-0.1183
901,0.0135,0.9728,-0.0905
902,0.0274,1.0399,-0.1223
903,0.0078,0.9979,-0.1553
904,0.0179,0.9346,-0.14
905,0.0407,1.0103,-0.0947
906,-0.0057,0.9498,-0.0891
907,0.0369,1.0126,-0.1152
908,-0.0034,0.9251,-0.1251
909,0.0384,0.9822,-0.1045
910,0.0451,1.0268,-0.1037
911,0.0007,0.9353,-0.114
912,-0.0138,0.9941,-0.136
913,0.0388,1.03,-0.1475
914,0.0586,0.998,-0.1134
915,0.0561,1.1057,-0.1125
916,-0.0327,0.9738,-0.1198
917,0.0037,0.9974,-0.1022
918,-0.017,0.9413,-0.1194
919,0.0729,1.0125,-0.0706
920,-0.0101,0.8903,-0.13699999999999998
921,0.0206,1.0212,-0.098
922,-0.0294,0.9258,-0.1294
923,0.0381,1.0286,-0.0787
924,0.0175,0.942,-0.1102
925,0.0331,0.9743,-0.117
926,-0.0533,0.9322,-0.1368
927,0.0109,1.0642,-0.1151
928,0.0128,1.0356,-0.1064
929,0.0262,1.147,-0.1046
930,-0.0631,0.9728,-0.1357
931,0.0084,1.0987,-0.1011
932,-0.0042,0.9893,-0.0913
933,0.024,1.0807,-0.093
934,0.0073,1.0439,-0.0969
935,-0.0447,0.9049,-0.1304
936,-0.0529,0.8956,-0.1201
937,0.0007,0.9991,-0.1185
938,0.0421,1.04,-0.1406
939,-0.0284,1.0497,-0.1131
940,-0.0637,1.0972,-0.0424
941,-0.0357,0.9662,-0.0882
942,-0.0089,0.9993,-0.1187
943,-0.07400000000000001,0.8966,-0.1162
944,-0.0411,0.9498,-0.1094
945,-0.0491,0.9747,-0.1014
946,-0.0717,0.9737,-0.1063
947,-0.0463,1.0694,-0.11
948,-0.0501,1.1011,-0.1439
949,-0.0382,1.1573,-0.1147
950,-0.0419,1.1337,-0.0875
951,-0.043,1.012,-0.1065
952,-0.0312,0.9274,-0.1317
953,-0.0554,0.8929,-0.0875
954,0.0305,1.0178,-0.0852
955,-0.0128,0.984,-0.1212
956,-0.015,1.0585,-0.1302
957,-0.0897,0.9524,-0.1082
958,-0.0309,1.0409,-0.1064
959,-0.0424,0.8838,-0.1276
960,-0.0494,0.9713,-0.1109
961,-0.1046,0.9819,-0.1119
962,-0.0825,1.0204,-0.1379
963,-0.1254,0.9413,-0.1326
964,-0.0501,1.1011,-0.1042
965,-0.0847,1.0909,-0.1248
966,-0.0997,0.9802,-0.0895
967,-0.1123,1.0508,-0.1051
968,-0.0787,1.0056,-0.1514
969,-0.1085,0.8444,-0.0687
970,-0.0306,0.9099,-0.1105
971,-0.0739,0.8616,-0.1834
972,-0.0477,1.0066,-0.1227
973,-0.0433,0.9858,-0.0252
974,-0.0926,1.0309,-0.106
975,-0.0804,1.0366,-0.0744
976,-0.0976,0.9407,-0.0554
977,-0.0177,0.902,-0.1019
978,0.0137,0.9758,-0.1068
979,-0.0641,0.8939,-0.1086
980,-0.1019,0.8101,-0.0834
981,-0.0179,0.9463,-0.0785
982,-0.0875,0.872,-0.1356
983,-0.0118,1.1942,-0.0657
984,-0.126,0.9409,-0.062
985,-0.1005,0.9454,-0.1146
986,-0.0977,0.9725,-0.1347
987,-0.0927,0.9406,-0.0712
988,-0.101,0.999,-0.0363
989,-0.1469,1.0204,-0.181
990,-0.0985,1.053,-0.1191
991,-0.1094,1.1246,-0.0814
992,-0.1824,0.9787,-0.1277
993,-0.1035,0.9235,-0.1052
994,-0.0946,0.8638,-0.0737
995,-0.0925,1.0204,-0.1129
996,-0.1191,0.9895,-0.1346
997,-0.0902,1.0933,-0.1303
998,-0.0677,0.9849,-0.0637
999,0.0227,1.2101,-0.0825
1000,-0.0634,1.1014,-0.0935
1001,-0.0488,0.9203,-0.1186
1002,-0.1502,0.9558,-0.0976
1003,0.0074,0.8932,-0.0876
1004,0.043,0.8482,-0.0827
1005,0.0276,0.8367,-0.1467
1006,-0.0513,0.8561,-0.0381
1007,-0.0895,0.8445,-0.0799
1008,-0.0632,0.7888,-0.0605
1009,-0.042,0.8937,-0.0515
1010,-0.0444,0.9564,-0.0786
1011,-0.0409,0.9171,-0.1225
1012,-0.116,0.8541,-0.1001
1013,-0.1537,0.8746,-0.0936
1014,-0.0732,1.0012,-0.0666
1015,-0.0498,0.9426,-0.1158
1016,-0.1381,0.8964,-0.1243
1017,-0.1588,1.0752,-0.0768
1018,-0.158,1.0115,-0.0759
1019,0.0016,1.0711,-0.0692
1020,-0.1524,0.8738,-0.0881
1021,-0.0788,0.9022,-0.0846
1022,-0.129,0.7325,-0.0875
1023,-0.0529,0.8647,-0.0754
1024,0.0042,0.9399,-0.0963
1025,-0.0112,1.0245,-0.0815
1026,-0.0167,1.017,-0.0612
1027,-0.0401,1.1329,-0.0701
1028,0.0193,1.132,-0.0522
1029,0.0233,1.2103,-0.0591
1030,0.0018,1.1372,-0.0539
1031,-0.0251,1.0372,-0.0924
1032,-0.0153,1.0287,-0.078
1033,0.0023,0.9353,-0.0841
1034,0.0187,1.0035,-0.0728
1035,-0.0245,0.9598,-0.0856
1036,-0.0219,1.0593,-0.066
1037,-0.0476,1.0268,-0.0601
1038,-0.0422,1.1135,-0.0692
1039,-0.0632,1.0933,-0.0634
1040,-0.0633,1.0865,-0.0709
1041,-0.0355,1.1191,-0.0986
1042,-0.0496,1.0872,-0.0983
1043,-0.0598,1.084,-0.0837
1044,-0.054000000000000006,1.1071,-0.0997
1045,-0.0556,1.1065,-0.1063
1046,-0.0466,1.1111,-0.0988
1047,-0.0338,1.0681,-0.1149
1048,-0.0557,0.981,-0.0895
1049,-0.034,0.9767,-0.1056
1050,-0.0224,0.9703,-0.1044
1051,-0.0234,0.9668,-0.106
1052,-0.0565,1.0029,-0.0834
1053,-0.0475,1.0341,-0.0997
1054,-0.0362,1.0433,-0.1299
1055,-0.0458,0.947,-0.1351
1056,-0.0832,0.9977,-0.1321
1057,-0.0745,0.9841,-0.0849
1058,-0.0511,0.9738,-0.0964
1059,-0.0399,0.9635,-0.0875
1060,-0.0427,0.9603,-0.1128
1061,-0.0817,0.8908,-0.0846
1062,-0.0483,0.8754,-0.08800000000000001
1063,-0.0611,0.7832,-0.0851
1064,-0.0171,0.7905,-0.098
1065,-0.0337,0.7501,-0.1124
1066,-0.0035,0.8192,-0.1138
1067,-0.0181,0.8021,-0.0763
1068,-0.0299,0.8447,-0.0941
1069,-0.0444,0.8596,-0.0842
1070,-0.0182,0.9485,-0.084
1071,-0.0296,0.9164,-0.0461
1072,0.0082,1.0023,-0.0567
1073,-0.0392,0.959,-0.0884
1074,-0.0366,0.9636,-0.0867
1075,-0.0709,0.8691,-0.0688
1076,-0.0116,0.9991,-0.059
1077,-0.0715,0.942,-0.0869
1078,-0.0632,1.0535,-0.0881
1079,-0.1093,0.986,-0.1303
1080,-0.0988,1.1206,-0.0864
1081,-0.0927,1.0798,-0.0729
1082,-0.0869,1.0606,-0.0882
1083,-0.0889,1.0809,-0.0881
1084,-0.0959,1.0958,-0.0689
1085,-0.0675,1.1075,-0.1301
1086,-0.0482,1.1307,-0.1235
1087,-0.0754,1.0952,-0.116
1088,-0.0637,1.0553,-0.0929
1089,-0.0354,1.0917,-0.0074
1090,0.017,1.2201,-0.0813
1091,-0.0254,1.0966,-0.1909
1092,0.0052,1.1003,-0.0585
1093,-0.0072,1.1128,-0.0975
1094,-0.0181,0.8866,-0.0319
1095,0.0797,1.126,-0.1909
1096,-0.0052,0.8593,-0.1024
1097,0.006999999999999999,1.0571,-0.07
1098,-0.0685,0.8443,-0.0798
1099,-0.0091,1.0108,-0.0948
1100,0.0164,1.0046,-0.1329
1101,0.0226,1.027,-0.0983
1102,-0.0728,1.0153,-0.0906
1103,-0.0159,1.0823,-0.1166
1104,-0.0684,0.8595,-0.114
1105,0.0066,0.9708,-0.0946
1106,-0.0346,0.9615,-0.093
1107,-0.0149,1.0277,-0.1193
1108,-0.0884,0.899,-0.1439
1109,-0.016,1.0246,-0.1122
1110,-0.0958,0.7885,-0.0568
1111,-0.0149,0.9913,-0.07
1112,-0.0983,0.6472,-0.0809
1113,-0.0067,0.9228,-0.0396
1114,-0.0982,0.7831,-0.2192
1115,-0.0367,0.9992,-0.1823
1116,-0.0822,0.9801,-0.1008
1117,-0.0126,1.085,-0.0815
1118,-0.0436,0.9478,-0.1006
1119,0.0169,1.1585,-0.1501
1120,-0.0342,1.0483,-0.0361
1121,-0.0103,1.1752,-0.0554
1122,-0.0267,1.1395,-0.1277
1123,-0.0102,1.167,-0.1421
1124,-0.0417,0.7803,-0.0674
1125,-0.0037,0.6252,-0.1132
1126,-0.0927,0.4399,-0.1098
1127,0.0673,0.9196,-0.1072
1128,-0.0438,1.0939,-0.1044
1129,-0.063,0.8859,-0.1067
1130,-0.0442,1.4214,-0.0774
1131,-0.0466,1.1011,-0.0804
1132,-0.0302,1.2216,-0.118
1133,-0.027000000000000003,0.9139,-0.0958
1134,-0.032,1.2621,-0.1183
1135,-0.1094,0.9988,-0.1216
1136,-0.0042,1.1475,-0.1014
1137,-0.0376,1.1509,-0.1359
1138,-0.0379,1.1987,-0.1132
1139,-0.059,1.0199,-0.1381
1140,-0.0256,1.1082,-0.1136
1141,-0.0647,0.9935,-0.0979
1142,-0.0309,1.0814,-0.0968
1143,-0.0645,0.9727,-0.1249
1144,-0.0214,1.1293,-0.0853
1145,-0.077,0.9711,-0.1078
1146,-0.0066,1.1307,-0.1465
1147,-0.0974,0.938,-0.123
1148,-0.0175,1.054,-0.1083
1149,-0.0646,0.9291,-0.1304
1150,0.0277,1.148,-0.0842
1151,-0.0469,0.9899,-0.0924
1152,-0.0902,0.9827,-0.119
1153,-0.1204,1.0775,-0.11
1154,-0.0325,0.9573,-0.1182
1155,-0.0308,0.914,-0.1191
1156,-0.0568,0.9612,-0.1196
1157,-0.0772,0.9176,-0.1054
1158,-0.0838,0.8483,-0.113
1159,-0.0638,0.9835,-0.1071
1160,-0.0492,0.921,-0.1052
1161,-0.0778,0.9774,-0.1393
1162,-0.048,1.0046,-0.0958
1163,-0.0607,0.9061,-0.0954
1164,-0.0323,1.0145,-0.1251
1165,-0.0926,0.9156,-0.0927
1166,-0.0288,0.9329,-0.1201
1167,-0.0537,0.9196,-0.1206
1168,-0.0546,1.0247,-0.1028
1169,-0.0467,0.9952,-0.1328
1170,-0.0591,0.9951,-0.0873
1171,-0.0778,1.0309,-0.1202
1172,-0.069,0.963,-0.1092
1173,-0.0684,1.0118,-0.0802
1174,-0.0425,1.0604,-0.133
1175,-0.0638,1.0075,-0.126
1176,-0.0292,1.0496,-0.1047
1177,-0.0713,1.038,-0.0795
1178,-0.015,1.034,-0.1322
1179,-0.0651,1.0546,-0.1249
1180,-0.0391,1.0483,-0.1063
1181,-0.0663,1.0207,-0.1013
1182,-0.0295,1.0343,-0.1259
1183,-0.0302,0.992,-0.1022
1184,-0.0263,1.0621,-0.0801
1185,-0.0347,0.9305,-0.1396
1186,-0.0645,0.8807,-0.0684
1187,-0.0125,1.0737,-0.1025
1188,-0.0526,0.9551,-0.1387
1189,-0.0272,0.9924,-0.062
1190,-0.077,0.9294,-0.1212
1191,-0.0616,0.9157,-0.1055
1192,-0.0452,0.9058,-0.1268
1193,-0.0383,0.9797,-0.0749
1194,-0.0794,0.9783,-0.102
1195,-0.1003,1.0361,-0.1129
1196,-0.084,0.9611,-0.0922
1197,-0.0244,1.0871,-0.1155
1198,-0.0531,1.1426,-0.0807
1199,-0.0868,0.9428,-0.1197
1200,-0.1086,1.0483,-0.1273
1201,-0.0558,1.0533,-0.1273
1202,-0.0446,1.0291,-0.1243
1203,-0.006,1.0262,-0.0839
1204,-0.0754,0.9744,-0.0845
1205,-0.0807,1.1257,-0.1215
1206,-0.0169,1.0352,-0.0867
1207,-0.0539,1.0193,-0.1339
1208,-0.0805,1.0633,-0.084
1209,-0.0464,1.0851,-0.1068
1210,-0.0699,0.8813,-0.1061
1211,-0.0259,1.0702,-0.1407
1212,-0.0615,0.9875,-0.0898
1213,-0.0653,0.9779,-0.1215
1214,-0.0897,0.996,-0.1387
1215,-0.0439,1.0893,-0.079
1216,-0.0128,1.0979,-0.1258
1217,-0.0784,1.0373,-0.0834
1218,-0.0878,1.0226,-0.1237
1219,-0.064,0.985,-0.0908
1220,-0.017,0.9949,-0.1239
1221,-0.0399,1.0709,-0.1165
1222,-0.0455,0.966,-0.0992
1223,-0.0942,0.9698,-0.0927
1224,-0.0492,0.9744,-0.1175
1225,-0.0184,0.9737,-0.1321
1226,-0.067,0.8137,-0.0925
1227,-0.0193,1.1022,-0.0965
1228,-0.0948,0.9777,-0.077
1229,-0.0416,0.9083,-0.1357
1230,-0.0944,1.047,-0.0607
1231,-0.046,0.9561,-0.1302
1232,-0.04,0.9462,-0.1091
1233,-0.0726,0.9125,-0.1209
1234,-0.0427,1.0543,-0.1027
1235,-0.0674,0.9676,-0.1415
1236,-0.0477,0.9772,-0.0695
1237,-0.0538,1.0209,-0.1049
1238,-0.0789,1.0604,-0.1217
1239,-0.0339,1.0532,-0.1323
1240,-0.0399,1.0041,-0.0775
1241,-0.0435,1.0545,-0.0842
1242,-0.0942,0.9568,-0.1053
1243,-0.0247,1.0468,-0.1223
1244,-0.0339,0.9651,-0.1125
1245,-0.0109,1.0183,-0.1257
1246,-0.0831,1.0455,-0.0964
1247,-0.0703,0.9438,-0.0531
1248,-0.0197,1.0508,-0.153
1249,-0.0622,0.9072,-0.1395
1250,-0.0531,1.0791,-0.0768
1251,-0.0715,1.0146,-0.0889
1252,-0.0396,0.9395,-0.1419
1253,-0.1031,1.0537,-0.13699999999999998
1254,-0.051,1.0697,-0.0483
1255,-0.001,0.9496,-0.1055
1256,-0.0956,0.8609,-0.1611
1257,-0.0406,1.0832,-0.0964
1258,-0.0528,1.0297,-0.1126
1259,-0.0455,1.0168,-0.1123
1260,-0.0588,0.8962,-0.1431
1261,-0.0516,0.9662,-0.0475
1262,-0.0639,0.9055,-0.1138
1263,-0.0533,0.9249,-0.133
1264,-0.0555,1.0651,-0.1062
1265,-0.0607,0.9863,-0.0709
1266,-0.08199999999999999,0.9614,-0.0962
1267,-0.0527,0.9746,-0.173
1268,-0.0063,0.9037,-0.0714
1269,-0.0458,0.9532,-0.0587
1270,-0.0831,1.0031,-0.1447
1271,-0.0845,0.916,-0.1503
1272,-0.0262,1.0334,-0.0665
1273,-0.0282,1.0377,-0.0786
1274,-0.0724,0.9232,-0.1533
1275,-0.0477,1.0271,-0.075
1276,-0.011,1.0756,-0.1248
1277,-0.0589,0.8474,-0.0671
1278,-0.1711,0.979,-0.1633
1279,-0.0207,1.0226,-0.1141
1280,0.0087,0.9545,-0.0657
1281,0.0198,1.0051,-0.1064
1282,-0.0972,0.9662,-0.1234
1283,-0.076,1.1354,-0.1369
1284,-0.0811,0.8774,-0.0838
1285,-0.0662,0.9904,-0.0762
1286,-0.0052,1.0788,-0.1594
1287,-0.0241,0.9728,-0.121
1288,-0.04,0.9968,-0.0822
1289,-0.0941,0.8864,-0.1485
1290,-0.0352,1.0956,-0.1217
1291,-0.0169,0.9277,-0.0707
1292,0.0044,1.0844,-0.0536
1293,-0.075,1.032,-0.173
1294,-0.0436,0.9774,-0.1797
1295,-0.0514,1.0362,-0.0397
1296,-0.0527,0.9257,-0.0811
1297,0.0071,1.0891,-0.1525
1298,-0.0821,0.8533,-0.1279
1299,0.004,1.104,-0.1077
1300,-0.0553,1.0394,-0.0945
1301,-0.0279,0.9866,-0.1137
1302,-0.087,0.9133,-0.113
1303,0.0247,1.1001,-0.0751
1304,-0.0471,1.0042,-0.11
1305,0.0201,1.0645,-0.1486
1306,-0.0735,0.8879,-0.0986
1307,-0.0287,1.0073,-0.0925
1308,-0.069,0.9421,-0.0883
1309,0.0085,0.9251,-0.1211
1310,-0.0096,0.9009,-0.1165
1311,0.0369,1.2189,-0.118
1312,-0.0875,0.8114,-0.1178
1313,-0.0737,1.0868,-0.1338
1314,-0.0602,0.9499,-0.0565
1315,0.0062,1.107,-0.0778
1316,0.0064,1.0981,-0.1493
1317,-0.0466,0.92,-0.194
1318,-0.1266,1.0105,-0.0602
1319,0.0151,1.0732,-0.0602
1320,-0.0292,0.8799,-0.106
1321,-0.0704,0.9003,-0.2458
1322,0.0289,1.0728,-0.095
1323,-0.0159,0.9977,-0.0883
1324,-0.0859,0.8929,-0.1086
1325,-0.0876,1.0163,-0.1454
1326,-0.0952,0.9917,-0.1315
1327,0.0596,1.1223,-0.1273
1328,0.019,0.9875,-0.0928
1329,-0.091,0.9293,-0.1344
1330,-0.0358,1.0425,-0.0701
1331,0.0002,0.9094,-0.1868
1332,-0.0138,0.9734,-0.1196
1333,-0.0239,1.0473,-0.1121
1334,-0.0421,1.1257,-0.1198
1335,-0.0352,0.9167,-0.1544
1336,-0.0298,0.9996,-0.1516
1337,-0.0329,0.9316,-0.1135
1338,-0.0602,1.0396,-0.2259
1339,-0.0358,1.069,-0.1615
1340,0.0113,0.9324,-0.1736
1341,-0.0817,0.9983,-0.1045
1342,-0.0241,1.0758,-0.1754
1343,0.0232,0.9644,-0.2156
1344,-0.0842,0.8934,-0.13
1345,-0.0323,0.9489,-0.123
1346,-0.0507,0.9813,-0.1466
1347,0.022,0.8487,-0.114
1348,-0.0441,0.8851,-0.1334
1349,0.0095,1.0616,-0.1381
1350,-0.0615,0.9639,-0.0922
1351,-0.0983,1.014,-0.1152
1352,0.0304,1.2253,-0.1719
1353,-0.0795,0.9279,-0.1312
1354,-0.0095,1.0377,-0.0969
1355,-0.0375,1.1029,-0.1749
1356,-0.0628,0.8934,-0.1742
1357,-0.0975,0.968,-0.1694
1358,-0.0837,0.9312,-0.1122
1359,0.028,1.0329,-0.0893
1360,-0.0179,1.0332,-0.1182
1361,-0.024,1.0497,-0.1968
1362,-0.068,0.9999,-0.1807
1363,-0.0098,1.0395,-0.0895
1364,-0.075,0.8415,-0.1115
1365,-0.0265,0.9799,-0.184
1366,0.0472,0.9046,-0.1198
1367,-0.0068,1.0571,-0.0594
1368,-0.0609,1.0604,-0.1454
1369,0.0608,1.1166,-0.0853
1370,-0.0114,0.9933,-0.0875
1371,-0.0271,0.9434,-0.173
1372,0.0153,1.1161,-0.208
1373,-0.0966,0.7036,-0.1776
1374,0.0414,1.1482,-0.0017
1375,-0.0421,0.9905,-0.1436
1376,0.0026,1.0374,-0.1651
1377,-0.0853,0.8467,-0.1865
1378,-0.0449,0.9876,-0.2167
1379,-0.0496,1.0508,-0.0469
1380,0.053,1.2324,-0.0685
1381,-0.0749,0.7426,-0.1424
1382,-0.0616,1.0218,-0.2486
1383,-0.0025,1.1188,-0.1313
1384,-0.0297,0.921,-0.1158
1385,0.0096,1.2512,-0.1508
1386,-0.0861,0.9435,-0.136
1387,0.035,1.1024,-0.1354
1388,-0.0084,1.0645,-0.2191
1389,0.1181,1.147,-0.1209
1390,-0.0621,0.8726,-0.0629
1391,-0.0843,0.9622,-0.1839
1392,-0.0781,0.7174,-0.1987
1393,0.0741,1.217,-0.1396
1394,-0.0101,0.9048,-0.1486
1395,0.0429,1.1504,-0.1001
1396,-0.0203,0.9285,-0.174
1397,-0.0883,0.8464,-0.084
1398,0.0116,0.9224,-0.1519
1399,-0.0076,1.0809,-0.1521
1400,-0.02,1.0571,-0.1608
1401,-0.0324,1.127,-0.1112
1402,-0.0888,0.9214,-0.1146
1403,-0.0136,1.0328,-0.0935
1404,-0.11,0.8134,-0.1866
1405,0.0245,0.9385,-0.1694
1406,0.0824,1.0004,-0.1435
1407,-0.0003,1.0113,-0.0866
1408,-0.1493,0.8569,-0.2019
1409,-0.0515,1.0875,-0.1089
1410,0.023,0.9399,-0.1317
1411,0.1062,1.1895,-0.0568
1412,-0.0712,0.9831,-0.2077
1413,-0.0018,1.0469,-0.2847
1414,-0.131,0.8349,-0.0947
1415,0.0496,1.1064,-0.0421
1416,0.0187,0.9692,-0.1576
1417,0.0181,1.2296,-0.215
1418,-0.0535,0.8531,-0.1533
1419,-0.1136,0.7437,-0.0803
1420,0.0075,0.8763,-0.0975
1421,0.1249,1.1119,-0.2316
1422,-0.1378,0.8333,-0.1169
1423,0.0749,1.3887,-0.1436
1424,-0.0649,1.0554,-0.1292
1425,-0.1188,0.8091,-0.14300000000000002
1426,0.003,0.9844,-0.1431
1427,0.1676,1.0441,-0.2053
1428,0.0822,1.1216,-0.0843
1429,-0.0965,0.8992,-0.1204
1430,-0.0579,1.1485,-0.119
1431,0.0229,1.0016,-0.1568
1432,0.1335,1.0866,-0.1562
1433,-0.025,0.8882,-0.1786
1434,-0.0237,1.0226,-0.1509
1435,-0.1349,0.9858,-0.1035
1436,-0.0198,0.8492,-0.149
1437,0.0303,0.9962,-0.168
1438,0.0323,1.0005,-0.1448
1439,0.0099,1.0077,-0.0948
1440,0.0007,0.944,-0.2267
1441,-0.0957,0.8768,-0.1557
1442,0.0656,1.0468,-0.1136
1443,-0.0168,0.9727,-0.1193
1444,0.0244,1.007,-0.1177
1445,0.0068,1.2213,-0.1824
1446,0.0173,1.0385,-0.1917
1447,0.0197,0.9015,-0.0782
1448,-0.037000000000000005,1.1166,-0.1549
1449,-0.002,1.0818,-0.1971
1450,-0.0011,0.9184,-0.1641
1451,-0.0342,0.8311,-0.1863
1452,0.0609,1.1205,-0.0588
1453,-0.0252,0.8739,-0.1819
1454,-0.0874,0.8633,-0.1082
1455,-0.0979,0.9625,-0.196
1456,-0.0388,0.8367,-0.1811
1457,0.1751,1.2463,-0.1143
1458,-0.1284,0.8425,-0.0956
1459,-0.0283,1.2421,-0.1344
1460,-0.0989,0.8273,-0.181
1461,-0.0059,1.0193,-0.1561
1462,-0.0047,0.8291,-0.1105
1463,0.0714,1.1263,-0.1092
1464,-0.056,0.8282,-0.1408
1465,0.0095,1.0365,-0.1763
1466,-0.0175,1.0102,-0.1351
1467,0.1014,1.1638,-0.126
1468,0.0163,0.8058,-0.1318
1469,-0.0436,1.0141,-0.1846
1470,0.0005,0.85,-0.1479
1471,-0.017,0.9183,-0.1561
1472,0.0581,1.0825,-0.1092
1473,0.015,1.0667,-0.1533
1474,-0.0275,0.9658,-0.1519
1475,-0.0433,0.9358,-0.1161
1476,-0.014,1.0131,-0.1152
1477,0.0538,1.0873,-0.1247
1478,-0.0419,0.9852,-0.1514
1479,-0.0263,1.1614,-0.1288
1480,0.0023,1.082,-0.1274
1481,-0.0043,0.9133,-0.1893
1482,0.0474,1.074,-0.1212
1483,-0.0109,1.0044,-0.1271
1484,0.0004,0.9402,-0.1317
1485,-0.0327,0.9293,-0.1243
1486,-0.03,1.0727,-0.1147
1487,0.0253,1.0477,-0.1619
1488,0.0312,0.9675,-0.1815
1489,-0.0507,0.9746,-0.1227
1490,-0.0669,1.0432,-0.0929
1491,-0.0331,1.0129,-0.2635
1492,0.0153,1.0035,-0.1995
1493,-0.0181,1.0653,-0.0919
1494,-0.0761,1.0399,-0.0573
1495,-0.0436,0.9912,-0.1207
1496,0.011,1.0101,-0.2402
1497,-0.0053,1.0095,-0.1255
1498,-0.0013,1.0588,-0.0936
1499,-0.0571,0.9879,-0.1055
1500,0.0142,1.0575,-0.2182
1501,0.0146,1.0212,-0.1837
1502,0.0572,0.9652,-0.1233
1503,0.0095,0.8864,-0.1089
1504,-0.0007,0.9344,-0.1602
1505,-0.0768,0.7684,-0.1781
1506,-0.0015,0.9526,-0.1259
1507,0.0457,0.92,-0.1271
1508,0.0571,1.0389,-0.1392
1509,-0.0319,0.9573,-0.1899
1510,-0.0671,1.0302,-0.1893
1511,-0.1204,0.9711,-0.1528
1512,0.0133,1.1245,-0.1039
1513,-0.0334,1.0856,-0.1716
1514,0.0461,1.1348,-0.1685
1515,-0.0919,0.9585,-0.1039
1516,-0.0139,1.1157,-0.1259
1517,-0.018000000000000002,0.8198,-0.2031
1518,0.0826,1.0239,-0.189
1519,-0.013,0.8527,-0.0883
1520,0.0546,1.0216,-0.0927
1521,-0.075,0.8848,-0.2269
1522,0.0834,1.143,-0.1005
1523,0.0057,0.9208,-0.1013
1524,0.0499,1.0955,-0.0928
1525,-0.0328,0.8887,-0.2266
1526,-0.0361,0.9564,-0.1943
1527,-0.0444,0.8947,-0.1194
1528,-0.0214,1.0822,-0.0875
1529,-0.0136,0.947,-0.1641
1530,-0.0454,1.0698,-0.1742
1531,-0.1987,0.6764,-0.1479
1532,-0.1113,0.9491,-0.0956
1533,0.0289,1.1665,-0.1942
1534,0.0526,1.093,-0.1641
1535,-0.2172,1.0098,-0.1376
1536,-0.1141,1.3571,-0.1579
1537,-0.0824,0.9194,-0.1411
1538,0.0504,1.1248,-0.114
1539,-0.0276,0.8240000000000001,-0.2043
1540,0.057,1.1293,-0.1268
1541,-0.1444,0.7625,-0.2089
1542,-0.0233,0.9995,-0.1514
1543,-0.0834,0.8632,-0.2007
1544,0.0449,1.1697,-0.1245
1545,-0.0602,0.9083,-0.1946
1546,-0.015,1.1342,-0.2466
1547,-0.1283,0.8734,-0.2258
1548,-0.0443,1.0316,-0.1746
1549,-0.1014,1.1204,-0.1685
1550,-0.1459,0.8044,-0.2415
1551,-0.0248,1.1561,-0.212
1552,-0.1776,0.9831,-0.221
1553,-0.0806,1.0952,-0.2214
1554,-0.0059,1.0363,-0.2375
1555,-0.035,0.9946,-0.21
1556,-0.1,0.882,-0.223
1557,-0.1626,1.0137,-0.2311
1558,0.0103,1.0485,-0.2147
1559,0.0128,1.0453,-0.2411
1560,-0.0091,1.0193,-0.2176
1561,-0.0109,1.1381,-0.2427
1562,-0.0357,1.0048,-0.2526
1563,-0.034,1.0101,-0.2039
1564,-0.0336,0.9467,-0.2496
1565,0.0064,0.9608,-0.246
1566,-0.0161,1.0498,-0.2791
1567,-0.0836,0.9117,-0.2243
1568,0.0106,1.0463,-0.249
1569,-0.0548,0.8827,-0.2623
1570,-0.0039,1.0675,-0.2671
1571,-0.1081,0.908,-0.2601
1572,-0.0727,0.9374,-0.305
1573,-0.0673,0.9854,-0.2691
1574,-0.0146,1.0392,-0.254
1575,-0.0602,0.9011,-0.2537
1576,-0.0558,1.0684,-0.2866
1577,-0.0863,0.9585,-0.3109
1578,-0.0363,1.0109,-0.265
1579,-0.0229,1.012,-0.2589
1580,-0.0637,1.0092,-0.2952
1581,-0.026,0.999,-0.2938
1582,-0.1186,0.9695,-0.2759
1583,-0.0046,1.0649,-0.2659
1584,-0.0272,0.9622,-0.2977
1585,-0.0292,0.9402,-0.2487
1586,-0.0645,0.9463,-0.2638
1587,-0.0488,0.9006,-0.3395
1588,-0.0292,0.9399,-0.2946
1589,-0.0193,1.0292,-0.2518
1590,0.0045,1.0778,-0.2828
1591,-0.0007,0.8791,-0.2972
1592,-0.0623,0.9454,-0.2396
1593,-0.0956,1.0155,-0.2747
1594,-0.0315,1.0129,-0.322
1595,-0.0315,0.9692,-0.2698
1596,-0.0645,1.0304,-0.2878
1597,-0.0698,1.0428,-0.3162
1598,-0.07400000000000001,0.9436,-0.2941
1599,-0.0686,0.9847,-0.2366
1600,-0.0532,1.1494,-0.2575
1601,-0.0574,0.9947,-0.2635
1602,-0.0555,0.9662,-0.3096
1603,-0.0558,0.9816,-0.2732
1604,-0.0652,1.0709,-0.2878
1605,-0.0253,0.941,-0.2982
1606,0.0042,0.9863,-0.2809
1607,-0.0452,1.1581,-0.2448
1608,-0.0587,0.8648,-0.2791
1609,-0.0107,1.0244,-0.3106
1610,-0.078,0.8817,-0.2773
1611,-0.0034,1.054,-0.2535
1612,-0.0562,1.1055,-0.2463
1613,-0.1187,0.8233,-0.2837
1614,-0.0149,1.1815,-0.3328
1615,-0.0673,0.8986,-0.2332
1616,-0.0044,1.1221,-0.2651
1617,-0.0845,0.9328,-0.2885
1618,-0.0115,1.1336,-0.2902
1619,-0.0454,0.9075,-0.2905
1620,-0.0059,1.0858,-0.2303
1621,-0.0428,0.8909999999999999,-0.2868
1622,0.0062,1.0913,-0.2568
1623,-0.0068,0.9654,-0.2759
1624,-0.0314,1.0467,-0.2919
1625,-0.0302,0.9802,-0.2902
1626,0.0068,0.9474,-0.2894
1627,-0.027000000000000003,0.9863,-0.2659
1628,0.0229,1.1431,-0.2859
1629,-0.0078,0.9417,-0.2485
1630,-0.0175,1.0143,-0.2576
1631,-0.0497,0.9253,-0.3036
1632,0.0414,1.0626,-0.3068
1633,0.006,0.9149,-0.2917
1634,0.0313,1.0029,-0.2957
1635,-0.0607,0.8687,-0.2605
1636,-0.0478,0.9434,-0.2887
1637,-0.0124,1.0261,-0.2479
1638,-0.0369,1.012,-0.3198
1639,0.0059,1.0503,-0.295
1640,0.004,0.9127,-0.2485
1641,-0.0151,0.9767,-0.2685
1642,0.0055,0.9601,-0.3159
1643,0.0109,0.9714,-0.282
1644,0.0337,1.0386,-0.2605
1645,0.004,1.023,-0.2964
1646,0.0391,1.1254,-0.308
1647,0.0384,0.9814,-0.2977
1648,0.0346,0.9789,-0.2691
1649,0.0163,1.002,-0.2756
1650,0.0526,1.0829,-0.3059
1651,0.1064,1.0803,-0.2899
1652,0.0784,1.0538,-0.29600000000000004
1653,-0.0325,1.0519,-0.2779
1654,0.0009,1.0648,-0.2812
1655,0.0647,0.9847,-0.287
1656,0.0828,0.992,-0.2785
1657,0.029,0.9831,-0.321
1658,-0.0042,0.8965,-0.2859
1659,0.0314,0.9472,-0.264
1660,0.0229,0.8998,-0.2699
1661,0.0209,1.0186,-0.3106
1662,0.004,1.0059,-0.3344
1663,0.016,0.9161,-0.2772
1664,-0.042,0.8708,-0.2504
1665,-0.0221,1.0911,-0.2638
1666,0.049,1.019,-0.2992
1667,0.0546,0.9059,-0.2963
1668,-0.0229,0.9807,-0.2762
1669,-0.0228,0.9782,-0.2759
1670,0.0502,0.9772,-0.264
1671,0.0773,0.9822,-0.3006
1672,0.0247,1.109,-0.305
1673,0.0171,1.0532,-0.2742
1674,0.024,0.9114,-0.272
1675,0.0531,1.0147,-0.2748
1676,0.0787,1.0908,-0.2683
1677,0.0671,1.0208,-0.2794
1678,0.0495,0.9837,-0.2721
1679,0.0665,1.0584,-0.3007
1680,0.0347,0.9813,-0.2758
1681,0.0677,0.969,-0.2698
1682,0.0275,0.9331,-0.3204
1683,0.066,1.0714,-0.28300000000000003
1684,0.0276,0.9393,-0.2715
1685,0.0483,1.0308,-0.2852
1686,0.0215,0.9379,-0.3014
1687,0.0164,0.9704,-0.2552
1688,0.0286,0.9668,-0.2837
1689,0.0336,0.9928,-0.3355
1690,0.021,1.0866,-0.3286
1691,-0.0134,1.0144,-0.265
1692,0.0205,1.0554,-0.2523
1693,-0.0231,0.9586,-0.2825
1694,0.033,1.0349,-0.2711
1695,-0.0067,0.9597,-0.2831
1696,0.0211,1.0145,-0.2944
1697,-0.02,1.0479,-0.3031
1698,0.0164,1.0359,-0.2717
1699,0.043,1.0107,-0.2961
1700,0.051,1.0577,-0.2612
1701,0.0506,1.0031,-0.2567
1702,0.0571,1.0601,-0.2857
1703,0.0376,1.0201,-0.2871
1704,0.0505,1.0402,-0.2471
1705,0.0546,0.9271,-0.2158
1706,0.0435,0.9203,-0.2307
1707,0.0279,0.9688,-0.2606
1708,0.0638,0.9967,-0.2119
1709,0.0419,0.8973,-0.2202
1710,0.006999999999999999,0.9487,-0.2267
1711,0.0123,1.0485,-0.1824
1712,0.036000000000000004,0.9796,-0.2019
1713,0.0105,0.9188,-0.197
1714,0.0359,1.0458,-0.1617
1715,0.0004,1.001,-0.1363
1716,0.0429,1.0916,-0.1687
1717,0.0352,1.0051,-0.1989
1718,0.0671,0.9777,-0.1917
1719,0.0906,0.9924,-0.1207
1720,0.0723,0.9293,-0.1485
1721,0.0714,1.0092,-0.1292
1722,0.0234,0.9575,-0.1375
1723,0.0212,1.0103,-0.1373
1724,0.0241,0.9162,-0.1306
1725,0.0988,1.0378,-0.18
1726,0.0626,0.9321,-0.1651
1727,0.0614,0.9784,-0.1186
1728,-0.0124,0.995,-0.1202
1729,0.0435,1.0178,-0.1359
1730,0.0455,0.9664,-0.1473
1731,0.0922,1.0179,-0.1236
1732,0.0563,0.9506,-0.1426
1733,0.0547,0.8969,-0.1799
1734,0.0438,0.8882,-0.1391
1735,0.0715,0.967,-0.1221
1736,0.0685,0.9607,-0.1452
1737,0.0239,0.9681,-0.1431
1738,0.0333,1.042,-0.1442
1739,0.0849,1.0516,-0.1559
1740,0.058,0.9741,-0.1346
1741,0.0468,0.9619,-0.1274
1742,0.0434,0.9371,-0.1631
1743,0.0934,1.0471,-0.1277
1744,0.0667,1.0388,-0.1423
1745,0.0547,1.0787,-0.1486
1746,0.0444,1.0591,-0.1489
1747,0.08199999999999999,1.0524,-0.1512
1748,0.0834,1.0268,-0.1313
1749,0.0798,0.9846,-0.1227
1750,0.0814,0.9529,-0.162
1751,0.0712,0.9684,-0.1726
1752,0.0978,1.0168,-0.1155
1753,0.0884,1.0046,-0.1275
1754,0.084,1.0222,-0.1675
1755,0.0794,1.0217,-0.175
1756,0.1041,1.0073,-0.1518
1757,0.1146,1.0195,-0.1239
1758,0.0942,1.0404,-0.1488
1759,0.0804,1.0031,-0.1532
1760,0.0817,1.0378,-0.1547
1761,0.1416,1.0104,-0.1403
1762,0.1254,1.0121,-0.1552
1763,0.0906,0.9327,-0.1328
1764,0.1167,0.9839,-0.1487
1765,0.1132,0.9366,-0.1666
1766,0.1583,1.0377,-0.1442
1767,0.1249,0.9647,-0.1342
1768,0.1105,0.9844,-0.1516
1769,0.1227,1.0157,-0.1466
1770,0.1595,0.9615,-0.1375
1771,0.1833,0.987,-0.1595
1772,0.1188,0.9807,-0.142
1773,0.1213,0.9741,-0.1428
1774,0.156,0.9475,-0.134
1775,0.1987,0.9755,-0.1494
1776,0.1847,1.0307,-0.1349
1777,0.1634,1.042,-0.1271
1778,0.1431,0.9878,-0.1558
1779,0.1685,0.9681,-0.1356
1780,0.1771,0.9901,-0.1185
1781,0.1757,0.9901,-0.1165
