segment_id,edgeid,basenodeid,adjnodeid,lonfrom,latfrom,lonto,latto
OSM2019-786270-0,786270,71255,311027,3.70785266998081,51.0106995927699,3.7076514596195,51.0107717695947
OSM2019-786270-1,786270,71255,311027,3.7076514596195,51.0107717695947,3.7074502492582,51.0108439464195
OSM2019-786270-2,786270,71255,311027,3.7074502492582,51.0108439464195,3.70724903889689,51.0109161232443
OSM2019-786270-3,786270,71255,311027,3.70724903889689,51.0109161232443,3.70704782853559,51.0109883000691
OSM2019-786271-0,786271,71255,71363,3.70785266998081,51.0106995927699,3.70805778901392,51.0106266848142
OSM2019-786271-1,786271,71255,71363,3.70805778901392,51.0106266848142,3.70826123901159,51.0105519513589
OSM2019-786271-2,786271,71255,71363,3.70826123901159,51.0105519513589,3.70846456742198,51.0104770849181
OSM2019-786271-3,786271,71255,71363,3.70846456742198,51.0104770849181,3.70866789583236,51.0104022184772
OSM2019-786271-4,786271,71255,71363,3.70866789583236,51.0104022184772,3.70888383035847,51.0103436412739