;gps;lonto;latto;gpsspeed;ax;ay;az;seconds
00:00:00;1;3.7133331309180297;51.0108012939151;10.2;-0.0468;0.0858;1.092;0.0
00:00:00.010000;0;0.0;0.0;0.0;-0.0351;0.0741;1.0608;0.01
00:00:00.020000;0;0.0;0.0;0.0;-0.039;0.0312;0.9945;0.02
00:00:00.030000;0;0.0;0.0;0.0;-0.0546;0.0546;1.0257;0.030000000000000002
00:00:00.040000;0;0.0;0.0;0.0;-0.0624;0.0819;1.0569;0.04
00:00:00.050000;0;0.0;0.0;0.0;-0.039;0.039;0.9828;0.05
00:00:00.060000;0;0.0;0.0;0.0;-0.0585;0.0585;0.9009;0.060000000000000005
00:00:00.070000;0;0.0;0.0;0.0;-0.0624;0.0468;0.9165;0.07
00:00:00.080000;0;0.0;0.0;0.0;-0.0468;0.0195;0.8268;0.08
00:00:00.090000;0;0.0;0.0;0.0;-0.0702;0.0234;0.8892;0.09000000000000001
00:00:00.100000;0;0.0;0.0;0.0;-0.0273;0.0546;1.0179;0.1
00:00:00.110000;0;0.0;0.0;0.0;-0.0351;0.0312;0.9906;0.11
00:00:00.120000;0;0.0;0.0;0.0;-0.0546;0.0;0.9321;0.12000000000000001
00:00:00.130000;0;0.0;0.0;0.0;-0.0819;0.0039;0.9399;0.13
00:00:00.140000;0;0.0;0.0;0.0;-0.0585;0.0195;0.9945;0.14
00:00:00.150000;0;0.0;0.0;0.0;-0.0312;0.0078;1.0023;0.15000000000000002
00:00:00.160000;0;0.0;0.0;0.0;-0.0546;0.0;0.9945;0.16
00:00:00.170000;0;0.0;0.0;0.0;-0.0624;0.0195;0.975;0.17
00:00:00.180000;0;0.0;0.0;0.0;-0.0234;-0.0234;0.9906;0.18000000000000002
00:00:00.190000;0;0.0;0.0;0.0;-0.0078;-0.0195;0.9828;0.19
00:00:00.200000;0;0.0;0.0;0.0;-0.0819;-0.0078;0.9438;0.2
00:00:00.210000;0;0.0;0.0;0.0;-0.0312;0.0273;0.9867;0.21000000000000002
00:00:00.220000;0;0.0;0.0;0.0;-0.0507;0.0;0.936;0.22
00:00:00.230000;0;0.0;0.0;0.0;-0.0624;0.0;0.8775;0.23
00:00:00.240000;0;0.0;0.0;0.0;-0.0741;-0.0117;0.8229;0.24000000000000002
00:00:00.250000;0;0.0;0.0;0.0;-0.0624;0.0156;0.9009;0.25
00:00:00.260000;0;0.0;0.0;0.0;-0.0546;0.039;0.9165;0.26
00:00:00.270000;0;0.0;0.0;0.0;-0.0507;0.039;0.9477;0.27
00:00:00.280000;0;0.0;0.0;0.0;-0.0663;0.0117;0.9243;0.28
00:00:00.290000;0;0.0;0.0;0.0;-0.0507;0.0156;0.9087;0.29000000000000004
00:00:00.300000;0;0.0;0.0;0.0;-0.078;0.039;0.8307;0.30000000000000004
00:00:00.310000;0;0.0;0.0;0.0;-0.0663;0.0;0.8151;0.31
00:00:00.320000;0;0.0;0.0;0.0;-0.0468;0.0312;0.8736;0.32
00:00:00.330000;0;0.0;0.0;0.0;-0.0897;0.0507;1.0023;0.33
00:00:00.340000;0;0.0;0.0;0.0;-0.0078;0.0117;1.0413;0.34
00:00:00.350000;0;0.0;0.0;0.0;-0.0273;-0.0039;0.9906;0.35000000000000003
00:00:00.360000;0;0.0;0.0;0.0;-0.0312;0.0429;0.9984;0.36000000000000004
00:00:00.370000;0;0.0;0.0;0.0;-0.0312;0.0195;0.9516;0.37
00:00:00.380000;0;0.0;0.0;0.0;-0.117;0.0429;0.9906;0.38
00:00:00.390000;0;0.0;0.0;0.0;-0.0624;0.0117;1.0257;0.39
00:00:00.400000;0;0.0;0.0;0.0;-0.0195;0.039;1.0452;0.4
00:00:00.410000;0;0.0;0.0;0.0;-0.0468;0.0078;0.9633;0.41000000000000003
00:00:00.420000;0;0.0;0.0;0.0;-0.0039;0.0195;1.0218;0.42000000000000004
00:00:00.430000;0;0.0;0.0;0.0;-0.0585;0.0624;1.0452;0.43000000000000005
00:00:00.440000;0;0.0;0.0;0.0;-0.1014;0.0234;0.9906;0.44
00:00:00.450000;0;0.0;0.0;0.0;-0.0195;0.0;0.9828;0.45
00:00:00.460000;0;0.0;0.0;0.0;-0.0273;0.0078;0.9204;0.46
00:00:00.470000;0;0.0;0.0;0.0;-0.0585;0.0507;0.9165;0.47000000000000003
00:00:00.480000;0;0.0;0.0;0.0;-0.0897;0.0078;0.8385;0.48000000000000004
00:00:00.490000;0;0.0;0.0;0.0;-0.0702;0.0273;0.8736;0.49000000000000005
00:00:00.500000;0;0.0;0.0;0.0;-0.0429;0.0156;0.9867;0.5
00:00:00.510000;0;0.0;0.0;0.0;0.0;-0.0078;1.0062;0.51
00:00:00.520000;0;0.0;0.0;0.0;-0.0507;0.0039;0.8931;0.52
00:00:00.530000;0;0.0;0.0;0.0;-0.1209;0.0117;0.8463;0.53
00:00:00.540000;0;0.0;0.0;0.0;-0.0546;-0.0234;0.8424;0.54
00:00:00.550000;0;0.0;0.0;0.0;-0.039;0.0;0.9087;0.55
00:00:00.560000;0;0.0;0.0;0.0;-0.1092;0.0117;1.0374;0.56
00:00:00.570000;0;0.0;0.0;0.0;-0.0234;0.0;1.0569;0.5700000000000001
00:00:00.580000;0;0.0;0.0;0.0;-0.0546;0.0;1.0842;0.5800000000000001
00:00:00.590000;0;0.0;0.0;0.0;-0.0468;0.0156;1.0452;0.5900000000000001
00:00:00.600000;0;0.0;0.0;0.0;-0.0351;-0.0273;0.8658;0.6000000000000001
00:00:00.610000;0;0.0;0.0;0.0;-0.1014;-0.0117;0.7254;0.61
00:00:00.620000;0;0.0;0.0;0.0;-0.117;0.0273;0.7566;0.62
00:00:00.630000;0;0.0;0.0;0.0;-0.0273;0.0819;0.858;0.63
00:00:00.640000;0;0.0;0.0;0.0;-0.0273;0.0351;0.9204;0.64
00:00:00.650000;0;0.0;0.0;0.0;-0.0975;0.0117;0.9087;0.65
00:00:00.660000;0;0.0;0.0;0.0;-0.0546;0.0312;0.858;0.66
00:00:00.670000;0;0.0;0.0;0.0;-0.0858;0.0234;0.8229;0.67
00:00:00.680000;0;0.0;0.0;0.0;-0.0234;0.0507;0.78;0.68
00:00:00.690000;0;0.0;0.0;0.0;-0.0741;0.0234;0.7761;0.6900000000000001
00:00:00.700000;0;0.0;0.0;0.0;-0.0819;0.0507;0.8463;0.7000000000000001
00:00:00.710000;0;0.0;0.0;0.0;-0.0819;0.0234;0.9126;0.7100000000000001
00:00:00.720000;0;0.0;0.0;0.0;-0.0507;0.0078;0.9555;0.7200000000000001
00:00:00.730000;0;0.0;0.0;0.0;-0.0312;0.0546;0.9906;0.7300000000000001
00:00:00.740000;0;0.0;0.0;0.0;-0.0663;0.0039;1.0296;0.74
00:00:00.750000;0;0.0;0.0;0.0;-0.0546;0.0117;1.0062;0.75
00:00:00.760000;0;0.0;0.0;0.0;-0.0702;0.0117;0.975;0.76
00:00:00.770000;0;0.0;0.0;0.0;-0.0195;-0.0039;0.9009;0.77
00:00:00.780000;0;0.0;0.0;0.0;-0.0936;-0.0312;0.897;0.78
00:00:00.790000;0;0.0;0.0;0.0;-0.039;0.0195;1.0452;0.79
00:00:00.800000;0;0.0;0.0;0.0;-0.0546;-0.0273;1.0608;0.8
00:00:00.810000;0;0.0;0.0;0.0;-0.0663;-0.0039;1.0101;0.81
00:00:00.820000;0;0.0;0.0;0.0;-0.0234;0.0351;1.0686;0.8200000000000001
00:00:00.830000;0;0.0;0.0;0.0;0.0117;0.0468;1.0842;0.8300000000000001
00:00:00.840000;0;0.0;0.0;0.0;-0.0858;0.0195;0.9282;0.8400000000000001
00:00:00.850000;0;0.0;0.0;0.0;-0.1209;0.039;0.9789;0.8500000000000001
00:00:00.860000;0;0.0;0.0;0.0;-0.0312;0.0117;1.0413;0.8600000000000001
00:00:00.870000;0;0.0;0.0;0.0;-0.0078;0.0663;1.131;0.8700000000000001
00:00:00.880000;0;0.0;0.0;0.0;-0.0897;0.0429;1.0686;0.88
00:00:00.890000;0;0.0;0.0;0.0;-0.0273;0.0429;1.1037;0.89
00:00:00.900000;0;0.0;0.0;0.0;0.0156;0.1014;1.0686;0.9
00:00:00.910000;0;0.0;0.0;0.0;-0.1131;0.0273;0.8658;0.91
00:00:00.920000;0;0.0;0.0;0.0;-0.0624;0.0195;0.8658;0.92
00:00:00.930000;0;0.0;0.0;0.0;-0.039;0.0624;1.0803;0.93
00:00:00.940000;0;0.0;0.0;0.0;0.0;0.0429;1.0608;0.9400000000000001
00:00:00.950000;0;0.0;0.0;0.0;-0.039;-0.0624;0.8619;0.9500000000000001
00:00:00.960000;0;0.0;0.0;0.0;-0.0897;0.0078;0.9477;0.9600000000000001
00:00:00.970000;0;0.0;0.0;0.0;-0.0429;0.0195;1.014;0.9700000000000001
00:00:00.980000;0;0.0;0.0;0.0;0.0039;0.0;0.9945;0.9800000000000001
00:00:00.990000;0;0.0;0.0;0.0;-0.1092;0.0;0.9672;0.9900000000000001
00:00:01;1;3.7133331309180297;51.0108012939151;9.9;-0.0468;0.0273;1.053;1.0
00:00:01.010000;0;0.0;0.0;0.0;-0.0156;0.0;1.0101;1.01
00:00:01.020000;0;0.0;0.0;0.0;-0.1092;0.0;0.9828;1.02
00:00:01.030000;0;0.0;0.0;0.0;-0.0585;0.0078;0.975;1.03
00:00:01.040000;0;0.0;0.0;0.0;-0.0195;-0.0117;1.0218;1.04
00:00:01.050000;0;0.0;0.0;0.0;-0.0351;0.0195;0.9828;1.05
00:00:01.060000;0;0.0;0.0;0.0;-0.0858;-0.0078;0.9087;1.06
00:00:01.070000;0;0.0;0.0;0.0;-0.0117;0.0;0.9828;1.07
00:00:01.080000;0;0.0;0.0;0.0;-0.0702;-0.0195;0.936;1.08
00:00:01.090000;0;0.0;0.0;0.0;-0.0429;-0.0078;0.9048;1.09
00:00:01.100000;0;0.0;0.0;0.0;-0.0585;-0.0195;0.9009;1.1
00:00:01.110000;0;0.0;0.0;0.0;-0.0468;0.0;0.9555;1.11
00:00:01.120000;0;0.0;0.0;0.0;-0.0507;0.0117;0.9789;1.12
00:00:01.130000;0;0.0;0.0;0.0;-0.0663;0.0078;0.9594;1.1300000000000001
00:00:01.140000;0;0.0;0.0;0.0;-0.0156;0.0117;0.9711;1.1400000000000001
00:00:01.150000;0;0.0;0.0;0.0;-0.0819;0.0078;0.9243;1.1500000000000001
00:00:01.160000;0;0.0;0.0;0.0;-0.0273;-0.0117;0.8853;1.1600000000000001
00:00:01.170000;0;0.0;0.0;0.0;-0.0546;0.0351;0.9399;1.1700000000000002
00:00:01.180000;0;0.0;0.0;0.0;-0.0624;0.0156;0.9321;1.1800000000000002
00:00:01.190000;0;0.0;0.0;0.0;-0.0702;0.0312;0.9594;1.1900000000000002
00:00:01.200000;0;0.0;0.0;0.0;-0.0585;0.0156;0.9828;1.2000000000000002
00:00:01.210000;0;0.0;0.0;0.0;-0.0507;0.0039;0.9906;1.21
00:00:01.220000;0;0.0;0.0;0.0;-0.078;0.0507;0.897;1.22
00:00:01.230000;0;0.0;0.0;0.0;-0.0897;0.0078;0.9594;1.23
00:00:01.240000;0;0.0;0.0;0.0;-0.0858;0.039;0.9438;1.24
00:00:01.250000;0;0.0;0.0;0.0;-0.1014;0.0156;0.8931;1.25
00:00:01.260000;0;0.0;0.0;0.0;-0.0663;0.0195;0.9555;1.26
00:00:01.270000;0;0.0;0.0;0.0;-0.1053;0.0195;0.9438;1.27
00:00:01.280000;0;0.0;0.0;0.0;-0.1014;0.0468;0.9048;1.28
00:00:01.290000;0;0.0;0.0;0.0;-0.0936;0.0117;0.936;1.29
00:00:01.300000;0;0.0;0.0;0.0;-0.1131;0.0351;0.9789;1.3
00:00:01.310000;0;0.0;0.0;0.0;-0.1014;0.0234;0.936;1.31
00:00:01.320000;0;0.0;0.0;0.0;-0.1014;0.0;0.9165;1.32
00:00:01.330000;0;0.0;0.0;0.0;-0.1131;0.0312;0.9477;1.33
00:00:01.340000;0;0.0;0.0;0.0;-0.0936;0.0195;0.9477;1.34
00:00:01.350000;0;0.0;0.0;0.0;-0.1326;0.0078;0.936;1.35
00:00:01.360000;0;0.0;0.0;0.0;-0.1014;0.0039;0.9204;1.36
00:00:01.370000;0;0.0;0.0;0.0;-0.1287;0.0234;0.936;1.37
00:00:01.380000;0;0.0;0.0;0.0;-0.1209;0.0078;0.9321;1.3800000000000001
00:00:01.390000;0;0.0;0.0;0.0;-0.1248;0.0156;0.9555;1.3900000000000001
00:00:01.400000;0;0.0;0.0;0.0;-0.1716;0.0195;0.9126;1.4000000000000001
00:00:01.410000;0;0.0;0.0;0.0;-0.1326;0.0039;0.9555;1.4100000000000001
00:00:01.420000;0;0.0;0.0;0.0;-0.1365;0.0195;0.9282;1.4200000000000002
00:00:01.430000;0;0.0;0.0;0.0;-0.1365;0.0234;0.9477;1.4300000000000002
00:00:01.440000;0;0.0;0.0;0.0;-0.1326;0.0;0.9048;1.4400000000000002
00:00:01.450000;0;0.0;0.0;0.0;-0.1716;0.0351;0.9087;1.4500000000000002
00:00:01.460000;0;0.0;0.0;0.0;-0.1326;0.0117;0.9516;1.4600000000000002
00:00:01.470000;0;0.0;0.0;0.0;-0.1287;0.0273;0.9555;1.4700000000000002
00:00:01.480000;0;0.0;0.0;0.0;-0.1677;0.0507;0.9633;1.48
00:00:01.490000;0;0.0;0.0;0.0;-0.156;0.0195;0.9438;1.49
00:00:01.500000;0;0.0;0.0;0.0;-0.1482;0.0429;0.9867;1.5
00:00:01.510000;0;0.0;0.0;0.0;-0.1638;0.0546;1.0023;1.51
00:00:01.520000;0;0.0;0.0;0.0;-0.1209;0.0117;0.9594;1.52
00:00:01.530000;0;0.0;0.0;0.0;-0.1599;0.0273;0.9711;1.53
00:00:01.540000;0;0.0;0.0;0.0;-0.1443;0.0468;0.9789;1.54
00:00:01.550000;0;0.0;0.0;0.0;-0.1443;0.0195;0.9672;1.55
00:00:01.560000;0;0.0;0.0;0.0;-0.1482;0.039;0.9516;1.56
00:00:01.570000;0;0.0;0.0;0.0;-0.1521;0.0624;0.9867;1.57
00:00:01.580000;0;0.0;0.0;0.0;-0.1404;0.0312;0.9945;1.58
00:00:01.590000;0;0.0;0.0;0.0;-0.1716;0.0546;0.9867;1.59
00:00:01.600000;0;0.0;0.0;0.0;-0.1716;0.0429;1.0023;1.6
00:00:01.610000;0;0.0;0.0;0.0;-0.1092;0.0429;1.0062;1.61
00:00:01.620000;0;0.0;0.0;0.0;-0.1599;0.0234;0.9711;1.62
00:00:01.630000;0;0.0;0.0;0.0;-0.1638;0.0351;0.9204;1.6300000000000001
00:00:01.640000;0;0.0;0.0;0.0;-0.156;0.0195;0.9555;1.6400000000000001
00:00:01.650000;0;0.0;0.0;0.0;-0.1209;0.0273;0.9243;1.6500000000000001
00:00:01.660000;0;0.0;0.0;0.0;-0.1833;0.0312;0.9048;1.6600000000000001
00:00:01.670000;0;0.0;0.0;0.0;-0.1521;0.0117;0.9321;1.6700000000000002
00:00:01.680000;0;0.0;0.0;0.0;-0.1716;0.0351;0.936;1.6800000000000002
00:00:01.690000;0;0.0;0.0;0.0;-0.156;0.0429;0.9477;1.6900000000000002
00:00:01.700000;0;0.0;0.0;0.0;-0.1599;0.0234;0.9321;1.7000000000000002
00:00:01.710000;0;0.0;0.0;0.0;-0.1482;0.0117;0.9243;1.7100000000000002
00:00:01.720000;0;0.0;0.0;0.0;-0.156;0.0273;0.9399;1.7200000000000002
00:00:01.730000;0;0.0;0.0;0.0;-0.1716;0.0039;0.9516;1.7300000000000002
00:00:01.740000;0;0.0;0.0;0.0;-0.1365;0.0351;0.9399;1.7400000000000002
00:00:01.750000;0;0.0;0.0;0.0;-0.1521;0.0195;0.9165;1.75
00:00:01.760000;0;0.0;0.0;0.0;-0.1404;0.0312;0.9594;1.76
00:00:01.770000;0;0.0;0.0;0.0;-0.1716;0.039;0.9906;1.77
00:00:01.780000;0;0.0;0.0;0.0;-0.1599;0.0234;0.975;1.78
00:00:01.790000;0;0.0;0.0;0.0;-0.1365;0.039;0.9555;1.79
00:00:01.800000;0;0.0;0.0;0.0;-0.195;0.0429;0.9438;1.8
00:00:01.810000;0;0.0;0.0;0.0;-0.1521;0.0195;0.9321;1.81
00:00:01.820000;0;0.0;0.0;0.0;-0.1599;0.0312;0.9399;1.82
00:00:01.830000;0;0.0;0.0;0.0;-0.1872;0.0351;0.9438;1.83
00:00:01.840000;0;0.0;0.0;0.0;-0.1287;0.0156;0.9282;1.84
00:00:01.850000;0;0.0;0.0;0.0;-0.1638;0.0468;0.897;1.85
00:00:01.860000;0;0.0;0.0;0.0;-0.1638;0.0156;0.8853;1.86
00:00:01.870000;0;0.0;0.0;0.0;-0.1521;0.0117;0.8931;1.87
00:00:01.880000;0;0.0;0.0;0.0;-0.1716;0.0195;0.9399;1.8800000000000001
00:00:01.890000;0;0.0;0.0;0.0;-0.1638;0.0468;0.9165;1.8900000000000001
00:00:01.900000;0;0.0;0.0;0.0;-0.1365;-0.0117;0.9321;1.9000000000000001
00:00:01.910000;0;0.0;0.0;0.0;-0.156;0.0351;0.936;1.9100000000000001
00:00:01.920000;0;0.0;0.0;0.0;-0.2028;0.0234;0.9477;1.9200000000000002
00:00:01.930000;0;0.0;0.0;0.0;-0.1326;0.0195;0.9282;1.9300000000000002
00:00:01.940000;0;0.0;0.0;0.0;-0.1833;0.0117;0.9087;1.9400000000000002
00:00:01.950000;0;0.0;0.0;0.0;-0.1326;0.0195;0.9438;1.9500000000000002
00:00:01.960000;0;0.0;0.0;0.0;-0.1716;0.039;0.9672;1.9600000000000002
00:00:01.970000;0;0.0;0.0;0.0;-0.1755;0.0117;0.9672;1.9700000000000002
00:00:01.980000;0;0.0;0.0;0.0;-0.156;0.0429;0.9594;1.9800000000000002
00:00:01.990000;0;0.0;0.0;0.0;-0.1677;0.0078;0.9672;1.9900000000000002
00:00:02;1;3.71333152715596;51.0109477427141;8.9;-0.117;0.0156;0.9594;2.0
00:00:02.010000;0;0.0;0.0;0.0;-0.1794;0.0273;0.9438;2.0100000000000002
00:00:02.020000;0;0.0;0.0;0.0;-0.1755;0.0195;0.9399;2.02
00:00:02.030000;0;0.0;0.0;0.0;-0.1599;0.0156;0.9828;2.0300000000000002
00:00:02.040000;0;0.0;0.0;0.0;-0.1716;0.0273;0.9984;2.04
00:00:02.050000;0;0.0;0.0;0.0;-0.1443;0.0273;0.9906;2.0500000000000003
00:00:02.060000;0;0.0;0.0;0.0;-0.1482;0.0351;0.9945;2.06
00:00:02.070000;0;0.0;0.0;0.0;-0.1989;0.0507;0.9789;2.0700000000000003
00:00:02.080000;0;0.0;0.0;0.0;-0.1443;0.0039;0.9594;2.08
00:00:02.090000;0;0.0;0.0;0.0;-0.1482;0.0468;0.9243;2.0900000000000003
00:00:02.100000;0;0.0;0.0;0.0;-0.1794;0.0273;0.9828;2.1
00:00:02.110000;0;0.0;0.0;0.0;-0.1287;0.0234;0.9828;2.1100000000000003
00:00:02.120000;0;0.0;0.0;0.0;-0.1989;0.0039;0.9282;2.12
00:00:02.130000;0;0.0;0.0;0.0;-0.1443;0.0429;0.9126;2.1300000000000003
00:00:02.140000;0;0.0;0.0;0.0;-0.1638;0.0117;0.9399;2.14
00:00:02.150000;0;0.0;0.0;0.0;-0.1599;0.0234;0.9594;2.1500000000000004
00:00:02.160000;0;0.0;0.0;0.0;-0.1365;0.0234;0.9594;2.16
00:00:02.170000;0;0.0;0.0;0.0;-0.1716;0.039;0.9438;2.17
00:00:02.180000;0;0.0;0.0;0.0;-0.1638;0.0156;0.9633;2.18
00:00:02.190000;0;0.0;0.0;0.0;-0.1482;0.0234;0.9789;2.19
00:00:02.200000;0;0.0;0.0;0.0;-0.1872;0.0351;0.9828;2.2
00:00:02.210000;0;0.0;0.0;0.0;-0.1677;0.0312;0.975;2.21
00:00:02.220000;0;0.0;0.0;0.0;-0.1209;0.0273;1.0023;2.22
00:00:02.230000;0;0.0;0.0;0.0;-0.1677;0.0351;1.0062;2.23
00:00:02.240000;0;0.0;0.0;0.0;-0.1716;0.0273;0.9321;2.24
00:00:02.250000;0;0.0;0.0;0.0;-0.1755;0.0351;0.9945;2.25
00:00:02.260000;0;0.0;0.0;0.0;-0.1677;0.039;1.0257;2.2600000000000002
00:00:02.270000;0;0.0;0.0;0.0;-0.1794;0.0312;0.9945;2.27
00:00:02.280000;0;0.0;0.0;0.0;-0.1638;0.0507;0.9828;2.2800000000000002
00:00:02.290000;0;0.0;0.0;0.0;-0.2067;0.0312;0.9711;2.29
00:00:02.300000;0;0.0;0.0;0.0;-0.1638;0.0351;0.9087;2.3000000000000003
00:00:02.310000;0;0.0;0.0;0.0;-0.1443;0.0234;0.9048;2.31
00:00:02.320000;0;0.0;0.0;0.0;-0.1755;0.0195;0.9243;2.3200000000000003
00:00:02.330000;0;0.0;0.0;0.0;-0.1833;0.0273;0.9516;2.33
00:00:02.340000;0;0.0;0.0;0.0;-0.1521;0.0078;0.9438;2.3400000000000003
00:00:02.350000;0;0.0;0.0;0.0;-0.1716;0.039;0.9711;2.35
00:00:02.360000;0;0.0;0.0;0.0;-0.1677;0.0273;0.9087;2.3600000000000003
00:00:02.370000;0;0.0;0.0;0.0;-0.1677;0.0273;0.8853;2.37
00:00:02.380000;0;0.0;0.0;0.0;-0.195;0.0234;0.9126;2.3800000000000003
00:00:02.390000;0;0.0;0.0;0.0;-0.1794;0.0312;0.9282;2.39
00:00:02.400000;0;0.0;0.0;0.0;-0.1404;0.0;0.9204;2.4000000000000004
00:00:02.410000;0;0.0;0.0;0.0;-0.1677;0.0351;0.9282;2.41
00:00:02.420000;0;0.0;0.0;0.0;-0.1872;0.0156;0.9516;2.42
00:00:02.430000;0;0.0;0.0;0.0;-0.156;0.0273;0.9984;2.43
00:00:02.440000;0;0.0;0.0;0.0;-0.1911;0.0156;0.9438;2.44
00:00:02.450000;0;0.0;0.0;0.0;-0.1599;0.0195;0.9048;2.45
00:00:02.460000;0;0.0;0.0;0.0;-0.1482;0.0234;0.9477;2.46
00:00:02.470000;0;0.0;0.0;0.0;-0.2145;0.0468;0.9633;2.47
00:00:02.480000;0;0.0;0.0;0.0;-0.1755;0.0156;0.9321;2.48
00:00:02.490000;0;0.0;0.0;0.0;-0.1638;0.0234;0.9321;2.49
00:00:02.500000;0;0.0;0.0;0.0;-0.1989;0.0234;0.9711;2.5
00:00:02.510000;0;0.0;0.0;0.0;-0.1482;0.0468;0.9711;2.5100000000000002
00:00:02.520000;0;0.0;0.0;0.0;-0.1794;0.0273;0.9828;2.52
00:00:02.530000;0;0.0;0.0;0.0;-0.1248;0.0312;0.8853;2.5300000000000002
00:00:02.540000;0;0.0;0.0;0.0;-0.1599;-0.0585;0.7917;2.54
00:00:02.550000;0;0.0;0.0;0.0;-0.2418;0.0195;0.7761;2.5500000000000003
00:00:02.560000;0;0.0;0.0;0.0;-0.1989;0.0156;0.8931;2.56
00:00:02.570000;0;0.0;0.0;0.0;-0.1755;0.0741;0.9906;2.5700000000000003
00:00:02.580000;0;0.0;0.0;0.0;-0.1521;0.0663;1.0686;2.58
00:00:02.590000;0;0.0;0.0;0.0;-0.1014;-0.0156;1.0998;2.5900000000000003
00:00:02.600000;0;0.0;0.0;0.0;-0.1989;0.0195;0.9867;2.6
00:00:02.610000;0;0.0;0.0;0.0;-0.2184;0.0546;0.9906;2.6100000000000003
00:00:02.620000;0;0.0;0.0;0.0;-0.117;0.0;0.9633;2.62
00:00:02.630000;0;0.0;0.0;0.0;-0.156;0.039;0.9321;2.6300000000000003
00:00:02.640000;0;0.0;0.0;0.0;-0.1794;0.0897;0.9438;2.64
00:00:02.650000;0;0.0;0.0;0.0;-0.1599;0.0195;1.0179;2.6500000000000004
00:00:02.660000;0;0.0;0.0;0.0;-0.1677;0.0429;1.0101;2.66
00:00:02.670000;0;0.0;0.0;0.0;-0.1716;0.1053;1.0179;2.6700000000000004
00:00:02.680000;0;0.0;0.0;0.0;-0.1443;0.0312;0.975;2.68
00:00:02.690000;0;0.0;0.0;0.0;-0.1326;0.0273;0.9516;2.69
00:00:02.700000;0;0.0;0.0;0.0;-0.2262;0.0819;0.9906;2.7
00:00:02.710000;0;0.0;0.0;0.0;-0.1716;0.0351;1.0023;2.71
00:00:02.720000;0;0.0;0.0;0.0;-0.1404;0.0351;0.9633;2.72
00:00:02.730000;0;0.0;0.0;0.0;-0.195;0.0351;0.9711;2.73
00:00:02.740000;0;0.0;0.0;0.0;-0.1482;0.0624;1.0413;2.74
00:00:02.750000;0;0.0;0.0;0.0;-0.1989;0.0078;0.9711;2.75
00:00:02.760000;0;0.0;0.0;0.0;-0.1638;0.0195;0.9321;2.7600000000000002
00:00:02.770000;0;0.0;0.0;0.0;-0.1599;0.0156;0.9165;2.77
00:00:02.780000;0;0.0;0.0;0.0;-0.1833;0.0195;0.9282;2.7800000000000002
00:00:02.790000;0;0.0;0.0;0.0;-0.1716;0.0195;0.9009;2.79
00:00:02.800000;0;0.0;0.0;0.0;-0.1989;0.0156;0.9477;2.8000000000000003
00:00:02.810000;0;0.0;0.0;0.0;-0.1677;0.0078;0.9516;2.81
00:00:02.820000;0;0.0;0.0;0.0;-0.1521;0.0156;0.9789;2.8200000000000003
00:00:02.830000;0;0.0;0.0;0.0;-0.1833;0.0117;0.975;2.83
00:00:02.840000;0;0.0;0.0;0.0;-0.2106;0.0312;0.9243;2.8400000000000003
00:00:02.850000;0;0.0;0.0;0.0;-0.195;0.0156;0.8151;2.85
00:00:02.860000;0;0.0;0.0;0.0;-0.1989;-0.0468;0.8424;2.8600000000000003
00:00:02.870000;0;0.0;0.0;0.0;-0.1287;-0.0936;0.936;2.87
00:00:02.880000;0;0.0;0.0;0.0;-0.2184;0.0039;0.975;2.8800000000000003
00:00:02.890000;0;0.0;0.0;0.0;-0.1872;0.0351;1.0569;2.89
00:00:02.900000;0;0.0;0.0;0.0;-0.1287;-0.0195;1.0959;2.9000000000000004
00:00:02.910000;0;0.0;0.0;0.0;-0.1755;0.0858;0.9711;2.91
00:00:02.920000;0;0.0;0.0;0.0;-0.234;0.0078;0.9282;2.9200000000000004
00:00:02.930000;0;0.0;0.0;0.0;-0.1677;0.0;1.0374;2.93
00:00:02.940000;0;0.0;0.0;0.0;-0.2301;0.1053;0.9945;2.9400000000000004
00:00:02.950000;0;0.0;0.0;0.0;-0.1911;0.0234;0.9633;2.95
00:00:02.960000;0;0.0;0.0;0.0;-0.1209;0.0468;0.936;2.96
00:00:02.970000;0;0.0;0.0;0.0;-0.2652;0.078;0.8736;2.97
00:00:02.980000;0;0.0;0.0;0.0;-0.1716;0.0273;0.9516;2.98
00:00:02.990000;0;0.0;0.0;0.0;-0.2106;0.0585;0.9867;2.99
00:00:03;1;3.71333152715596;51.0109477427141;7.6;-0.2262;0.0741;0.9321;3.0
00:00:03.010000;0;0.0;0.0;0.0;-0.1599;0.0351;0.9672;3.0100000000000002
00:00:03.020000;0;0.0;0.0;0.0;-0.2223;0.0624;0.9711;3.02
00:00:03.030000;0;0.0;0.0;0.0;-0.2067;0.0741;0.9087;3.0300000000000002
00:00:03.040000;0;0.0;0.0;0.0;-0.156;0.0273;0.9087;3.04
00:00:03.050000;0;0.0;0.0;0.0;-0.1677;0.0468;0.8853;3.0500000000000003
00:00:03.060000;0;0.0;0.0;0.0;-0.1638;0.0507;0.8892;3.06
00:00:03.070000;0;0.0;0.0;0.0;-0.1755;0.0468;0.8853;3.0700000000000003
00:00:03.080000;0;0.0;0.0;0.0;-0.1794;0.0273;0.8931;3.08
00:00:03.090000;0;0.0;0.0;0.0;-0.1989;0.0429;0.8775;3.0900000000000003
00:00:03.100000;0;0.0;0.0;0.0;-0.1833;0.0;0.8775;3.1
00:00:03.110000;0;0.0;0.0;0.0;-0.1755;0.0273;0.897;3.1100000000000003
00:00:03.120000;0;0.0;0.0;0.0;-0.2106;0.0273;0.8775;3.12
00:00:03.130000;0;0.0;0.0;0.0;-0.1638;0.0273;0.8658;3.1300000000000003
00:00:03.140000;0;0.0;0.0;0.0;-0.1794;0.0156;0.8736;3.14
00:00:03.150000;0;0.0;0.0;0.0;-0.1209;-0.0078;0.8814;3.1500000000000004
00:00:03.160000;0;0.0;0.0;0.0;-0.0858;-0.0039;0.8892;3.16
00:00:03.170000;0;0.0;0.0;0.0;-0.1287;-0.0039;0.9282;3.1700000000000004
00:00:03.180000;0;0.0;0.0;0.0;-0.0858;0.0039;0.9516;3.18
00:00:03.190000;0;0.0;0.0;0.0;-0.0819;0.0;0.9204;3.1900000000000004
00:00:03.200000;0;0.0;0.0;0.0;-0.0936;-0.0078;0.9438;3.2
00:00:03.210000;0;0.0;0.0;0.0;-0.0546;-0.0078;0.9399;3.2100000000000004
00:00:03.220000;0;0.0;0.0;0.0;-0.078;-0.0078;0.9477;3.22
00:00:03.230000;0;0.0;0.0;0.0;-0.0858;0.0195;0.9672;3.23
00:00:03.240000;0;0.0;0.0;0.0;-0.0741;0.0078;0.9906;3.24
00:00:03.250000;0;0.0;0.0;0.0;-0.039;0.0078;1.0218;3.25
00:00:03.260000;0;0.0;0.0;0.0;-0.039;0.0195;1.0257;3.2600000000000002
00:00:03.270000;0;0.0;0.0;0.0;-0.0624;0.0234;1.0296;3.27
00:00:03.280000;0;0.0;0.0;0.0;-0.0312;0.0312;0.9867;3.2800000000000002
00:00:03.290000;0;0.0;0.0;0.0;-0.0741;0.0156;0.9126;3.29
00:00:03.300000;0;0.0;0.0;0.0;-0.078;0.039;0.9009;3.3000000000000003
00:00:03.310000;0;0.0;0.0;0.0;-0.0195;0.0117;0.9321;3.31
00:00:03.320000;0;0.0;0.0;0.0;-0.0507;0.0585;0.975;3.3200000000000003
00:00:03.330000;0;0.0;0.0;0.0;-0.0702;0.0702;1.014;3.33
00:00:03.340000;0;0.0;0.0;0.0;-0.0078;0.0351;1.0452;3.3400000000000003
00:00:03.350000;0;0.0;0.0;0.0;-0.0039;0.0546;1.0023;3.35
00:00:03.360000;0;0.0;0.0;0.0;-0.0663;0.0468;0.9789;3.3600000000000003
00:00:03.370000;0;0.0;0.0;0.0;-0.039;0.0351;0.9984;3.37
00:00:03.380000;0;0.0;0.0;0.0;-0.0351;0.0858;1.0608;3.3800000000000003
00:00:03.390000;0;0.0;0.0;0.0;-0.0546;0.0624;1.0608;3.39
00:00:03.400000;0;0.0;0.0;0.0;-0.0156;0.0351;0.9945;3.4000000000000004
00:00:03.410000;0;0.0;0.0;0.0;-0.0351;-0.0039;0.8385;3.41
00:00:03.420000;0;0.0;0.0;0.0;-0.039;-0.0312;0.7761;3.4200000000000004
00:00:03.430000;0;0.0;0.0;0.0;-0.0507;0.0078;0.8073;3.43
00:00:03.440000;0;0.0;0.0;0.0;-0.0312;0.0429;0.8814;3.4400000000000004
00:00:03.450000;0;0.0;0.0;0.0;0.0039;0.0819;1.0296;3.45
00:00:03.460000;0;0.0;0.0;0.0;0.0039;0.0;0.9945;3.4600000000000004
00:00:03.470000;0;0.0;0.0;0.0;-0.0195;-0.0468;1.0023;3.47
00:00:03.480000;0;0.0;0.0;0.0;-0.0546;-0.0273;1.0491;3.4800000000000004
00:00:03.490000;0;0.0;0.0;0.0;-0.0507;-0.0468;1.0374;3.49
00:00:03.500000;0;0.0;0.0;0.0;-0.0468;-0.0156;1.053;3.5
00:00:03.510000;0;0.0;0.0;0.0;-0.0234;0.0;1.0608;3.5100000000000002
00:00:03.520000;0;0.0;0.0;0.0;-0.0078;-0.0312;1.0296;3.52
00:00:03.530000;0;0.0;0.0;0.0;0.0195;-0.0624;0.9672;3.5300000000000002
00:00:03.540000;0;0.0;0.0;0.0;0.0078;-0.0624;0.9555;3.54
00:00:03.550000;0;0.0;0.0;0.0;0.0117;-0.0039;0.9945;3.5500000000000003
00:00:03.560000;0;0.0;0.0;0.0;0.0078;0.0;0.9048;3.56
00:00:03.570000;0;0.0;0.0;0.0;-0.0741;0.0;0.8385;3.5700000000000003
00:00:03.580000;0;0.0;0.0;0.0;-0.0936;0.0078;0.8346;3.58
00:00:03.590000;0;0.0;0.0;0.0;-0.039;0.0468;0.9126;3.5900000000000003
00:00:03.600000;0;0.0;0.0;0.0;0.0702;0.0741;1.053;3.6
00:00:03.610000;0;0.0;0.0;0.0;0.0156;0.0156;1.1349;3.6100000000000003
00:00:03.620000;0;0.0;0.0;0.0;-0.3627;0.2652;1.1193;3.62
00:00:03.630000;0;0.0;0.0;0.0;-0.4836;0.2145;1.0296;3.6300000000000003
00:00:03.640000;0;0.0;0.0;0.0;-0.2574;0.1248;0.9438;3.64
00:00:03.650000;0;0.0;0.0;0.0;-0.0078;-0.1053;0.9438;3.6500000000000004
00:00:03.660000;0;0.0;0.0;0.0;0.0819;0.0468;0.897;3.66
00:00:03.670000;0;0.0;0.0;0.0;0.078;0.0234;0.9282;3.6700000000000004
00:00:03.680000;0;0.0;0.0;0.0;0.0312;0.0975;0.8931;3.68
00:00:03.690000;0;0.0;0.0;0.0;-0.3471;0.2808;0.8814;3.6900000000000004
00:00:03.700000;0;0.0;0.0;0.0;-0.2613;0.2769;1.0491;3.7
00:00:03.710000;0;0.0;0.0;0.0;-0.1443;0.0897;0.8190000000000001;3.7100000000000004
00:00:03.720000;0;0.0;0.0;0.0;-0.2964;0.1755;0.7566;3.72
00:00:03.730000;0;0.0;0.0;0.0;-0.156;0.0039;0.7644;3.7300000000000004
00:00:03.740000;0;0.0;0.0;0.0;-0.0312;-0.0156;0.7371;3.74
00:00:03.750000;0;0.0;0.0;0.0;-0.1677;0.1638;0.7176;3.7500000000000004
00:00:03.760000;0;0.0;0.0;0.0;-0.1092;0.0117;0.5889;3.7600000000000002
00:00:03.770000;0;0.0;0.0;0.0;-0.0468;-0.0234;0.4134;3.77
00:00:03.780000;0;0.0;0.0;0.0;-0.1638;0.0;0.5772;3.7800000000000002
00:00:03.790000;0;0.0;0.0;0.0;-0.0819;-0.1599;0.6825;3.79
00:00:03.800000;0;0.0;0.0;0.0;-0.1131;-0.1092;0.6201;3.8000000000000003
00:00:03.810000;0;0.0;0.0;0.0;-0.1287;-0.0429;0.8073;3.81
00:00:03.820000;0;0.0;0.0;0.0;0.0273;-0.1521;0.7644;3.8200000000000003
00:00:03.830000;0;0.0;0.0;0.0;-0.0546;-0.0897;0.7527;3.83
00:00:03.840000;0;0.0;0.0;0.0;-0.1443;-0.1287;0.8385;3.8400000000000003
00:00:03.850000;0;0.0;0.0;0.0;-0.0468;-0.0819;0.9984;3.85
00:00:03.860000;0;0.0;0.0;0.0;-0.0585;-0.1209;0.9555;3.8600000000000003
00:00:03.870000;0;0.0;0.0;0.0;0.0741;-0.1014;0.975;3.87
00:00:03.880000;0;0.0;0.0;0.0;0.0234;-0.078;0.975;3.8800000000000003
00:00:03.890000;0;0.0;0.0;0.0;0.0702;-0.0546;0.9789;3.89
00:00:03.900000;0;0.0;0.0;0.0;0.0195;-0.0546;0.8385;3.9000000000000004
00:00:03.910000;0;0.0;0.0;0.0;-0.0624;0.0039;0.8268;3.91
00:00:03.920000;0;0.0;0.0;0.0;-0.0234;0.0156;0.7917;3.9200000000000004
00:00:03.930000;0;0.0;0.0;0.0;-0.0468;0.0117;0.8775;3.93
00:00:03.940000;0;0.0;0.0;0.0;-0.0585;0.039;1.0062;3.9400000000000004
00:00:03.950000;0;0.0;0.0;0.0;0.0039;0.0546;0.975;3.95
00:00:03.960000;0;0.0;0.0;0.0;0.0078;0.0507;0.7605;3.9600000000000004
00:00:03.970000;0;0.0;0.0;0.0;0.0156;0.1677;0.8775;3.97
00:00:03.980000;0;0.0;0.0;0.0;-0.0468;0.1131;0.9906;3.9800000000000004
00:00:03.990000;0;0.0;0.0;0.0;-0.2184;0.1287;1.4937;3.99
00:00:04;1;3.7133299233939;51.0110941915132;7.3;-0.0078;0.1404;1.9617;4.0
00:00:04.010000;0;0.0;0.0;0.0;0.0546;0.0858;1.9227;4.010000000000001
00:00:04.020000;0;0.0;0.0;0.0;-0.0117;0.0624;1.7667;4.0200000000000005
00:00:04.030000;0;0.0;0.0;0.0;0.1521;0.0039;1.5093;4.03
00:00:04.040000;0;0.0;0.0;0.0;0.0585;0.0741;1.3845;4.04
00:00:04.050000;0;0.0;0.0;0.0;0.039;0.1443;1.5483;4.05
00:00:04.060000;0;0.0;0.0;0.0;0.0117;0.0117;1.4976;4.0600000000000005
00:00:04.070000;0;0.0;0.0;0.0;-0.2262;0.1248;1.7823;4.07
00:00:04.080000;0;0.0;0.0;0.0;0.0663;-0.0234;2.0046;4.08
00:00:04.090000;0;0.0;0.0;0.0;0.078;0.0;1.8993;4.09
00:00:04.100000;0;0.0;0.0;0.0;-0.0039;-0.1521;1.482;4.1000000000000005
00:00:04.110000;0;0.0;0.0;0.0;0.1053;-0.117;1.5873;4.11
00:00:04.120000;0;0.0;0.0;0.0;0.1521;-0.1365;1.6185;4.12
00:00:04.130000;0;0.0;0.0;0.0;0.0897;-0.0546;1.4859;4.13
00:00:04.140000;0;0.0;0.0;0.0;0.0741;-0.1248;1.4976;4.140000000000001
00:00:04.150000;0;0.0;0.0;0.0;0.1989;-0.0897;1.4508;4.15
00:00:04.160000;0;0.0;0.0;0.0;0.0117;-0.1248;1.2987;4.16
00:00:04.170000;0;0.0;0.0;0.0;0.0741;-0.156;1.2519;4.17
00:00:04.180000;0;0.0;0.0;0.0;0.039;-0.0975;1.0569;4.180000000000001
00:00:04.190000;0;0.0;0.0;0.0;0.0156;-0.0468;1.0335;4.19
00:00:04.200000;0;0.0;0.0;0.0;0.0195;0.0195;1.0023;4.2
00:00:04.210000;0;0.0;0.0;0.0;0.0234;-0.078;0.8190000000000001;4.21
00:00:04.220000;0;0.0;0.0;0.0;0.0468;-0.0039;0.7644;4.220000000000001
00:00:04.230000;0;0.0;0.0;0.0;-0.039;0.0156;0.7137;4.23
00:00:04.240000;0;0.0;0.0;0.0;0.0117;-0.0702;0.5616;4.24
00:00:04.250000;0;0.0;0.0;0.0;-0.0039;0.0858;0.5577;4.25
00:00:04.260000;0;0.0;0.0;0.0;-0.0663;0.078;0.5967;4.260000000000001
00:00:04.270000;0;0.0;0.0;0.0;0.1053;-0.0585;0.4602;4.2700000000000005
00:00:04.280000;0;0.0;0.0;0.0;-0.1092;0.0;0.5577;4.28
00:00:04.290000;0;0.0;0.0;0.0;-0.3783;0.2028;0.5538;4.29
00:00:04.300000;0;0.0;0.0;0.0;-0.1404;-0.0117;0.4797;4.300000000000001
00:00:04.310000;0;0.0;0.0;0.0;-0.0858;0.0624;0.3393;4.3100000000000005
00:00:04.320000;0;0.0;0.0;0.0;-0.1287;0.0546;0.1872;4.32
00:00:04.330000;0;0.0;0.0;0.0;-0.0234;-0.0156;0.0975;4.33
00:00:04.340000;0;0.0;0.0;0.0;-0.1248;0.0117;0.0975;4.34
00:00:04.350000;0;0.0;0.0;0.0;-0.2067;0.0507;-0.0507;4.3500000000000005
00:00:04.360000;0;0.0;0.0;0.0;-0.2457;0.0585;-0.0585;4.36
00:00:04.370000;0;0.0;0.0;0.0;-0.1365;-0.0156;-0.1599;4.37
00:00:04.380000;0;0.0;0.0;0.0;-0.1872;-0.0195;-0.2769;4.38
00:00:04.390000;0;0.0;0.0;0.0;-0.2145;-0.1014;-0.2262;4.390000000000001
00:00:04.400000;0;0.0;0.0;0.0;-0.2067;-0.1248;-0.0975;4.4
00:00:04.410000;0;0.0;0.0;0.0;-0.2184;0.0663;0.3861;4.41
00:00:04.420000;0;0.0;0.0;0.0;-0.1833;-0.0156;0.3588;4.42
00:00:04.430000;0;0.0;0.0;0.0;-0.2223;-0.0975;0.4173;4.430000000000001
00:00:04.440000;0;0.0;0.0;0.0;-0.2106;-0.0702;0.4173;4.44
00:00:04.450000;0;0.0;0.0;0.0;-0.1872;0.039;0.3237;4.45
00:00:04.460000;0;0.0;0.0;0.0;-0.1755;-0.0663;0.4251;4.46
00:00:04.470000;0;0.0;0.0;0.0;-0.1131;0.0;0.5889;4.470000000000001
00:00:04.480000;0;0.0;0.0;0.0;-0.1092;0.0117;0.6629999999999999;4.48
00:00:04.490000;0;0.0;0.0;0.0;-0.0429;-0.0156;0.7371;4.49
00:00:04.500000;0;0.0;0.0;0.0;-0.1131;0.0039;0.7371;4.5
00:00:04.510000;0;0.0;0.0;0.0;-0.156;0.0936;0.7761;4.510000000000001
00:00:04.520000;0;0.0;0.0;0.0;-0.0819;0.0819;0.7098;4.5200000000000005
00:00:04.530000;0;0.0;0.0;0.0;-0.1014;0.0195;0.7761;4.53
00:00:04.540000;0;0.0;0.0;0.0;-0.039;0.0351;1.0452;4.54
00:00:04.550000;0;0.0;0.0;0.0;-0.0078;0.0546;1.0998;4.550000000000001
00:00:04.560000;0;0.0;0.0;0.0;-0.0507;0.156;1.2051;4.5600000000000005
00:00:04.570000;0;0.0;0.0;0.0;-0.039;0.0546;1.1895;4.57
00:00:04.580000;0;0.0;0.0;0.0;-0.0078;0.0741;1.2168;4.58
00:00:04.590000;0;0.0;0.0;0.0;-0.0585;0.1443;1.1739;4.59
00:00:04.600000;0;0.0;0.0;0.0;-0.0429;-0.0039;1.1154;4.6000000000000005
00:00:04.610000;0;0.0;0.0;0.0;0.0624;0.0468;1.2792;4.61
00:00:04.620000;0;0.0;0.0;0.0;-0.0819;0.1209;1.3494;4.62
00:00:04.630000;0;0.0;0.0;0.0;0.039;0.0234;1.4352;4.63
00:00:04.640000;0;0.0;0.0;0.0;0.0702;0.0273;1.404;4.640000000000001
00:00:04.650000;0;0.0;0.0;0.0;0.0117;0.0663;1.3923;4.65
00:00:04.660000;0;0.0;0.0;0.0;-0.0897;0.0936;1.5561;4.66
00:00:04.670000;0;0.0;0.0;0.0;-0.1209;0.0819;1.6146;4.67
00:00:04.680000;0;0.0;0.0;0.0;0.0156;0.0546;1.7355;4.680000000000001
00:00:04.690000;0;0.0;0.0;0.0;0.0546;-0.0156;1.7589;4.69
00:00:04.700000;0;0.0;0.0;0.0;0.1755;-0.0351;1.5873;4.7
00:00:04.710000;0;0.0;0.0;0.0;0.0312;-0.1326;1.4196;4.71
00:00:04.720000;0;0.0;0.0;0.0;0.0585;0.0546;1.6107;4.720000000000001
00:00:04.730000;0;0.0;0.0;0.0;-0.0273;0.0;1.5015;4.73
00:00:04.740000;0;0.0;0.0;0.0;-0.078;-0.0234;1.4898;4.74
00:00:04.750000;0;0.0;0.0;0.0;0.078;0.0273;1.6887;4.75
00:00:04.760000;0;0.0;0.0;0.0;0.0624;-0.0234;1.4664;4.760000000000001
00:00:04.770000;0;0.0;0.0;0.0;-0.0195;-0.0117;1.3143;4.7700000000000005
00:00:04.780000;0;0.0;0.0;0.0;0.0;-0.0546;1.2909;4.78
00:00:04.790000;0;0.0;0.0;0.0;-0.0195;0.0039;1.2714;4.79
00:00:04.800000;0;0.0;0.0;0.0;-0.0039;-0.0156;1.2207;4.800000000000001
00:00:04.810000;0;0.0;0.0;0.0;0.0195;-0.0234;1.1817;4.8100000000000005
00:00:04.820000;0;0.0;0.0;0.0;0.0156;0.0;1.1349;4.82
00:00:04.830000;0;0.0;0.0;0.0;0.0039;0.0078;1.1154;4.83
00:00:04.840000;0;0.0;0.0;0.0;-0.0039;-0.0078;1.0725;4.84
00:00:04.850000;0;0.0;0.0;0.0;-0.0312;0.0234;0.9672;4.8500000000000005
00:00:04.860000;0;0.0;0.0;0.0;-0.0507;0.0429;0.9555;4.86
00:00:04.870000;0;0.0;0.0;0.0;-0.0312;0.0;0.9126;4.87
00:00:04.880000;0;0.0;0.0;0.0;-0.0429;0.0351;0.8229;4.88
00:00:04.890000;0;0.0;0.0;0.0;-0.0819;0.0507;0.858;4.890000000000001
00:00:04.900000;0;0.0;0.0;0.0;-0.0351;0.0195;0.8151;4.9
00:00:04.910000;0;0.0;0.0;0.0;-0.0195;0.0429;0.7644;4.91
00:00:04.920000;0;0.0;0.0;0.0;-0.078;0.0468;0.7566;4.92
00:00:04.930000;0;0.0;0.0;0.0;-0.0273;0.0585;0.7644;4.930000000000001
00:00:04.940000;0;0.0;0.0;0.0;-0.0663;0.0546;0.6903;4.94
00:00:04.950000;0;0.0;0.0;0.0;-0.0741;0.0468;0.6786;4.95
00:00:04.960000;0;0.0;0.0;0.0;-0.0468;0.039;0.6981;4.96
00:00:04.970000;0;0.0;0.0;0.0;-0.0819;0.0273;0.6629999999999999;4.970000000000001
00:00:04.980000;0;0.0;0.0;0.0;-0.0585;0.0429;0.6786;4.98
00:00:04.990000;0;0.0;0.0;0.0;-0.1014;0.0273;0.6669;4.99
00:00:05;1;3.7133299233939;51.0110941915132;7.0;-0.078;0.0546;0.6629999999999999;5.0
00:00:05.010000;0;0.0;0.0;0.0;-0.0468;0.0273;0.6279;5.010000000000001
00:00:05.020000;0;0.0;0.0;0.0;-0.0429;0.0039;0.6474;5.0200000000000005
00:00:05.030000;0;0.0;0.0;0.0;-0.0624;0.0117;0.5967;5.03
00:00:05.040000;0;0.0;0.0;0.0;-0.0663;0.0156;0.6279;5.04
00:00:05.050000;0;0.0;0.0;0.0;-0.078;0.0429;0.6942;5.050000000000001
00:00:05.060000;0;0.0;0.0;0.0;-0.0819;0.0117;0.7488;5.0600000000000005
00:00:05.070000;0;0.0;0.0;0.0;-0.0702;0.0234;0.78;5.07
00:00:05.080000;0;0.0;0.0;0.0;-0.0897;0.0156;0.8190000000000001;5.08
00:00:05.090000;0;0.0;0.0;0.0;-0.0507;-0.0039;0.8424;5.090000000000001
00:00:05.100000;0;0.0;0.0;0.0;-0.0663;0.0273;0.8463;5.1000000000000005
00:00:05.110000;0;0.0;0.0;0.0;-0.0936;0.0195;0.9009;5.11
00:00:05.120000;0;0.0;0.0;0.0;-0.0312;0.0195;0.9321;5.12
00:00:05.130000;0;0.0;0.0;0.0;-0.0702;0.0195;0.9555;5.13
00:00:05.140000;0;0.0;0.0;0.0;-0.0702;0.0117;0.9867;5.140000000000001
00:00:05.150000;0;0.0;0.0;0.0;-0.0585;0.0195;0.9672;5.15
00:00:05.160000;0;0.0;0.0;0.0;-0.0702;0.0273;0.9711;5.16
00:00:05.170000;0;0.0;0.0;0.0;-0.0624;0.0351;1.0296;5.17
00:00:05.180000;0;0.0;0.0;0.0;-0.0663;0.0117;1.0179;5.180000000000001
00:00:05.190000;0;0.0;0.0;0.0;-0.039;0.039;1.0335;5.19
00:00:05.200000;0;0.0;0.0;0.0;-0.0546;0.0273;1.0374;5.2
00:00:05.210000;0;0.0;0.0;0.0;-0.0663;0.0273;1.0413;5.21
00:00:05.220000;0;0.0;0.0;0.0;-0.0429;0.039;1.0335;5.220000000000001
00:00:05.230000;0;0.0;0.0;0.0;-0.0585;0.0195;1.0608;5.23
00:00:05.240000;0;0.0;0.0;0.0;-0.0351;0.0312;1.0686;5.24
00:00:05.250000;0;0.0;0.0;0.0;-0.0585;0.039;1.0218;5.25
00:00:05.260000;0;0.0;0.0;0.0;-0.0468;0.0234;1.0296;5.260000000000001
00:00:05.270000;0;0.0;0.0;0.0;-0.039;0.0234;1.0179;5.2700000000000005
00:00:05.280000;0;0.0;0.0;0.0;-0.0507;0.0117;1.0062;5.28
00:00:05.290000;0;0.0;0.0;0.0;-0.0195;0.0078;1.0218;5.29
00:00:05.300000;0;0.0;0.0;0.0;-0.0663;0.0117;1.0335;5.300000000000001
00:00:05.310000;0;0.0;0.0;0.0;-0.0546;0.0234;1.0257;5.3100000000000005
00:00:05.320000;0;0.0;0.0;0.0;-0.0585;0.0156;1.0296;5.32
00:00:05.330000;0;0.0;0.0;0.0;-0.0351;0.0039;1.014;5.33
00:00:05.340000;0;0.0;0.0;0.0;-0.0468;0.0273;1.0296;5.340000000000001
00:00:05.350000;0;0.0;0.0;0.0;-0.0624;0.0;1.0413;5.3500000000000005
00:00:05.360000;0;0.0;0.0;0.0;-0.0351;0.0078;1.0218;5.36
00:00:05.370000;0;0.0;0.0;0.0;-0.0546;0.0195;1.0179;5.37
00:00:05.380000;0;0.0;0.0;0.0;-0.0273;-0.0039;1.0296;5.38
00:00:05.390000;0;0.0;0.0;0.0;-0.0117;0.0039;1.0023;5.390000000000001
00:00:05.400000;0;0.0;0.0;0.0;-0.0624;0.0195;1.0023;5.4
00:00:05.410000;0;0.0;0.0;0.0;-0.0351;0.0039;0.9984;5.41
00:00:05.420000;0;0.0;0.0;0.0;-0.0351;0.0156;0.9984;5.42
00:00:05.430000;0;0.0;0.0;0.0;-0.0546;0.0195;0.9789;5.430000000000001
00:00:05.440000;0;0.0;0.0;0.0;-0.0429;0.0;0.9555;5.44
00:00:05.450000;0;0.0;0.0;0.0;-0.0585;0.0351;0.9516;5.45
00:00:05.460000;0;0.0;0.0;0.0;-0.0702;0.0234;0.9555;5.46
00:00:05.470000;0;0.0;0.0;0.0;-0.0195;0.0156;0.9594;5.470000000000001
00:00:05.480000;0;0.0;0.0;0.0;-0.0585;0.0273;0.9399;5.48
00:00:05.490000;0;0.0;0.0;0.0;-0.0702;0.0195;0.936;5.49
00:00:05.500000;0;0.0;0.0;0.0;-0.0468;0.0117;0.9633;5.5
00:00:05.510000;0;0.0;0.0;0.0;-0.0546;0.0156;0.9126;5.510000000000001
00:00:05.520000;0;0.0;0.0;0.0;-0.039;0.0;0.9126;5.5200000000000005
00:00:05.530000;0;0.0;0.0;0.0;-0.039;0.0078;0.9204;5.53
00:00:05.540000;0;0.0;0.0;0.0;-0.0585;0.0234;0.897;5.54
00:00:05.550000;0;0.0;0.0;0.0;-0.0429;0.0351;0.9087;5.550000000000001
00:00:05.560000;0;0.0;0.0;0.0;-0.0546;0.0039;0.9087;5.5600000000000005
00:00:05.570000;0;0.0;0.0;0.0;-0.0507;0.039;0.9048;5.57
00:00:05.580000;0;0.0;0.0;0.0;-0.0546;0.0156;0.9048;5.58
00:00:05.590000;0;0.0;0.0;0.0;-0.0702;0.039;0.9399;5.590000000000001
00:00:05.600000;0;0.0;0.0;0.0;-0.0468;0.0429;0.9204;5.6000000000000005
00:00:05.610000;0;0.0;0.0;0.0;-0.0546;0.0312;0.9399;5.61
00:00:05.620000;0;0.0;0.0;0.0;-0.0507;0.0156;0.9048;5.62
00:00:05.630000;0;0.0;0.0;0.0;-0.0702;0.0273;0.9204;5.630000000000001
00:00:05.640000;0;0.0;0.0;0.0;-0.0546;0.0429;0.9711;5.640000000000001
00:00:05.650000;0;0.0;0.0;0.0;-0.0468;0.0273;0.9204;5.65
00:00:05.660000;0;0.0;0.0;0.0;-0.0546;0.0195;0.9282;5.66
00:00:05.670000;0;0.0;0.0;0.0;-0.039;0.0156;0.9438;5.67
00:00:05.680000;0;0.0;0.0;0.0;-0.0507;0.0117;0.9477;5.680000000000001
00:00:05.690000;0;0.0;0.0;0.0;-0.0507;0.0273;0.9438;5.69
00:00:05.700000;0;0.0;0.0;0.0;-0.0663;0.0234;0.9594;5.7
00:00:05.710000;0;0.0;0.0;0.0;-0.0351;0.0195;0.9789;5.71
00:00:05.720000;0;0.0;0.0;0.0;-0.0429;0.0195;0.9789;5.720000000000001
00:00:05.730000;0;0.0;0.0;0.0;-0.0624;0.0195;0.9945;5.73
00:00:05.740000;0;0.0;0.0;0.0;-0.0351;0.0156;0.9945;5.74
00:00:05.750000;0;0.0;0.0;0.0;-0.0702;0.0312;0.9711;5.75
00:00:05.760000;0;0.0;0.0;0.0;-0.039;0.0078;0.9867;5.760000000000001
00:00:05.770000;0;0.0;0.0;0.0;-0.0468;0.0234;0.975;5.7700000000000005
00:00:05.780000;0;0.0;0.0;0.0;-0.0507;0.0117;0.9672;5.78
00:00:05.790000;0;0.0;0.0;0.0;-0.0273;0.0078;0.9867;5.79
00:00:05.800000;0;0.0;0.0;0.0;-0.0663;0.0117;0.9594;5.800000000000001
00:00:05.810000;0;0.0;0.0;0.0;-0.0312;0.0234;0.9555;5.8100000000000005
00:00:05.820000;0;0.0;0.0;0.0;-0.0624;0.0117;0.9633;5.82
00:00:05.830000;0;0.0;0.0;0.0;-0.0507;0.0195;0.9516;5.83
00:00:05.840000;0;0.0;0.0;0.0;-0.0468;0.0429;0.936;5.840000000000001
00:00:05.850000;0;0.0;0.0;0.0;-0.0351;0.0039;0.9477;5.8500000000000005
00:00:05.860000;0;0.0;0.0;0.0;-0.0429;0.0156;0.9009;5.86
00:00:05.870000;0;0.0;0.0;0.0;-0.0897;0.0351;0.9126;5.87
00:00:05.880000;0;0.0;0.0;0.0;-0.0273;0.0195;0.9633;5.880000000000001
00:00:05.890000;0;0.0;0.0;0.0;-0.0624;0.0195;0.9321;5.890000000000001
00:00:05.900000;0;0.0;0.0;0.0;-0.0546;0.0351;0.9009;5.9
00:00:05.910000;0;0.0;0.0;0.0;-0.0312;0.0039;0.9009;5.91
00:00:05.920000;0;0.0;0.0;0.0;-0.0585;0.0195;0.9009;5.92
00:00:05.930000;0;0.0;0.0;0.0;-0.0585;0.0429;0.9438;5.930000000000001
00:00:05.940000;0;0.0;0.0;0.0;-0.0351;0.0;0.9321;5.94
00:00:05.950000;0;0.0;0.0;0.0;-0.0546;0.0312;0.9321;5.95
00:00:05.960000;0;0.0;0.0;0.0;-0.0624;0.0156;0.9321;5.96
00:00:05.970000;0;0.0;0.0;0.0;-0.0312;0.0117;0.9516;5.970000000000001
00:00:05.980000;0;0.0;0.0;0.0;-0.0546;0.0273;0.9672;5.98
00:00:05.990000;0;0.0;0.0;0.0;-0.0585;0.0468;0.9711;5.99
00:00:06;1;3.71332934470678;51.011240642965795;6.8;-0.0507;0.0117;0.9594;6.0
00:00:06.010000;0;0.0;0.0;0.0;-0.0351;0.0156;0.9594;6.010000000000001
00:00:06.020000;0;0.0;0.0;0.0;-0.0624;0.0273;0.9672;6.0200000000000005
00:00:06.030000;0;0.0;0.0;0.0;-0.0429;0.0273;0.9672;6.03
00:00:06.040000;0;0.0;0.0;0.0;-0.0702;0.0351;0.9438;6.04
00:00:06.050000;0;0.0;0.0;0.0;-0.0546;0.0078;0.9399;6.050000000000001
00:00:06.060000;0;0.0;0.0;0.0;-0.0117;0.0078;0.9204;6.0600000000000005
00:00:06.070000;0;0.0;0.0;0.0;-0.0741;0.0156;0.9516;6.07
00:00:06.080000;0;0.0;0.0;0.0;-0.0468;0.0117;0.9555;6.08
00:00:06.090000;0;0.0;0.0;0.0;-0.0741;0.0234;0.9984;6.090000000000001
00:00:06.100000;0;0.0;0.0;0.0;-0.0858;0.0234;0.9672;6.1000000000000005
00:00:06.110000;0;0.0;0.0;0.0;-0.0039;-0.0156;0.9243;6.11
00:00:06.120000;0;0.0;0.0;0.0;-0.0078;-0.0429;0.9321;6.12
00:00:06.130000;0;0.0;0.0;0.0;-0.0936;0.0273;0.8697;6.130000000000001
00:00:06.140000;0;0.0;0.0;0.0;-0.078;0.0234;0.9282;6.140000000000001
00:00:06.150000;0;0.0;0.0;0.0;-0.0078;-0.0078;0.9672;6.15
00:00:06.160000;0;0.0;0.0;0.0;-0.0585;0.039;0.9789;6.16
00:00:06.170000;0;0.0;0.0;0.0;-0.0663;0.0078;0.9711;6.170000000000001
00:00:06.180000;0;0.0;0.0;0.0;-0.039;-0.0117;0.9906;6.180000000000001
00:00:06.190000;0;0.0;0.0;0.0;-0.0468;0.0468;0.9906;6.19
00:00:06.200000;0;0.0;0.0;0.0;-0.039;0.0273;0.9867;6.2
00:00:06.210000;0;0.0;0.0;0.0;0.0;0.0117;0.9594;6.21
00:00:06.220000;0;0.0;0.0;0.0;-0.0507;0.0312;0.9516;6.220000000000001
00:00:06.230000;0;0.0;0.0;0.0;-0.0468;0.0273;0.975;6.23
00:00:06.240000;0;0.0;0.0;0.0;-0.0273;0.0156;0.9204;6.24
00:00:06.250000;0;0.0;0.0;0.0;-0.0468;0.0468;0.9126;6.25
00:00:06.260000;0;0.0;0.0;0.0;-0.0234;0.0351;0.936;6.260000000000001
00:00:06.270000;0;0.0;0.0;0.0;-0.0351;0.0273;0.9126;6.2700000000000005
00:00:06.280000;0;0.0;0.0;0.0;-0.0624;0.0507;0.9087;6.28
00:00:06.290000;0;0.0;0.0;0.0;-0.0429;0.0195;0.9516;6.29
00:00:06.300000;0;0.0;0.0;0.0;-0.039;0.0546;0.9672;6.300000000000001
00:00:06.310000;0;0.0;0.0;0.0;-0.0429;0.0312;0.9165;6.3100000000000005
00:00:06.320000;0;0.0;0.0;0.0;-0.0156;0.0273;0.9399;6.32
00:00:06.330000;0;0.0;0.0;0.0;-0.0273;0.0351;0.9516;6.33
00:00:06.340000;0;0.0;0.0;0.0;-0.0312;0.039;0.936;6.340000000000001
00:00:06.350000;0;0.0;0.0;0.0;-0.0117;0.0234;0.9477;6.3500000000000005
00:00:06.360000;0;0.0;0.0;0.0;-0.0078;0.0117;0.9399;6.36
00:00:06.370000;0;0.0;0.0;0.0;0.0039;0.0351;0.9672;6.37
00:00:06.380000;0;0.0;0.0;0.0;-0.0078;0.0351;0.9945;6.380000000000001
00:00:06.390000;0;0.0;0.0;0.0;-0.0117;0.0273;1.0023;6.390000000000001
00:00:06.400000;0;0.0;0.0;0.0;0.0117;0.0117;0.9672;6.4
00:00:06.410000;0;0.0;0.0;0.0;0.0234;0.0078;0.9633;6.41
00:00:06.420000;0;0.0;0.0;0.0;0.0117;0.0;0.9438;6.420000000000001
00:00:06.430000;0;0.0;0.0;0.0;0.0117;0.0351;0.9165;6.430000000000001
00:00:06.440000;0;0.0;0.0;0.0;0.0234;0.0039;0.9204;6.44
00:00:06.450000;0;0.0;0.0;0.0;0.0546;0.0078;0.9516;6.45
00:00:06.460000;0;0.0;0.0;0.0;0.0429;0.0195;0.9399;6.46
00:00:06.470000;0;0.0;0.0;0.0;0.0468;-0.0078;0.936;6.470000000000001
00:00:06.480000;0;0.0;0.0;0.0;0.039;0.0195;0.9945;6.48
00:00:06.490000;0;0.0;0.0;0.0;-0.0156;0.0468;0.9789;6.49
00:00:06.500000;0;0.0;0.0;0.0;0.0117;0.0156;0.9945;6.5
00:00:06.510000;0;0.0;0.0;0.0;0.1287;-0.0429;0.9516;6.510000000000001
00:00:06.520000;0;0.0;0.0;0.0;0.0429;-0.0117;0.9009;6.5200000000000005
00:00:06.530000;0;0.0;0.0;0.0;0.0624;-0.0156;0.9399;6.53
00:00:06.540000;0;0.0;0.0;0.0;0.0858;-0.0039;0.9594;6.54
00:00:06.550000;0;0.0;0.0;0.0;0.0156;0.0273;0.9204;6.550000000000001
00:00:06.560000;0;0.0;0.0;0.0;0.0819;-0.0039;0.9438;6.5600000000000005
00:00:06.570000;0;0.0;0.0;0.0;0.0819;0.0;1.0101;6.57
00:00:06.580000;0;0.0;0.0;0.0;0.0546;0.0429;1.0101;6.58
00:00:06.590000;0;0.0;0.0;0.0;0.078;0.0039;0.9672;6.590000000000001
00:00:06.600000;0;0.0;0.0;0.0;0.0507;0.0429;0.975;6.6000000000000005
00:00:06.610000;0;0.0;0.0;0.0;0.0624;0.0624;0.9633;6.61
00:00:06.620000;0;0.0;0.0;0.0;0.1131;0.0195;1.0062;6.62
00:00:06.630000;0;0.0;0.0;0.0;0.0624;0.0195;0.9672;6.630000000000001
00:00:06.640000;0;0.0;0.0;0.0;0.039;0.0312;0.9282;6.640000000000001
00:00:06.650000;0;0.0;0.0;0.0;0.1053;0.0429;0.9633;6.65
00:00:06.660000;0;0.0;0.0;0.0;0.078;0.0663;1.0062;6.66
00:00:06.670000;0;0.0;0.0;0.0;0.0702;0.0507;0.9984;6.670000000000001
00:00:06.680000;0;0.0;0.0;0.0;0.0936;0.0429;1.0413;6.680000000000001
00:00:06.690000;0;0.0;0.0;0.0;0.0546;0.039;1.0608;6.69
00:00:06.700000;0;0.0;0.0;0.0;0.0546;0.0429;0.9984;6.7
00:00:06.710000;0;0.0;0.0;0.0;0.0858;0.0273;0.9204;6.710000000000001
00:00:06.720000;0;0.0;0.0;0.0;0.078;0.0273;0.9048;6.720000000000001
00:00:06.730000;0;0.0;0.0;0.0;0.0585;0.0429;0.9009;6.73
00:00:06.740000;0;0.0;0.0;0.0;0.078;0.0078;0.9438;6.74
00:00:06.750000;0;0.0;0.0;0.0;0.1209;0.0156;1.0062;6.75
00:00:06.760000;0;0.0;0.0;0.0;0.1092;0.0624;1.0803;6.760000000000001
00:00:06.770000;0;0.0;0.0;0.0;0.0702;0.0312;1.0569;6.7700000000000005
00:00:06.780000;0;0.0;0.0;0.0;0.0624;0.039;1.0374;6.78
00:00:06.790000;0;0.0;0.0;0.0;0.0351;0.0117;0.9399;6.79
00:00:06.800000;0;0.0;0.0;0.0;0.0663;0.0156;0.8697;6.800000000000001
00:00:06.810000;0;0.0;0.0;0.0;0.0663;0.0234;0.9438;6.8100000000000005
00:00:06.820000;0;0.0;0.0;0.0;0.0975;0.0156;0.9711;6.82
00:00:06.830000;0;0.0;0.0;0.0;0.1287;0.0429;0.9867;6.83
00:00:06.840000;0;0.0;0.0;0.0;0.1989;0.0039;1.0101;6.840000000000001
00:00:06.850000;0;0.0;0.0;0.0;0.078;0.0117;0.9516;6.8500000000000005
00:00:06.860000;0;0.0;0.0;0.0;-0.0039;0.0429;0.8151;6.86
00:00:06.870000;0;0.0;0.0;0.0;0.0546;0.0078;0.8034;6.87
00:00:06.880000;0;0.0;0.0;0.0;0.0429;0.0234;0.8541;6.880000000000001
00:00:06.890000;0;0.0;0.0;0.0;0.0078;0.0663;0.8775;6.890000000000001
00:00:06.900000;0;0.0;0.0;0.0;0.0351;-0.0039;0.936;6.9
00:00:06.910000;0;0.0;0.0;0.0;0.078;0.0039;0.9321;6.91
00:00:06.920000;0;0.0;0.0;0.0;0.0585;0.039;0.9555;6.920000000000001
00:00:06.930000;0;0.0;0.0;0.0;0.1014;0.0078;0.9711;6.930000000000001
00:00:06.940000;0;0.0;0.0;0.0;0.1209;-0.0117;0.9399;6.94
00:00:06.950000;0;0.0;0.0;0.0;0.0546;-0.0078;0.9867;6.95
00:00:06.960000;0;0.0;0.0;0.0;0.0039;0.0117;0.9984;6.960000000000001
00:00:06.970000;0;0.0;0.0;0.0;0.0429;-0.0039;1.014;6.970000000000001
00:00:06.980000;0;0.0;0.0;0.0;0.0234;0.0234;0.975;6.98
00:00:06.990000;0;0.0;0.0;0.0;0.0897;0.0273;0.9984;6.99
00:00:07;1;3.71332934470678;51.011240642965795;7.4;0.0468;0.0117;0.9711;7.0
00:00:07.010000;0;0.0;0.0;0.0;-0.0273;0.0312;0.9477;7.010000000000001
00:00:07.020000;0;0.0;0.0;0.0;0.0507;0.0468;1.0257;7.0200000000000005
00:00:07.030000;0;0.0;0.0;0.0;0.1248;0.0078;1.0218;7.03
00:00:07.040000;0;0.0;0.0;0.0;0.1053;0.0117;0.9243;7.04
00:00:07.050000;0;0.0;0.0;0.0;0.0273;0.039;0.8541;7.050000000000001
00:00:07.060000;0;0.0;0.0;0.0;0.0117;0.0468;0.8619;7.0600000000000005
00:00:07.070000;0;0.0;0.0;0.0;-0.0234;0.0546;0.9009;7.07
00:00:07.080000;0;0.0;0.0;0.0;0.0429;-0.0078;0.8853;7.08
00:00:07.090000;0;0.0;0.0;0.0;0.1131;-0.0234;0.897;7.090000000000001
00:00:07.100000;0;0.0;0.0;0.0;0.0624;-0.0507;0.8463;7.1000000000000005
00:00:07.110000;0;0.0;0.0;0.0;0.0663;0.0039;0.9087;7.11
00:00:07.120000;0;0.0;0.0;0.0;0.0741;0.0312;0.8541;7.12
00:00:07.130000;0;0.0;0.0;0.0;0.0156;0.0624;0.7566;7.130000000000001
00:00:07.140000;0;0.0;0.0;0.0;0.0507;0.0429;0.8307;7.140000000000001
00:00:07.150000;0;0.0;0.0;0.0;0.0858;0.0078;0.8424;7.15
00:00:07.160000;0;0.0;0.0;0.0;-0.0663;0.0663;0.9867;7.16
00:00:07.170000;0;0.0;0.0;0.0;0.0351;0.0507;1.1193;7.170000000000001
00:00:07.180000;0;0.0;0.0;0.0;0.1716;0.0273;1.1037;7.180000000000001
00:00:07.190000;0;0.0;0.0;0.0;0.0624;0.039;0.9321;7.19
00:00:07.200000;0;0.0;0.0;0.0;0.117;-0.0156;0.8424;7.2
00:00:07.210000;0;0.0;0.0;0.0;0.1014;0.0234;0.6669;7.210000000000001
00:00:07.220000;0;0.0;0.0;0.0;-0.1014;0.039;0.7449;7.220000000000001
00:00:07.230000;0;0.0;0.0;0.0;0.0507;-0.0039;0.8814;7.23
00:00:07.240000;0;0.0;0.0;0.0;0.1287;0.0078;1.0179;7.24
00:00:07.250000;0;0.0;0.0;0.0;0.0234;0.0273;1.053;7.250000000000001
00:00:07.260000;0;0.0;0.0;0.0;0.1131;-0.0078;1.0257;7.260000000000001
00:00:07.270000;0;0.0;0.0;0.0;0.0975;-0.0117;1.0296;7.2700000000000005
00:00:07.280000;0;0.0;0.0;0.0;0.0117;0.0351;0.9789;7.28
00:00:07.290000;0;0.0;0.0;0.0;0.0819;-0.039;0.9243;7.29
00:00:07.300000;0;0.0;0.0;0.0;0.0741;-0.0039;0.9711;7.300000000000001
00:00:07.310000;0;0.0;0.0;0.0;0.0468;0.0039;0.975;7.3100000000000005
00:00:07.320000;0;0.0;0.0;0.0;0.0663;0.0507;1.0452;7.32
00:00:07.330000;0;0.0;0.0;0.0;0.0117;-0.0156;1.0179;7.33
00:00:07.340000;0;0.0;0.0;0.0;0.0312;0.0039;1.0218;7.340000000000001
00:00:07.350000;0;0.0;0.0;0.0;0.1248;-0.0234;1.1271;7.3500000000000005
00:00:07.360000;0;0.0;0.0;0.0;0.0663;-0.0195;1.0023;7.36
00:00:07.370000;0;0.0;0.0;0.0;0.0585;0.0312;1.0959;7.37
00:00:07.380000;0;0.0;0.0;0.0;0.0819;0.0312;1.0686;7.380000000000001
00:00:07.390000;0;0.0;0.0;0.0;0.0117;-0.0078;1.1232;7.390000000000001
00:00:07.400000;0;0.0;0.0;0.0;0.117;0.0156;1.0608;7.4
00:00:07.410000;0;0.0;0.0;0.0;0.0234;0.0312;1.0218;7.41
00:00:07.420000;0;0.0;0.0;0.0;0.0936;0.0078;1.0998;7.420000000000001
00:00:07.430000;0;0.0;0.0;0.0;0.039;0.0468;1.0413;7.430000000000001
00:00:07.440000;0;0.0;0.0;0.0;0.0039;0.0429;1.0569;7.44
00:00:07.450000;0;0.0;0.0;0.0;0.0897;-0.0117;1.0179;7.45
00:00:07.460000;0;0.0;0.0;0.0;0.0819;0.0234;0.9906;7.460000000000001
00:00:07.470000;0;0.0;0.0;0.0;0.0819;-0.0156;0.9477;7.470000000000001
00:00:07.480000;0;0.0;0.0;0.0;0.039;0.0078;0.9009;7.48
00:00:07.490000;0;0.0;0.0;0.0;-0.0156;0.0156;0.936;7.49
00:00:07.500000;0;0.0;0.0;0.0;0.0936;0.0039;0.936;7.500000000000001
00:00:07.510000;0;0.0;0.0;0.0;0.0546;0.0195;0.9711;7.510000000000001
00:00:07.520000;0;0.0;0.0;0.0;0.0195;-0.0195;0.897;7.5200000000000005
00:00:07.530000;0;0.0;0.0;0.0;0.0468;0.0195;0.9477;7.53
00:00:07.540000;0;0.0;0.0;0.0;0.0351;0.0234;0.9321;7.54
00:00:07.550000;0;0.0;0.0;0.0;0.0546;0.0039;0.8775;7.550000000000001
00:00:07.560000;0;0.0;0.0;0.0;0.0624;0.0117;0.9321;7.5600000000000005
00:00:07.570000;0;0.0;0.0;0.0;0.0;0.039;0.9438;7.57
00:00:07.580000;0;0.0;0.0;0.0;0.0312;0.0195;0.8502;7.58
00:00:07.590000;0;0.0;0.0;0.0;0.0429;0.0273;0.8541;7.590000000000001
00:00:07.600000;0;0.0;0.0;0.0;0.0234;0.0195;0.897;7.6000000000000005
00:00:07.610000;0;0.0;0.0;0.0;0.0195;0.0351;0.858;7.61
00:00:07.620000;0;0.0;0.0;0.0;0.0234;0.0156;0.8307;7.62
00:00:07.630000;0;0.0;0.0;0.0;0.039;0.0195;0.9282;7.630000000000001
00:00:07.640000;0;0.0;0.0;0.0;0.0468;-0.0195;0.8385;7.640000000000001
00:00:07.650000;0;0.0;0.0;0.0;0.0273;0.0273;0.9321;7.65
00:00:07.660000;0;0.0;0.0;0.0;0.0117;0.0117;0.9633;7.66
00:00:07.670000;0;0.0;0.0;0.0;0.039;0.0273;0.9438;7.670000000000001
00:00:07.680000;0;0.0;0.0;0.0;0.0702;0.0195;0.9126;7.680000000000001
00:00:07.690000;0;0.0;0.0;0.0;0.0156;0.0234;0.9789;7.69
00:00:07.700000;0;0.0;0.0;0.0;0.0507;0.0429;1.0296;7.7
00:00:07.710000;0;0.0;0.0;0.0;0.0234;0.0117;0.9633;7.710000000000001
00:00:07.720000;0;0.0;0.0;0.0;0.0156;0.0078;0.9945;7.720000000000001
00:00:07.730000;0;0.0;0.0;0.0;0.0819;0.0234;0.9009;7.73
00:00:07.740000;0;0.0;0.0;0.0;0.0312;-0.0273;0.8424;7.74
00:00:07.750000;0;0.0;0.0;0.0;0.0273;0.0351;0.9282;7.750000000000001
00:00:07.760000;0;0.0;0.0;0.0;0.0312;0.0039;0.897;7.760000000000001
00:00:07.770000;0;0.0;0.0;0.0;0.0663;0.0;0.8892;7.7700000000000005
00:00:07.780000;0;0.0;0.0;0.0;0.0312;0.0156;0.9204;7.78
00:00:07.790000;0;0.0;0.0;0.0;0.0195;0.0;0.9282;7.790000000000001
00:00:07.800000;0;0.0;0.0;0.0;0.078;0.0312;0.8775;7.800000000000001
00:00:07.810000;0;0.0;0.0;0.0;-0.0039;0.0117;0.8736;7.8100000000000005
00:00:07.820000;0;0.0;0.0;0.0;0.039;-0.0078;0.9243;7.82
00:00:07.830000;0;0.0;0.0;0.0;0.039;0.0;0.9126;7.83
00:00:07.840000;0;0.0;0.0;0.0;0.0312;0.0195;1.0257;7.840000000000001
00:00:07.850000;0;0.0;0.0;0.0;0.0702;0.0273;0.9828;7.8500000000000005
00:00:07.860000;0;0.0;0.0;0.0;0.039;0.0078;0.9594;7.86
00:00:07.870000;0;0.0;0.0;0.0;0.0507;0.0;1.014;7.87
00:00:07.880000;0;0.0;0.0;0.0;0.0585;0.0117;1.0023;7.880000000000001
00:00:07.890000;0;0.0;0.0;0.0;0.0507;0.0039;0.9399;7.890000000000001
00:00:07.900000;0;0.0;0.0;0.0;0.0819;0.0078;0.9243;7.9
00:00:07.910000;0;0.0;0.0;0.0;0.0234;0.0117;0.9945;7.91
00:00:07.920000;0;0.0;0.0;0.0;0.0507;0.0273;0.975;7.920000000000001
00:00:07.930000;0;0.0;0.0;0.0;0.0312;0.0312;0.9672;7.930000000000001
00:00:07.940000;0;0.0;0.0;0.0;0.0741;0.0117;0.9984;7.94
00:00:07.950000;0;0.0;0.0;0.0;0.0585;0.0312;0.9672;7.95
00:00:07.960000;0;0.0;0.0;0.0;0.0078;0.0468;0.9945;7.960000000000001
00:00:07.970000;0;0.0;0.0;0.0;0.0858;0.0039;1.0062;7.970000000000001
00:00:07.980000;0;0.0;0.0;0.0;0.0546;0.0507;0.9867;7.98
00:00:07.990000;0;0.0;0.0;0.0;0.0039;0.0078;0.9828;7.99
00:00:08;1;3.71332934470678;51.011240642965795;8.0;0.0429;-0.0039;0.9438;8.0
00:00:08.010000;0;0.0;0.0;0.0;0.0156;0.0195;0.9555;8.01
00:00:08.020000;0;0.0;0.0;0.0;0.0819;0.0156;1.0296;8.020000000000001
00:00:08.030000;0;0.0;0.0;0.0;0.0702;0.0156;1.0491;8.030000000000001
00:00:08.040000;0;0.0;0.0;0.0;0.0312;0.0312;0.9984;8.040000000000001
00:00:08.050000;0;0.0;0.0;0.0;0.0312;-0.0078;0.9594;8.05
00:00:08.060000;0;0.0;0.0;0.0;0.039;-0.0078;0.9828;8.06
00:00:08.070000;0;0.0;0.0;0.0;0.0273;0.0156;0.9399;8.07
00:00:08.080000;0;0.0;0.0;0.0;0.0468;0.0234;0.9477;8.08
00:00:08.090000;0;0.0;0.0;0.0;0.0234;0.0468;0.9594;8.09
00:00:08.100000;0;0.0;0.0;0.0;0.0351;-0.0039;1.0335;8.1
00:00:08.110000;0;0.0;0.0;0.0;0.0624;0.0234;0.9594;8.110000000000001
00:00:08.120000;0;0.0;0.0;0.0;-0.0039;0.0156;0.975;8.120000000000001
00:00:08.130000;0;0.0;0.0;0.0;0.0819;0.0156;1.0023;8.13
00:00:08.140000;0;0.0;0.0;0.0;0.0273;0.0078;0.9243;8.14
00:00:08.150000;0;0.0;0.0;0.0;0.0468;-0.0234;0.9516;8.15
00:00:08.160000;0;0.0;0.0;0.0;0.078;-0.0039;0.975;8.16
00:00:08.170000;0;0.0;0.0;0.0;0.0156;0.0;0.9594;8.17
00:00:08.180000;0;0.0;0.0;0.0;0.0624;0.0117;0.9906;8.18
00:00:08.190000;0;0.0;0.0;0.0;0.0507;0.0273;0.9126;8.190000000000001
00:00:08.200000;0;0.0;0.0;0.0;0.0546;0.0;0.8892;8.200000000000001
00:00:08.210000;0;0.0;0.0;0.0;0.0429;0.0234;0.9516;8.21
00:00:08.220000;0;0.0;0.0;0.0;0.0195;-0.0039;0.9009;8.22
00:00:08.230000;0;0.0;0.0;0.0;0.0507;0.039;0.8814;8.23
00:00:08.240000;0;0.0;0.0;0.0;0.0156;0.0039;0.897;8.24
00:00:08.250000;0;0.0;0.0;0.0;0.0546;0.0351;0.9555;8.25
00:00:08.260000;0;0.0;0.0;0.0;0.0351;0.0546;0.9594;8.26
00:00:08.270000;0;0.0;0.0;0.0;0.0078;0.0156;0.9789;8.270000000000001
00:00:08.280000;0;0.0;0.0;0.0;0.078;0.0156;0.9282;8.280000000000001
00:00:08.290000;0;0.0;0.0;0.0;0.0156;0.0429;0.9477;8.290000000000001
00:00:08.300000;0;0.0;0.0;0.0;0.0741;0.0195;0.9321;8.3
00:00:08.310000;0;0.0;0.0;0.0;0.0234;0.0156;0.8502;8.31
00:00:08.320000;0;0.0;0.0;0.0;-0.0156;-0.0039;0.8736;8.32
00:00:08.330000;0;0.0;0.0;0.0;0.0741;-0.0039;0.9633;8.33
00:00:08.340000;0;0.0;0.0;0.0;0.0234;0.0234;1.014;8.34
00:00:08.350000;0;0.0;0.0;0.0;0.0117;0.0234;0.9165;8.35
00:00:08.360000;0;0.0;0.0;0.0;0.0819;-0.0078;0.9399;8.360000000000001
00:00:08.370000;0;0.0;0.0;0.0;0.0351;0.0507;0.9399;8.370000000000001
00:00:08.380000;0;0.0;0.0;0.0;0.0;-0.0078;0.9126;8.38
00:00:08.390000;0;0.0;0.0;0.0;0.0897;-0.0273;0.9438;8.39
00:00:08.400000;0;0.0;0.0;0.0;0.0078;0.0078;0.9711;8.4
00:00:08.410000;0;0.0;0.0;0.0;0.0429;0.0195;0.9516;8.41
00:00:08.420000;0;0.0;0.0;0.0;0.0702;0.0078;0.9477;8.42
00:00:08.430000;0;0.0;0.0;0.0;0.0156;0.0234;0.9945;8.43
00:00:08.440000;0;0.0;0.0;0.0;0.0312;0.0507;0.9945;8.440000000000001
00:00:08.450000;0;0.0;0.0;0.0;0.039;0.0156;0.9945;8.450000000000001
00:00:08.460000;0;0.0;0.0;0.0;0.0195;0.0117;0.9711;8.46
00:00:08.470000;0;0.0;0.0;0.0;0.0273;0.0195;0.9243;8.47
00:00:08.480000;0;0.0;0.0;0.0;0.0351;0.0156;0.936;8.48
00:00:08.490000;0;0.0;0.0;0.0;0.0117;0.0039;0.9321;8.49
00:00:08.500000;0;0.0;0.0;0.0;0.0312;0.0156;0.9711;8.5
00:00:08.510000;0;0.0;0.0;0.0;0.0117;0.0273;0.9672;8.51
00:00:08.520000;0;0.0;0.0;0.0;0.0156;-0.0039;0.9477;8.520000000000001
00:00:08.530000;0;0.0;0.0;0.0;0.0156;0.0273;0.975;8.530000000000001
00:00:08.540000;0;0.0;0.0;0.0;0.0195;0.0039;0.9555;8.540000000000001
00:00:08.550000;0;0.0;0.0;0.0;0.0156;0.0156;0.9516;8.55
00:00:08.560000;0;0.0;0.0;0.0;-0.0234;0.0117;0.9282;8.56
00:00:08.570000;0;0.0;0.0;0.0;0.0312;-0.0039;0.9399;8.57
00:00:08.580000;0;0.0;0.0;0.0;0.0234;0.0156;0.9672;8.58
00:00:08.590000;0;0.0;0.0;0.0;-0.0429;0.0234;0.9672;8.59
00:00:08.600000;0;0.0;0.0;0.0;0.0195;0.0078;0.9438;8.600000000000001
00:00:08.610000;0;0.0;0.0;0.0;0.0195;0.0429;0.9945;8.610000000000001
00:00:08.620000;0;0.0;0.0;0.0;-0.0039;0.0156;0.9906;8.620000000000001
00:00:08.630000;0;0.0;0.0;0.0;0.0312;0.0;0.9048;8.63
00:00:08.640000;0;0.0;0.0;0.0;-0.0312;0.0273;0.9633;8.64
00:00:08.650000;0;0.0;0.0;0.0;-0.0039;0.0195;0.9711;8.65
00:00:08.660000;0;0.0;0.0;0.0;0.0078;0.0117;0.9282;8.66
00:00:08.670000;0;0.0;0.0;0.0;-0.0117;0.0195;0.9165;8.67
00:00:08.680000;0;0.0;0.0;0.0;0.0039;0.0039;0.9711;8.68
00:00:08.690000;0;0.0;0.0;0.0;0.0;0.0429;0.9711;8.690000000000001
00:00:08.700000;0;0.0;0.0;0.0;-0.0078;0.0351;0.9906;8.700000000000001
00:00:08.710000;0;0.0;0.0;0.0;0.0078;0.0078;0.9594;8.71
00:00:08.720000;0;0.0;0.0;0.0;0.0039;0.0117;0.9321;8.72
00:00:08.730000;0;0.0;0.0;0.0;0.0;0.039;0.9672;8.73
00:00:08.740000;0;0.0;0.0;0.0;-0.0078;0.0117;1.0257;8.74
00:00:08.750000;0;0.0;0.0;0.0;0.0;0.0234;0.9516;8.75
00:00:08.760000;0;0.0;0.0;0.0;-0.0117;0.039;0.9321;8.76
00:00:08.770000;0;0.0;0.0;0.0;-0.0078;0.0117;0.9906;8.770000000000001
00:00:08.780000;0;0.0;0.0;0.0;0.0117;0.0078;0.9243;8.780000000000001
00:00:08.790000;0;0.0;0.0;0.0;-0.0312;0.0156;0.897;8.790000000000001
00:00:08.800000;0;0.0;0.0;0.0;-0.0234;0.0234;0.9087;8.8
00:00:08.810000;0;0.0;0.0;0.0;0.0039;0.0039;0.897;8.81
00:00:08.820000;0;0.0;0.0;0.0;0.0;0.0117;0.9672;8.82
00:00:08.830000;0;0.0;0.0;0.0;-0.0468;0.0156;0.9477;8.83
00:00:08.840000;0;0.0;0.0;0.0;-0.0234;0.0039;0.9087;8.84
00:00:08.850000;0;0.0;0.0;0.0;-0.0078;0.0234;0.936;8.850000000000001
00:00:08.860000;0;0.0;0.0;0.0;-0.0195;0.0039;0.9633;8.860000000000001
00:00:08.870000;0;0.0;0.0;0.0;0.0039;0.0;0.9555;8.870000000000001
00:00:08.880000;0;0.0;0.0;0.0;-0.0156;-0.0039;0.9516;8.88
00:00:08.890000;0;0.0;0.0;0.0;-0.0078;-0.0039;0.9867;8.89
00:00:08.900000;0;0.0;0.0;0.0;0.0078;0.0;0.9399;8.9
00:00:08.910000;0;0.0;0.0;0.0;-0.0117;0.0312;0.9516;8.91
00:00:08.920000;0;0.0;0.0;0.0;-0.0117;0.0078;0.9672;8.92
00:00:08.930000;0;0.0;0.0;0.0;-0.0117;0.0156;0.9672;8.93
00:00:08.940000;0;0.0;0.0;0.0;-0.0039;0.0273;0.9438;8.940000000000001
00:00:08.950000;0;0.0;0.0;0.0;0.0;0.0273;0.9204;8.950000000000001
00:00:08.960000;0;0.0;0.0;0.0;-0.0195;0.0039;0.9048;8.96
00:00:08.970000;0;0.0;0.0;0.0;-0.0117;0.0273;0.9126;8.97
00:00:08.980000;0;0.0;0.0;0.0;-0.0234;0.0234;0.9438;8.98
00:00:08.990000;0;0.0;0.0;0.0;0.0;0.0273;0.9399;8.99
00:00:09;1;3.71332884684394;51.0115312623111;8.4;0.0078;0.039;0.9282;9.0
00:00:09.010000;0;0.0;0.0;0.0;-0.0273;0.0156;0.9126;9.01
00:00:09.020000;0;0.0;0.0;0.0;-0.0468;0.0078;0.8619;9.020000000000001
00:00:09.030000;0;0.0;0.0;0.0;0.0195;0.0039;0.8775;9.030000000000001
00:00:09.040000;0;0.0;0.0;0.0;0.0039;0.0585;0.9282;9.040000000000001
00:00:09.050000;0;0.0;0.0;0.0;-0.0273;0.0507;0.9282;9.05
00:00:09.060000;0;0.0;0.0;0.0;0.0078;0.0;0.9048;9.06
00:00:09.070000;0;0.0;0.0;0.0;-0.0273;0.0117;0.9282;9.07
00:00:09.080000;0;0.0;0.0;0.0;-0.0117;0.0468;0.9828;9.08
00:00:09.090000;0;0.0;0.0;0.0;0.0351;0.0234;0.9828;9.09
00:00:09.100000;0;0.0;0.0;0.0;-0.0234;0.0351;1.0296;9.100000000000001
00:00:09.110000;0;0.0;0.0;0.0;-0.0273;0.0195;1.0413;9.110000000000001
00:00:09.120000;0;0.0;0.0;0.0;0.0351;0.0117;1.0296;9.120000000000001
00:00:09.130000;0;0.0;0.0;0.0;0.0117;0.0195;1.0179;9.13
00:00:09.140000;0;0.0;0.0;0.0;-0.0312;0.0273;0.9594;9.14
00:00:09.150000;0;0.0;0.0;0.0;-0.0156;0.0078;0.897;9.15
00:00:09.160000;0;0.0;0.0;0.0;-0.0039;0.0429;1.0023;9.16
00:00:09.170000;0;0.0;0.0;0.0;-0.0039;0.0039;1.014;9.17
00:00:09.180000;0;0.0;0.0;0.0;0.0273;-0.0078;0.9672;9.18
00:00:09.190000;0;0.0;0.0;0.0;-0.0234;0.0429;0.9672;9.190000000000001
00:00:09.200000;0;0.0;0.0;0.0;-0.0273;-0.0312;0.9048;9.200000000000001
00:00:09.210000;0;0.0;0.0;0.0;0.0156;0.0078;0.9126;9.21
00:00:09.220000;0;0.0;0.0;0.0;-0.0468;-0.0156;0.9711;9.22
00:00:09.230000;0;0.0;0.0;0.0;0.0234;-0.0117;0.9789;9.23
00:00:09.240000;0;0.0;0.0;0.0;-0.0312;0.0;0.9672;9.24
00:00:09.250000;0;0.0;0.0;0.0;-0.0117;-0.0078;0.9906;9.25
00:00:09.260000;0;0.0;0.0;0.0;0.0039;0.0039;0.9789;9.26
00:00:09.270000;0;0.0;0.0;0.0;-0.039;0.0234;0.936;9.270000000000001
00:00:09.280000;0;0.0;0.0;0.0;0.0078;-0.0039;0.9477;9.280000000000001
00:00:09.290000;0;0.0;0.0;0.0;0.0039;0.0039;0.9633;9.290000000000001
00:00:09.300000;0;0.0;0.0;0.0;-0.0585;0.0312;0.9555;9.3
00:00:09.310000;0;0.0;0.0;0.0;-0.0078;-0.0039;0.9204;9.31
00:00:09.320000;0;0.0;0.0;0.0;0.0039;0.0468;0.9321;9.32
00:00:09.330000;0;0.0;0.0;0.0;-0.0585;0.0195;0.9672;9.33
00:00:09.340000;0;0.0;0.0;0.0;0.0078;0.0039;0.9594;9.34
00:00:09.350000;0;0.0;0.0;0.0;0.0039;0.0507;0.9672;9.350000000000001
00:00:09.360000;0;0.0;0.0;0.0;-0.0312;0.0312;0.9048;9.360000000000001
00:00:09.370000;0;0.0;0.0;0.0;0.0;0.0351;0.8931;9.370000000000001
00:00:09.380000;0;0.0;0.0;0.0;-0.039;0.0468;0.9984;9.38
00:00:09.390000;0;0.0;0.0;0.0;0.0;0.0195;0.936;9.39
00:00:09.400000;0;0.0;0.0;0.0;-0.0117;0.0234;0.9594;9.4
00:00:09.410000;0;0.0;0.0;0.0;-0.0117;0.0546;0.9243;9.41
00:00:09.420000;0;0.0;0.0;0.0;-0.039;0.0156;0.8931;9.42
00:00:09.430000;0;0.0;0.0;0.0;0.0078;0.0585;0.9048;9.43
00:00:09.440000;0;0.0;0.0;0.0;-0.0156;0.0468;0.9399;9.440000000000001
00:00:09.450000;0;0.0;0.0;0.0;-0.0156;0.0195;0.9516;9.450000000000001
00:00:09.460000;0;0.0;0.0;0.0;-0.0273;0.0312;0.9477;9.46
00:00:09.470000;0;0.0;0.0;0.0;-0.0078;0.0195;0.9321;9.47
00:00:09.480000;0;0.0;0.0;0.0;-0.0273;0.0429;0.9438;9.48
00:00:09.490000;0;0.0;0.0;0.0;-0.0078;-0.0039;0.9204;9.49
00:00:09.500000;0;0.0;0.0;0.0;0.0351;0.0234;0.9828;9.5
00:00:09.510000;0;0.0;0.0;0.0;-0.0741;0.0078;0.9399;9.51
00:00:09.520000;0;0.0;0.0;0.0;-0.0312;0.0429;0.9438;9.520000000000001
00:00:09.530000;0;0.0;0.0;0.0;0.0156;-0.0234;0.975;9.530000000000001
00:00:09.540000;0;0.0;0.0;0.0;0.0078;0.0312;0.9984;9.540000000000001
00:00:09.550000;0;0.0;0.0;0.0;-0.0624;-0.0234;0.9594;9.55
00:00:09.560000;0;0.0;0.0;0.0;0.0039;0.0;1.0491;9.56
00:00:09.570000;0;0.0;0.0;0.0;-0.0234;0.0234;0.9867;9.57
00:00:09.580000;0;0.0;0.0;0.0;-0.0195;-0.0039;0.9945;9.58
00:00:09.590000;0;0.0;0.0;0.0;0.0273;0.0156;0.936;9.59
00:00:09.600000;0;0.0;0.0;0.0;-0.0234;0.0078;0.975;9.600000000000001
00:00:09.610000;0;0.0;0.0;0.0;-0.0156;0.0195;0.9555;9.610000000000001
00:00:09.620000;0;0.0;0.0;0.0;-0.0351;0.0195;0.9594;9.620000000000001
00:00:09.630000;0;0.0;0.0;0.0;0.0078;0.0195;0.9516;9.63
00:00:09.640000;0;0.0;0.0;0.0;0.0039;0.0429;0.9126;9.64
00:00:09.650000;0;0.0;0.0;0.0;-0.0468;0.0195;0.9555;9.65
00:00:09.660000;0;0.0;0.0;0.0;-0.0195;0.0507;0.9906;9.66
00:00:09.670000;0;0.0;0.0;0.0;-0.0078;0.0273;0.9321;9.67
00:00:09.680000;0;0.0;0.0;0.0;-0.0117;0.0195;0.9282;9.68
00:00:09.690000;0;0.0;0.0;0.0;-0.0234;0.0312;0.9048;9.690000000000001
00:00:09.700000;0;0.0;0.0;0.0;-0.039;0.0663;0.9945;9.700000000000001
00:00:09.710000;0;0.0;0.0;0.0;0.0117;0.039;0.9633;9.71
00:00:09.720000;0;0.0;0.0;0.0;-0.0156;-0.0039;0.9711;9.72
00:00:09.730000;0;0.0;0.0;0.0;-0.0117;0.0078;0.9087;9.73
00:00:09.740000;0;0.0;0.0;0.0;-0.0234;0.0;0.9321;9.74
00:00:09.750000;0;0.0;0.0;0.0;0.0039;0.0468;0.9243;9.75
00:00:09.760000;0;0.0;0.0;0.0;-0.0195;0.0117;0.9009;9.76
00:00:09.770000;0;0.0;0.0;0.0;-0.0195;0.0156;0.8775;9.770000000000001
00:00:09.780000;0;0.0;0.0;0.0;-0.0312;0.0156;1.0101;9.780000000000001
00:00:09.790000;0;0.0;0.0;0.0;-0.0078;0.0195;1.0218;9.790000000000001
00:00:09.800000;0;0.0;0.0;0.0;-0.0234;0.0663;0.9945;9.8
00:00:09.810000;0;0.0;0.0;0.0;-0.0039;0.0234;0.9633;9.81
00:00:09.820000;0;0.0;0.0;0.0;0.0312;-0.0351;0.936;9.82
00:00:09.830000;0;0.0;0.0;0.0;-0.0546;0.0273;0.9867;9.83
00:00:09.840000;0;0.0;0.0;0.0;-0.0234;0.0039;0.9594;9.84
00:00:09.850000;0;0.0;0.0;0.0;0.0039;0.0156;0.9321;9.850000000000001
00:00:09.860000;0;0.0;0.0;0.0;0.0039;0.0234;0.9126;9.860000000000001
00:00:09.870000;0;0.0;0.0;0.0;0.0039;0.0234;0.9243;9.870000000000001
00:00:09.880000;0;0.0;0.0;0.0;-0.0312;0.0117;0.9867;9.88
00:00:09.890000;0;0.0;0.0;0.0;-0.0117;0.0468;0.9711;9.89
00:00:09.900000;0;0.0;0.0;0.0;-0.0039;0.0312;1.0296;9.9
00:00:09.910000;0;0.0;0.0;0.0;-0.0117;0.0195;0.9633;9.91
00:00:09.920000;0;0.0;0.0;0.0;-0.0117;0.0078;0.9282;9.92
00:00:09.930000;0;0.0;0.0;0.0;0.0039;0.0156;0.975;9.930000000000001
00:00:09.940000;0;0.0;0.0;0.0;-0.0234;0.0117;1.0179;9.940000000000001
00:00:09.950000;0;0.0;0.0;0.0;-0.0312;0.0195;0.9516;9.950000000000001
00:00:09.960000;0;0.0;0.0;0.0;-0.0234;0.0039;0.9477;9.96
00:00:09.970000;0;0.0;0.0;0.0;0.0312;0.0039;0.9516;9.97
00:00:09.980000;0;0.0;0.0;0.0;-0.0195;0.0468;0.9243;9.98
00:00:09.990000;0;0.0;0.0;0.0;-0.039;-0.0234;0.9009;9.99
00:00:10;1;3.71332884684394;51.0115312623111;8.6;-0.0312;-0.0039;0.8892;10.0
00:00:10.010000;0;0.0;0.0;0.0;-0.0546;0.0195;1.0413;10.01
00:00:10.020000;0;0.0;0.0;0.0;0.0663;0.039;0.9477;10.020000000000001
00:00:10.030000;0;0.0;0.0;0.0;-0.0429;-0.0195;0.8931;10.030000000000001
00:00:10.040000;0;0.0;0.0;0.0;-0.0195;0.0429;0.897;10.040000000000001
00:00:10.050000;0;0.0;0.0;0.0;-0.0117;-0.0312;0.9594;10.05
00:00:10.060000;0;0.0;0.0;0.0;0.0234;0.0117;0.9672;10.06
00:00:10.070000;0;0.0;0.0;0.0;-0.039;0.0;0.9594;10.07
00:00:10.080000;0;0.0;0.0;0.0;0.0156;-0.0039;0.9828;10.08
00:00:10.090000;0;0.0;0.0;0.0;0.0;0.0273;0.9204;10.09
00:00:10.100000;0;0.0;0.0;0.0;-0.0468;0.0234;1.0062;10.100000000000001
00:00:10.110000;0;0.0;0.0;0.0;0.0195;0.0195;0.897;10.110000000000001
00:00:10.120000;0;0.0;0.0;0.0;-0.0195;0.039;1.0335;10.120000000000001
00:00:10.130000;0;0.0;0.0;0.0;-0.0078;0.0429;1.0257;10.13
00:00:10.140000;0;0.0;0.0;0.0;-0.039;0.0078;0.936;10.14
00:00:10.150000;0;0.0;0.0;0.0;0.0195;0.0156;0.9867;10.15
00:00:10.160000;0;0.0;0.0;0.0;-0.0156;0.0585;0.9594;10.16
00:00:10.170000;0;0.0;0.0;0.0;-0.0156;0.0039;0.9867;10.17
00:00:10.180000;0;0.0;0.0;0.0;0.0;0.0195;0.8853;10.180000000000001
00:00:10.190000;0;0.0;0.0;0.0;-0.0351;-0.0312;0.9711;10.190000000000001
00:00:10.200000;0;0.0;0.0;0.0;0.0195;0.0507;0.9321;10.200000000000001
00:00:10.210000;0;0.0;0.0;0.0;-0.0117;0.0234;0.8853;10.21
00:00:10.220000;0;0.0;0.0;0.0;-0.0312;0.0039;0.9399;10.22
00:00:10.230000;0;0.0;0.0;0.0;-0.0234;0.0;0.9672;10.23
00:00:10.240000;0;0.0;0.0;0.0;0.0;0.039;0.9321;10.24
00:00:10.250000;0;0.0;0.0;0.0;-0.0195;0.0156;0.9126;10.25
00:00:10.260000;0;0.0;0.0;0.0;-0.0234;-0.0234;0.8853;10.26
00:00:10.270000;0;0.0;0.0;0.0;-0.0078;0.0195;0.9906;10.270000000000001
00:00:10.280000;0;0.0;0.0;0.0;0.0;0.0234;1.014;10.280000000000001
00:00:10.290000;0;0.0;0.0;0.0;0.0;-0.0273;0.9087;10.290000000000001
00:00:10.300000;0;0.0;0.0;0.0;-0.0039;0.0117;0.8853;10.3
00:00:10.310000;0;0.0;0.0;0.0;-0.0585;0.0156;0.9672;10.31
00:00:10.320000;0;0.0;0.0;0.0;0.0273;0.0156;0.9711;10.32
00:00:10.330000;0;0.0;0.0;0.0;-0.0429;0.0078;0.8736;10.33
00:00:10.340000;0;0.0;0.0;0.0;-0.0156;-0.0039;0.9594;10.34
00:00:10.350000;0;0.0;0.0;0.0;0.0039;0.0;0.9789;10.350000000000001
00:00:10.360000;0;0.0;0.0;0.0;-0.0078;0.0273;0.9789;10.360000000000001
00:00:10.370000;0;0.0;0.0;0.0;-0.0039;0.039;0.9516;10.370000000000001
00:00:10.380000;0;0.0;0.0;0.0;-0.0351;0.0078;0.9165;10.38
00:00:10.390000;0;0.0;0.0;0.0;-0.0117;0.0117;0.8931;10.39
00:00:10.400000;0;0.0;0.0;0.0;-0.0078;0.0195;0.9789;10.4
00:00:10.410000;0;0.0;0.0;0.0;-0.0234;0.0;0.9828;10.41
00:00:10.420000;0;0.0;0.0;0.0;0.0117;0.0234;0.9165;10.42
00:00:10.430000;0;0.0;0.0;0.0;-0.0585;0.0546;0.9633;10.430000000000001
00:00:10.440000;0;0.0;0.0;0.0;0.0039;0.0234;0.936;10.440000000000001
00:00:10.450000;0;0.0;0.0;0.0;-0.0156;0.0078;0.8697;10.450000000000001
00:00:10.460000;0;0.0;0.0;0.0;-0.0429;0.0156;0.9048;10.46
00:00:10.470000;0;0.0;0.0;0.0;0.0078;0.039;0.9126;10.47
00:00:10.480000;0;0.0;0.0;0.0;-0.0468;0.0117;0.8892;10.48
00:00:10.490000;0;0.0;0.0;0.0;-0.0234;0.0078;0.9126;10.49
00:00:10.500000;0;0.0;0.0;0.0;-0.0312;0.039;0.9594;10.5
00:00:10.510000;0;0.0;0.0;0.0;-0.0117;0.0234;0.9282;10.51
00:00:10.520000;0;0.0;0.0;0.0;0.0;-0.0156;0.9321;10.520000000000001
00:00:10.530000;0;0.0;0.0;0.0;-0.0156;0.0156;0.9477;10.530000000000001
00:00:10.540000;0;0.0;0.0;0.0;-0.0468;0.0195;0.9477;10.540000000000001
00:00:10.550000;0;0.0;0.0;0.0;0.0234;0.0117;0.9789;10.55
00:00:10.560000;0;0.0;0.0;0.0;0.0;0.0117;1.0062;10.56
00:00:10.570000;0;0.0;0.0;0.0;-0.0117;0.0351;0.9828;10.57
00:00:10.580000;0;0.0;0.0;0.0;0.0117;0.0195;0.9945;10.58
00:00:10.590000;0;0.0;0.0;0.0;-0.0195;-0.0039;0.9711;10.59
00:00:10.600000;0;0.0;0.0;0.0;-0.0234;0.0234;0.9321;10.600000000000001
00:00:10.610000;0;0.0;0.0;0.0;0.0;0.0078;0.9906;10.610000000000001
00:00:10.620000;0;0.0;0.0;0.0;0.0;0.039;0.9828;10.620000000000001
00:00:10.630000;0;0.0;0.0;0.0;-0.0234;0.0273;0.9672;10.63
00:00:10.640000;0;0.0;0.0;0.0;0.0078;0.0039;0.9594;10.64
00:00:10.650000;0;0.0;0.0;0.0;0.0078;0.0117;0.9711;10.65
00:00:10.660000;0;0.0;0.0;0.0;-0.0078;0.0117;0.9633;10.66
00:00:10.670000;0;0.0;0.0;0.0;-0.0039;0.0117;0.9711;10.67
00:00:10.680000;0;0.0;0.0;0.0;-0.0156;0.039;0.9555;10.680000000000001
00:00:10.690000;0;0.0;0.0;0.0;-0.0234;0.0273;0.9672;10.690000000000001
00:00:10.700000;0;0.0;0.0;0.0;0.0078;-0.0117;0.9477;10.700000000000001
00:00:10.710000;0;0.0;0.0;0.0;-0.0351;0.0351;0.9867;10.71
00:00:10.720000;0;0.0;0.0;0.0;-0.0117;0.0195;1.0374;10.72
00:00:10.730000;0;0.0;0.0;0.0;0.1755;0.0195;0.936;10.73
00:00:10.740000;0;0.0;0.0;0.0;-0.0936;-0.0819;0.8307;10.74
00:00:10.750000;0;0.0;0.0;0.0;-0.3822;0.1521;0.9516;10.75
00:00:10.760000;0;0.0;0.0;0.0;-0.0234;-0.1443;0.9516;10.76
00:00:10.770000;0;0.0;0.0;0.0;0.0858;0.0702;0.8385;10.770000000000001
00:00:10.780000;0;0.0;0.0;0.0;-0.0936;0.0078;0.8775;10.780000000000001
00:00:10.790000;0;0.0;0.0;0.0;0.1287;-0.0624;1.0452;10.790000000000001
00:00:10.800000;0;0.0;0.0;0.0;-0.0273;0.0819;1.1115;10.8
00:00:10.810000;0;0.0;0.0;0.0;-0.117;0.0429;1.0335;10.81
00:00:10.820000;0;0.0;0.0;0.0;-0.0312;0.0156;0.897;10.82
00:00:10.830000;0;0.0;0.0;0.0;0.0039;-0.0429;0.9048;10.83
00:00:10.840000;0;0.0;0.0;0.0;-0.0195;0.0039;0.8463;10.84
00:00:10.850000;0;0.0;0.0;0.0;-0.1521;0.039;0.8658;10.850000000000001
00:00:10.860000;0;0.0;0.0;0.0;-0.0819;0.0156;0.9594;10.860000000000001
00:00:10.870000;0;0.0;0.0;0.0;0.0429;0.0;0.9828;10.870000000000001
00:00:10.880000;0;0.0;0.0;0.0;0.0351;0.0117;0.9945;10.88
00:00:10.890000;0;0.0;0.0;0.0;0.0039;0.0117;0.9672;10.89
00:00:10.900000;0;0.0;0.0;0.0;-0.0117;0.0273;0.9633;10.9
00:00:10.910000;0;0.0;0.0;0.0;-0.0273;-0.0078;0.897;10.91
00:00:10.920000;0;0.0;0.0;0.0;-0.0156;0.0039;0.8736;10.92
00:00:10.930000;0;0.0;0.0;0.0;-0.0507;-0.0156;0.8931;10.930000000000001
00:00:10.940000;0;0.0;0.0;0.0;-0.0234;-0.0039;0.9399;10.940000000000001
00:00:10.950000;0;0.0;0.0;0.0;-0.0546;0.0273;0.9594;10.950000000000001
00:00:10.960000;0;0.0;0.0;0.0;-0.0663;0.0156;0.9594;10.96
00:00:10.970000;0;0.0;0.0;0.0;0.0468;0.0273;0.9594;10.97
00:00:10.980000;0;0.0;0.0;0.0;0.0;-0.0117;0.9438;10.98
00:00:10.990000;0;0.0;0.0;0.0;-0.0039;0.0351;0.8814;10.99
00:00:11;1;3.7133286605814;51.011675429512394;8.6;-0.0156;0.0078;0.9009;11.0
00:00:11.010000;0;0.0;0.0;0.0;0.0;0.0312;0.9321;11.010000000000002
00:00:11.020000;0;0.0;0.0;0.0;-0.0234;0.0312;0.936;11.020000000000001
00:00:11.030000;0;0.0;0.0;0.0;0.0273;0.0078;0.7254;11.030000000000001
00:00:11.040000;0;0.0;0.0;0.0;-0.0312;-0.0273;0.6942;11.040000000000001
00:00:11.050000;0;0.0;0.0;0.0;-0.0429;0.0234;1.2324;11.05
00:00:11.060000;0;0.0;0.0;0.0;-0.156;0.1209;1.287;11.06
00:00:11.070000;0;0.0;0.0;0.0;-0.156;0.1209;1.3923;11.07
00:00:11.080000;0;0.0;0.0;0.0;0.0819;-0.0273;1.4274;11.08
00:00:11.090000;0;0.0;0.0;0.0;0.117;0.0663;1.4118;11.09
00:00:11.100000;0;0.0;0.0;0.0;0.0585;0.0;1.0335;11.100000000000001
00:00:11.110000;0;0.0;0.0;0.0;-0.0858;-0.0039;0.9711;11.110000000000001
00:00:11.120000;0;0.0;0.0;0.0;-0.1053;0.1209;1.1232;11.120000000000001
00:00:11.130000;0;0.0;0.0;0.0;-0.0351;0.0078;1.0842;11.13
00:00:11.140000;0;0.0;0.0;0.0;0.0234;0.0702;1.2207;11.14
00:00:11.150000;0;0.0;0.0;0.0;-0.0663;0.0039;1.0491;11.15
00:00:11.160000;0;0.0;0.0;0.0;0.0195;0.0156;1.1193;11.16
00:00:11.170000;0;0.0;0.0;0.0;-0.0351;0.0117;0.9555;11.17
00:00:11.180000;0;0.0;0.0;0.0;-0.0468;0.0039;0.9438;11.180000000000001
00:00:11.190000;0;0.0;0.0;0.0;-0.0078;0.0;0.897;11.190000000000001
00:00:11.200000;0;0.0;0.0;0.0;-0.0351;0.0507;0.9789;11.200000000000001
00:00:11.210000;0;0.0;0.0;0.0;-0.0234;0.0156;0.9399;11.21
00:00:11.220000;0;0.0;0.0;0.0;-0.0234;-0.0117;0.9165;11.22
00:00:11.230000;0;0.0;0.0;0.0;-0.0039;0.0117;0.9204;11.23
00:00:11.240000;0;0.0;0.0;0.0;-0.039;0.0039;0.9243;11.24
00:00:11.250000;0;0.0;0.0;0.0;-0.0351;0.0117;0.897;11.25
00:00:11.260000;0;0.0;0.0;0.0;-0.0468;0.0312;0.9087;11.260000000000002
00:00:11.270000;0;0.0;0.0;0.0;-0.0273;0.0117;0.858;11.270000000000001
00:00:11.280000;0;0.0;0.0;0.0;-0.0195;0.0156;0.8502;11.280000000000001
00:00:11.290000;0;0.0;0.0;0.0;-0.0585;0.0156;0.8502;11.290000000000001
00:00:11.300000;0;0.0;0.0;0.0;-0.0195;0.0351;0.8697;11.3
00:00:11.310000;0;0.0;0.0;0.0;-0.0507;0.0468;0.8658;11.31
00:00:11.320000;0;0.0;0.0;0.0;-0.039;0.0312;0.8463;11.32
00:00:11.330000;0;0.0;0.0;0.0;-0.0468;0.0234;0.7995;11.33
00:00:11.340000;0;0.0;0.0;0.0;-0.0429;0.0507;0.7917;11.34
00:00:11.350000;0;0.0;0.0;0.0;-0.0624;0.0273;0.78;11.350000000000001
00:00:11.360000;0;0.0;0.0;0.0;-0.0351;0.0741;0.8346;11.360000000000001
00:00:11.370000;0;0.0;0.0;0.0;-0.0585;0.0546;0.9087;11.370000000000001
00:00:11.380000;0;0.0;0.0;0.0;-0.078;0.0585;0.897;11.38
00:00:11.390000;0;0.0;0.0;0.0;-0.0546;0.0702;0.9087;11.39
00:00:11.400000;0;0.0;0.0;0.0;-0.0663;0.0624;0.9087;11.4
00:00:11.410000;0;0.0;0.0;0.0;-0.0312;0.0585;0.9282;11.41
00:00:11.420000;0;0.0;0.0;0.0;-0.0546;0.0546;0.9087;11.42
00:00:11.430000;0;0.0;0.0;0.0;-0.0585;0.0585;0.9672;11.430000000000001
00:00:11.440000;0;0.0;0.0;0.0;-0.0897;0.0195;0.9204;11.440000000000001
00:00:11.450000;0;0.0;0.0;0.0;-0.0585;0.0546;0.9165;11.450000000000001
00:00:11.460000;0;0.0;0.0;0.0;-0.0546;0.0234;0.8814;11.46
00:00:11.470000;0;0.0;0.0;0.0;-0.0741;0.039;0.8814;11.47
00:00:11.480000;0;0.0;0.0;0.0;-0.1014;0.0351;0.8502;11.48
00:00:11.490000;0;0.0;0.0;0.0;-0.0624;0.0078;0.9048;11.49
00:00:11.500000;0;0.0;0.0;0.0;-0.0663;0.0429;0.9243;11.5
00:00:11.510000;0;0.0;0.0;0.0;-0.117;0.0234;0.9399;11.510000000000002
00:00:11.520000;0;0.0;0.0;0.0;-0.0234;0.0078;0.9672;11.520000000000001
00:00:11.530000;0;0.0;0.0;0.0;-0.0741;0.0;0.9438;11.530000000000001
00:00:11.540000;0;0.0;0.0;0.0;-0.0858;0.0078;0.9126;11.540000000000001
00:00:11.550000;0;0.0;0.0;0.0;-0.0234;-0.0117;0.9477;11.55
00:00:11.560000;0;0.0;0.0;0.0;-0.0624;0.0234;0.9555;11.56
00:00:11.570000;0;0.0;0.0;0.0;-0.0858;-0.0156;0.9126;11.57
00:00:11.580000;0;0.0;0.0;0.0;-0.0546;0.0;0.9048;11.58
00:00:11.590000;0;0.0;0.0;0.0;-0.0741;0.0234;0.9165;11.59
00:00:11.600000;0;0.0;0.0;0.0;-0.0429;0.0156;0.9399;11.600000000000001
00:00:11.610000;0;0.0;0.0;0.0;-0.0702;0.0351;0.8814;11.610000000000001
00:00:11.620000;0;0.0;0.0;0.0;-0.1131;0.0156;0.9087;11.620000000000001
00:00:11.630000;0;0.0;0.0;0.0;-0.039;0.0039;0.8931;11.63
00:00:11.640000;0;0.0;0.0;0.0;-0.0819;0.0234;0.9633;11.64
00:00:11.650000;0;0.0;0.0;0.0;-0.0546;0.0273;0.936;11.65
00:00:11.660000;0;0.0;0.0;0.0;-0.0741;0.0429;0.9672;11.66
00:00:11.670000;0;0.0;0.0;0.0;-0.0312;0.039;0.9711;11.67
00:00:11.680000;0;0.0;0.0;0.0;-0.0624;0.039;0.9438;11.680000000000001
00:00:11.690000;0;0.0;0.0;0.0;-0.1014;0.0156;0.9243;11.690000000000001
00:00:11.700000;0;0.0;0.0;0.0;-0.0156;0.0039;0.9906;11.700000000000001
00:00:11.710000;0;0.0;0.0;0.0;-0.0546;0.0546;1.0062;11.71
00:00:11.720000;0;0.0;0.0;0.0;-0.0546;0.039;0.9984;11.72
00:00:11.730000;0;0.0;0.0;0.0;-0.0507;0.039;0.9906;11.73
00:00:11.740000;0;0.0;0.0;0.0;-0.0663;0.0351;0.9906;11.74
00:00:11.750000;0;0.0;0.0;0.0;-0.0507;0.0468;1.053;11.75
00:00:11.760000;0;0.0;0.0;0.0;-0.0546;0.0156;1.0062;11.760000000000002
00:00:11.770000;0;0.0;0.0;0.0;-0.0429;0.0312;1.0725;11.770000000000001
00:00:11.780000;0;0.0;0.0;0.0;-0.0546;0.0195;1.0413;11.780000000000001
00:00:11.790000;0;0.0;0.0;0.0;-0.0234;0.0;1.0725;11.790000000000001
00:00:11.800000;0;0.0;0.0;0.0;-0.0312;0.0117;1.0257;11.8
00:00:11.810000;0;0.0;0.0;0.0;-0.0975;0.0234;0.975;11.81
00:00:11.820000;0;0.0;0.0;0.0;-0.0585;-0.0156;0.9789;11.82
00:00:11.830000;0;0.0;0.0;0.0;-0.0273;0.0468;1.0023;11.83
00:00:11.840000;0;0.0;0.0;0.0;-0.0507;0.0234;1.0023;11.84
00:00:11.850000;0;0.0;0.0;0.0;-0.039;0.0;0.9672;11.850000000000001
00:00:11.860000;0;0.0;0.0;0.0;-0.078;0.0039;0.9477;11.860000000000001
00:00:11.870000;0;0.0;0.0;0.0;-0.0546;0.0351;0.9594;11.870000000000001
00:00:11.880000;0;0.0;0.0;0.0;-0.039;-0.0039;0.9438;11.88
00:00:11.890000;0;0.0;0.0;0.0;-0.0702;0.0195;0.9243;11.89
00:00:11.900000;0;0.0;0.0;0.0;-0.0507;0.0039;0.9087;11.9
00:00:11.910000;0;0.0;0.0;0.0;-0.039;-0.0078;0.9009;11.91
00:00:11.920000;0;0.0;0.0;0.0;-0.0624;0.0117;0.8775;11.92
00:00:11.930000;0;0.0;0.0;0.0;-0.0663;0.0312;0.9048;11.930000000000001
00:00:11.940000;0;0.0;0.0;0.0;-0.0663;0.0078;0.9126;11.940000000000001
00:00:11.950000;0;0.0;0.0;0.0;-0.0546;0.0195;0.897;11.950000000000001
00:00:11.960000;0;0.0;0.0;0.0;-0.0468;-0.0039;0.9243;11.96
00:00:11.970000;0;0.0;0.0;0.0;-0.0507;0.0078;0.9048;11.97
00:00:11.980000;0;0.0;0.0;0.0;-0.0507;0.0;0.9048;11.98
00:00:11.990000;0;0.0;0.0;0.0;-0.0468;0.0234;0.9165;11.99
00:00:12;1;3.71332847431887;51.011819596713714;8.4;-0.0585;0.0039;0.9048;12.0
00:00:12.010000;0;0.0;0.0;0.0;-0.0624;0.039;0.9282;12.010000000000002
00:00:12.020000;0;0.0;0.0;0.0;-0.0585;0.0039;0.9165;12.020000000000001
00:00:12.030000;0;0.0;0.0;0.0;-0.0429;0.0273;0.9243;12.030000000000001
00:00:12.040000;0;0.0;0.0;0.0;-0.0741;0.0234;0.9321;12.040000000000001
00:00:12.050000;0;0.0;0.0;0.0;-0.0546;0.0273;0.936;12.05
00:00:12.060000;0;0.0;0.0;0.0;-0.0702;0.0468;0.975;12.06
00:00:12.070000;0;0.0;0.0;0.0;-0.0429;0.0273;0.936;12.07
00:00:12.080000;0;0.0;0.0;0.0;-0.039;0.039;0.9126;12.08
00:00:12.090000;0;0.0;0.0;0.0;-0.0663;0.039;0.9282;12.090000000000002
00:00:12.100000;0;0.0;0.0;0.0;-0.0429;0.0234;0.9594;12.100000000000001
00:00:12.110000;0;0.0;0.0;0.0;-0.0624;0.0585;0.9633;12.110000000000001
00:00:12.120000;0;0.0;0.0;0.0;-0.0741;0.0507;0.9711;12.120000000000001
00:00:12.130000;0;0.0;0.0;0.0;-0.0312;0.0234;1.0101;12.13
00:00:12.140000;0;0.0;0.0;0.0;-0.0429;0.0819;1.0101;12.14
00:00:12.150000;0;0.0;0.0;0.0;-0.0741;0.0234;1.014;12.15
00:00:12.160000;0;0.0;0.0;0.0;-0.0078;0.0351;1.0062;12.16
00:00:12.170000;0;0.0;0.0;0.0;-0.1014;0.039;0.9672;12.17
00:00:12.180000;0;0.0;0.0;0.0;-0.0351;0.0234;1.0296;12.180000000000001
00:00:12.190000;0;0.0;0.0;0.0;-0.0117;0.0195;0.975;12.190000000000001
00:00:12.200000;0;0.0;0.0;0.0;-0.0702;0.039;0.9789;12.200000000000001
00:00:12.210000;0;0.0;0.0;0.0;-0.0156;0.0468;1.0218;12.21
00:00:12.220000;0;0.0;0.0;0.0;-0.0507;0.0234;1.0608;12.22
00:00:12.230000;0;0.0;0.0;0.0;-0.0585;0.039;1.0062;12.23
00:00:12.240000;0;0.0;0.0;0.0;-0.0546;0.0117;0.9867;12.24
00:00:12.250000;0;0.0;0.0;0.0;-0.0273;0.0273;0.9984;12.25
00:00:12.260000;0;0.0;0.0;0.0;-0.0624;0.0351;0.9984;12.260000000000002
00:00:12.270000;0;0.0;0.0;0.0;-0.0507;0.0312;0.9945;12.270000000000001
00:00:12.280000;0;0.0;0.0;0.0;-0.0546;-0.0039;0.9594;12.280000000000001
00:00:12.290000;0;0.0;0.0;0.0;-0.0507;0.0156;0.9594;12.290000000000001
00:00:12.300000;0;0.0;0.0;0.0;-0.039;0.0156;0.9594;12.3
00:00:12.310000;0;0.0;0.0;0.0;-0.039;0.0195;0.9555;12.31
00:00:12.320000;0;0.0;0.0;0.0;-0.0819;0.0195;0.9048;12.32
00:00:12.330000;0;0.0;0.0;0.0;-0.0585;0.0195;0.9048;12.33
00:00:12.340000;0;0.0;0.0;0.0;-0.0351;0.0;0.9399;12.340000000000002
00:00:12.350000;0;0.0;0.0;0.0;-0.0741;0.0234;0.9555;12.350000000000001
00:00:12.360000;0;0.0;0.0;0.0;-0.0585;0.0312;0.9594;12.360000000000001
00:00:12.370000;0;0.0;0.0;0.0;-0.0507;0.0117;0.9594;12.370000000000001
00:00:12.380000;0;0.0;0.0;0.0;-0.039;0.0273;0.9516;12.38
00:00:12.390000;0;0.0;0.0;0.0;-0.0663;0.0195;0.936;12.39
00:00:12.400000;0;0.0;0.0;0.0;-0.0195;0.0;0.9243;12.4
00:00:12.410000;0;0.0;0.0;0.0;-0.0663;0.0429;0.9009;12.41
00:00:12.420000;0;0.0;0.0;0.0;-0.0663;0.0156;0.9048;12.42
00:00:12.430000;0;0.0;0.0;0.0;-0.0156;0.0195;0.8892;12.430000000000001
00:00:12.440000;0;0.0;0.0;0.0;-0.0663;0.0078;0.9009;12.440000000000001
00:00:12.450000;0;0.0;0.0;0.0;-0.0312;0.0273;0.9048;12.450000000000001
00:00:12.460000;0;0.0;0.0;0.0;-0.0546;0.0273;0.9516;12.46
00:00:12.470000;0;0.0;0.0;0.0;-0.0624;0.0351;0.9555;12.47
00:00:12.480000;0;0.0;0.0;0.0;-0.0507;0.0273;0.9516;12.48
00:00:12.490000;0;0.0;0.0;0.0;-0.0468;0.0234;0.9711;12.49
00:00:12.500000;0;0.0;0.0;0.0;-0.0546;0.0117;0.9789;12.5
00:00:12.510000;0;0.0;0.0;0.0;-0.0468;0.0351;0.9789;12.510000000000002
00:00:12.520000;0;0.0;0.0;0.0;-0.0546;0.0273;0.9672;12.520000000000001
00:00:12.530000;0;0.0;0.0;0.0;-0.039;0.0195;0.9672;12.530000000000001
00:00:12.540000;0;0.0;0.0;0.0;-0.0468;0.0312;0.9399;12.540000000000001
00:00:12.550000;0;0.0;0.0;0.0;-0.0546;0.0078;0.9516;12.55
00:00:12.560000;0;0.0;0.0;0.0;-0.0585;0.0507;0.975;12.56
00:00:12.570000;0;0.0;0.0;0.0;-0.0663;0.0273;0.9399;12.57
00:00:12.580000;0;0.0;0.0;0.0;-0.0468;0.0156;0.9594;12.58
00:00:12.590000;0;0.0;0.0;0.0;-0.0624;0.0117;0.9555;12.590000000000002
00:00:12.600000;0;0.0;0.0;0.0;-0.0351;0.0117;0.9867;12.600000000000001
00:00:12.610000;0;0.0;0.0;0.0;-0.0546;0.0195;0.9789;12.610000000000001
00:00:12.620000;0;0.0;0.0;0.0;-0.0429;0.039;1.0023;12.620000000000001
00:00:12.630000;0;0.0;0.0;0.0;-0.0507;0.0195;0.9867;12.63
00:00:12.640000;0;0.0;0.0;0.0;-0.0351;0.0039;0.9828;12.64
00:00:12.650000;0;0.0;0.0;0.0;-0.0546;0.0117;0.9789;12.65
00:00:12.660000;0;0.0;0.0;0.0;-0.0546;0.0234;0.9867;12.66
00:00:12.670000;0;0.0;0.0;0.0;-0.0273;0.0195;0.975;12.67
00:00:12.680000;0;0.0;0.0;0.0;-0.0546;0.0195;0.9906;12.680000000000001
00:00:12.690000;0;0.0;0.0;0.0;-0.0429;0.0117;0.9672;12.690000000000001
00:00:12.700000;0;0.0;0.0;0.0;-0.0468;0.0234;0.9399;12.700000000000001
00:00:12.710000;0;0.0;0.0;0.0;-0.0468;0.0156;0.9399;12.71
00:00:12.720000;0;0.0;0.0;0.0;-0.0507;0.039;0.9126;12.72
00:00:12.730000;0;0.0;0.0;0.0;-0.0702;0.0234;0.9243;12.73
00:00:12.740000;0;0.0;0.0;0.0;-0.0429;0.0351;0.9204;12.74
00:00:12.750000;0;0.0;0.0;0.0;-0.078;0.0156;0.9165;12.75
00:00:12.760000;0;0.0;0.0;0.0;-0.0429;0.0117;0.9204;12.760000000000002
00:00:12.770000;0;0.0;0.0;0.0;-0.0507;0.0195;0.9282;12.770000000000001
00:00:12.780000;0;0.0;0.0;0.0;-0.0663;0.0429;0.936;12.780000000000001
00:00:12.790000;0;0.0;0.0;0.0;-0.0507;0.0039;0.9087;12.790000000000001
00:00:12.800000;0;0.0;0.0;0.0;-0.0702;0.0273;0.9282;12.8
00:00:12.810000;0;0.0;0.0;0.0;-0.0624;0.0156;0.9243;12.81
00:00:12.820000;0;0.0;0.0;0.0;-0.0351;0.0156;0.9477;12.82
00:00:12.830000;0;0.0;0.0;0.0;-0.0858;0.0351;0.9555;12.83
00:00:12.840000;0;0.0;0.0;0.0;-0.0702;0.0195;0.9477;12.840000000000002
00:00:12.850000;0;0.0;0.0;0.0;-0.039;0.0156;0.9438;12.850000000000001
00:00:12.860000;0;0.0;0.0;0.0;-0.0546;0.0195;0.9867;12.860000000000001
00:00:12.870000;0;0.0;0.0;0.0;-0.0429;0.0117;0.9399;12.870000000000001
00:00:12.880000;0;0.0;0.0;0.0;-0.0507;0.0117;0.9399;12.88
00:00:12.890000;0;0.0;0.0;0.0;-0.0702;0.0117;0.9282;12.89
00:00:12.900000;0;0.0;0.0;0.0;-0.078;0.0273;0.9243;12.9
00:00:12.910000;0;0.0;0.0;0.0;-0.0273;0.0039;0.9087;12.91
00:00:12.920000;0;0.0;0.0;0.0;-0.0468;0.0039;0.8736;12.92
00:00:12.930000;0;0.0;0.0;0.0;-0.0663;0.0117;0.8814;12.930000000000001
00:00:12.940000;0;0.0;0.0;0.0;-0.039;0.0039;0.8853;12.940000000000001
00:00:12.950000;0;0.0;0.0;0.0;-0.0624;0.0156;0.8931;12.950000000000001
00:00:12.960000;0;0.0;0.0;0.0;-0.0702;0.0078;0.9165;12.96
00:00:12.970000;0;0.0;0.0;0.0;-0.039;0.0156;0.9555;12.97
00:00:12.980000;0;0.0;0.0;0.0;-0.0546;0.0156;0.9867;12.98
00:00:12.990000;0;0.0;0.0;0.0;-0.0429;0.0039;0.9516;12.99
00:00:13;1;3.71332847431887;51.011819596713714;8.2;-0.0624;0.0312;0.9828;13.0
00:00:13.010000;0;0.0;0.0;0.0;-0.0663;0.0273;0.9945;13.010000000000002
00:00:13.020000;0;0.0;0.0;0.0;-0.0468;0.0156;1.0218;13.020000000000001
00:00:13.030000;0;0.0;0.0;0.0;-0.0351;0.0234;0.9906;13.030000000000001
00:00:13.040000;0;0.0;0.0;0.0;-0.078;0.0312;0.9633;13.040000000000001
00:00:13.050000;0;0.0;0.0;0.0;-0.039;0.0351;0.9633;13.05
00:00:13.060000;0;0.0;0.0;0.0;-0.0819;0.0273;0.9087;13.06
00:00:13.070000;0;0.0;0.0;0.0;-0.078;0.0312;0.9438;13.07
00:00:13.080000;0;0.0;0.0;0.0;-0.0585;0.0546;0.9711;13.08
00:00:13.090000;0;0.0;0.0;0.0;-0.0429;0.0312;0.975;13.090000000000002
00:00:13.100000;0;0.0;0.0;0.0;-0.0507;0.0351;0.975;13.100000000000001
00:00:13.110000;0;0.0;0.0;0.0;-0.0819;0.0429;0.9438;13.110000000000001
00:00:13.120000;0;0.0;0.0;0.0;-0.0546;0.0156;0.9555;13.120000000000001
00:00:13.130000;0;0.0;0.0;0.0;-0.0312;0.0312;0.9516;13.13
00:00:13.140000;0;0.0;0.0;0.0;-0.0312;0.0117;0.936;13.14
00:00:13.150000;0;0.0;0.0;0.0;-0.0507;0.0312;0.9672;13.15
00:00:13.160000;0;0.0;0.0;0.0;-0.0546;0.0156;0.9906;13.16
00:00:13.170000;0;0.0;0.0;0.0;-0.0507;0.0195;0.975;13.170000000000002
00:00:13.180000;0;0.0;0.0;0.0;-0.0429;0.0312;0.9945;13.180000000000001
00:00:13.190000;0;0.0;0.0;0.0;-0.0156;0.0117;1.0101;13.190000000000001
00:00:13.200000;0;0.0;0.0;0.0;-0.0507;0.0351;0.9711;13.200000000000001
00:00:13.210000;0;0.0;0.0;0.0;-0.0663;0.0273;0.9672;13.21
00:00:13.220000;0;0.0;0.0;0.0;-0.0312;0.0156;0.9906;13.22
00:00:13.230000;0;0.0;0.0;0.0;-0.0507;0.0117;0.9633;13.23
00:00:13.240000;0;0.0;0.0;0.0;-0.0507;0.0234;0.9633;13.24
00:00:13.250000;0;0.0;0.0;0.0;-0.078;0.0156;0.9594;13.25
00:00:13.260000;0;0.0;0.0;0.0;-0.0429;0.0117;0.9477;13.260000000000002
00:00:13.270000;0;0.0;0.0;0.0;-0.0234;0.0;0.936;13.270000000000001
00:00:13.280000;0;0.0;0.0;0.0;-0.0273;-0.0156;0.9399;13.280000000000001
00:00:13.290000;0;0.0;0.0;0.0;-0.0663;0.0351;0.9555;13.290000000000001
00:00:13.300000;0;0.0;0.0;0.0;-0.0858;0.0117;0.936;13.3
00:00:13.310000;0;0.0;0.0;0.0;-0.0195;-0.0039;0.9438;13.31
00:00:13.320000;0;0.0;0.0;0.0;-0.0507;0.0156;0.9516;13.32
00:00:13.330000;0;0.0;0.0;0.0;-0.0507;0.0078;0.975;13.33
00:00:13.340000;0;0.0;0.0;0.0;-0.0546;0.0429;0.9984;13.340000000000002
00:00:13.350000;0;0.0;0.0;0.0;-0.0702;0.0234;1.0296;13.350000000000001
00:00:13.360000;0;0.0;0.0;0.0;-0.0429;0.0234;0.9867;13.360000000000001
00:00:13.370000;0;0.0;0.0;0.0;-0.0351;0.0195;0.975;13.370000000000001
00:00:13.380000;0;0.0;0.0;0.0;-0.0468;0.0078;0.9438;13.38
00:00:13.390000;0;0.0;0.0;0.0;-0.0546;0.0195;0.9789;13.39
00:00:13.400000;0;0.0;0.0;0.0;-0.0585;0.0507;0.9789;13.4
00:00:13.410000;0;0.0;0.0;0.0;-0.0585;0.0273;0.9633;13.41
00:00:13.420000;0;0.0;0.0;0.0;-0.0234;0.039;0.975;13.420000000000002
00:00:13.430000;0;0.0;0.0;0.0;-0.0741;0.039;0.9711;13.430000000000001
00:00:13.440000;0;0.0;0.0;0.0;-0.0468;0.0468;0.9789;13.440000000000001
00:00:13.450000;0;0.0;0.0;0.0;-0.0819;0.0429;0.9243;13.450000000000001
00:00:13.460000;0;0.0;0.0;0.0;-0.0351;0.0468;0.9477;13.46
00:00:13.470000;0;0.0;0.0;0.0;-0.0507;0.0429;0.9477;13.47
00:00:13.480000;0;0.0;0.0;0.0;-0.078;0.0234;0.9243;13.48
00:00:13.490000;0;0.0;0.0;0.0;-0.0507;0.0312;0.9321;13.49
00:00:13.500000;0;0.0;0.0;0.0;-0.0663;0.0195;0.9399;13.5
00:00:13.510000;0;0.0;0.0;0.0;-0.0546;0.039;0.9243;13.510000000000002
00:00:13.520000;0;0.0;0.0;0.0;-0.0546;0.0117;0.9126;13.520000000000001
00:00:13.530000;0;0.0;0.0;0.0;-0.0468;0.0078;0.897;13.530000000000001
00:00:13.540000;0;0.0;0.0;0.0;-0.0741;0.0117;0.8658;13.540000000000001
00:00:13.550000;0;0.0;0.0;0.0;-0.0741;0.0156;0.8775;13.55
00:00:13.560000;0;0.0;0.0;0.0;-0.0507;0.0156;0.897;13.56
00:00:13.570000;0;0.0;0.0;0.0;-0.078;0.0234;0.9789;13.57
00:00:13.580000;0;0.0;0.0;0.0;-0.0585;0.0234;0.9555;13.58
00:00:13.590000;0;0.0;0.0;0.0;-0.0546;0.0;0.9438;13.590000000000002
00:00:13.600000;0;0.0;0.0;0.0;-0.0351;0.0312;0.9243;13.600000000000001
00:00:13.610000;0;0.0;0.0;0.0;-0.0741;0.0;0.9204;13.610000000000001
00:00:13.620000;0;0.0;0.0;0.0;-0.0273;0.0195;0.9087;13.620000000000001
00:00:13.630000;0;0.0;0.0;0.0;-0.1014;0.0;0.8853;13.63
00:00:13.640000;0;0.0;0.0;0.0;-0.0702;0.0156;0.9282;13.64
00:00:13.650000;0;0.0;0.0;0.0;-0.0507;0.039;0.9321;13.65
00:00:13.660000;0;0.0;0.0;0.0;-0.0234;-0.0078;0.9321;13.66
00:00:13.670000;0;0.0;0.0;0.0;-0.0156;0.0117;0.936;13.670000000000002
00:00:13.680000;0;0.0;0.0;0.0;-0.0975;0.0039;0.9711;13.680000000000001
00:00:13.690000;0;0.0;0.0;0.0;-0.0624;0.039;0.975;13.690000000000001
00:00:13.700000;0;0.0;0.0;0.0;-0.0351;0.0078;0.9828;13.700000000000001
00:00:13.710000;0;0.0;0.0;0.0;-0.0273;0.0234;0.9711;13.71
00:00:13.720000;0;0.0;0.0;0.0;-0.0624;0.039;0.9711;13.72
00:00:13.730000;0;0.0;0.0;0.0;-0.0585;0.0156;0.9906;13.73
00:00:13.740000;0;0.0;0.0;0.0;-0.0468;0.0429;0.9906;13.74
00:00:13.750000;0;0.0;0.0;0.0;-0.0624;0.0273;0.9828;13.75
00:00:13.760000;0;0.0;0.0;0.0;-0.0156;0.0117;0.9711;13.760000000000002
00:00:13.770000;0;0.0;0.0;0.0;-0.0624;0.0273;0.9789;13.770000000000001
00:00:13.780000;0;0.0;0.0;0.0;-0.0663;0.0234;0.9672;13.780000000000001
00:00:13.790000;0;0.0;0.0;0.0;-0.0585;0.0312;0.9282;13.790000000000001
00:00:13.800000;0;0.0;0.0;0.0;-0.0663;0.0156;0.9477;13.8
00:00:13.810000;0;0.0;0.0;0.0;-0.0195;0.0312;0.9555;13.81
00:00:13.820000;0;0.0;0.0;0.0;-0.078;0.0039;0.9672;13.82
00:00:13.830000;0;0.0;0.0;0.0;-0.0507;0.0195;0.9789;13.83
00:00:13.840000;0;0.0;0.0;0.0;-0.0429;0.0195;0.9945;13.840000000000002
00:00:13.850000;0;0.0;0.0;0.0;-0.039;0.0273;0.9906;13.850000000000001
00:00:13.860000;0;0.0;0.0;0.0;-0.0546;0.0039;0.9711;13.860000000000001
00:00:13.870000;0;0.0;0.0;0.0;-0.0429;0.0078;0.9711;13.870000000000001
00:00:13.880000;0;0.0;0.0;0.0;-0.0234;0.0117;1.0062;13.88
00:00:13.890000;0;0.0;0.0;0.0;-0.0507;0.039;1.0179;13.89
00:00:13.900000;0;0.0;0.0;0.0;-0.0468;0.0234;1.0218;13.9
00:00:13.910000;0;0.0;0.0;0.0;-0.039;0.0234;1.0179;13.91
00:00:13.920000;0;0.0;0.0;0.0;-0.039;0.0117;0.9828;13.920000000000002
00:00:13.930000;0;0.0;0.0;0.0;-0.0273;0.0429;0.9711;13.930000000000001
00:00:13.940000;0;0.0;0.0;0.0;-0.078;0.0234;0.9048;13.940000000000001
00:00:13.950000;0;0.0;0.0;0.0;-0.0741;0.0585;0.9204;13.950000000000001
00:00:13.960000;0;0.0;0.0;0.0;-0.0702;0.0117;0.9672;13.96
00:00:13.970000;0;0.0;0.0;0.0;-0.0195;0.039;1.0413;13.97
00:00:13.980000;0;0.0;0.0;0.0;-0.0741;0.0507;1.0257;13.98
00:00:13.990000;0;0.0;0.0;0.0;-0.0234;0.0;0.9984;13.99
