;gps;lonto;latto;gpsspeed;ax;ay;az
00:00:00;1;3.7120294655568;51.0129040333533;7.6;0.0039;0.0234;1.0491
00:00:00.010000;0;0.0;0.0;0.0;0.0039;0.0195;0.9555
00:00:00.020000;0;0.0;0.0;0.0;-0.0546;0.0507;0.9633
00:00:00.030000;0;0.0;0.0;0.0;-0.0273;0.039;1.0257
00:00:00.040000;0;0.0;0.0;0.0;-0.0312;0.0468;0.9867
00:00:00.050000;0;0.0;0.0;0.0;-0.0195;0.0351;0.9828
00:00:00.060000;0;0.0;0.0;0.0;-0.0039;0.0468;0.9867
00:00:00.070000;0;0.0;0.0;0.0;-0.0312;0.0312;0.9555
00:00:00.080000;0;0.0;0.0;0.0;-0.0078;0.0351;0.9126
00:00:00.090000;0;0.0;0.0;0.0;-0.0429;0.0273;0.9087
00:00:00.100000;0;0.0;0.0;0.0;-0.0039;0.0156;0.9438
00:00:00.110000;0;0.0;0.0;0.0;-0.0078;0.0468;0.9633
00:00:00.120000;0;0.0;0.0;0.0;-0.0468;0.0429;0.936
00:00:00.130000;0;0.0;0.0;0.0;-0.0039;0.0312;0.9399
00:00:00.140000;0;0.0;0.0;0.0;-0.0468;0.0546;0.9555
00:00:00.150000;0;0.0;0.0;0.0;-0.0078;0.0507;1.0101
00:00:00.160000;0;0.0;0.0;0.0;-0.0078;0.0468;0.9984
00:00:00.170000;0;0.0;0.0;0.0;-0.0429;0.0585;0.9945
00:00:00.180000;0;0.0;0.0;0.0;-0.0117;0.0468;0.9594
00:00:00.190000;0;0.0;0.0;0.0;-0.0273;0.0429;0.9711
00:00:00.200000;0;0.0;0.0;0.0;-0.0078;0.0429;0.9204
00:00:00.210000;0;0.0;0.0;0.0;-0.0273;0.0546;0.975
00:00:00.220000;0;0.0;0.0;0.0;-0.0195;0.0429;0.936
00:00:00.230000;0;0.0;0.0;0.0;-0.0078;0.0585;0.9282
00:00:00.240000;0;0.0;0.0;0.0;-0.0156;0.0546;0.9087
00:00:00.250000;0;0.0;0.0;0.0;-0.0312;0.0468;0.8892
00:00:00.260000;0;0.0;0.0;0.0;-0.0156;0.0429;0.8814
00:00:00.270000;0;0.0;0.0;0.0;-0.0663;0.0351;0.8619
00:00:00.280000;0;0.0;0.0;0.0;-0.0234;0.0312;0.9165
00:00:00.290000;0;0.0;0.0;0.0;-0.0156;0.0429;0.9477
00:00:00.300000;0;0.0;0.0;0.0;-0.0429;0.0312;0.9438
00:00:00.310000;0;0.0;0.0;0.0;-0.0156;0.0117;0.9399
00:00:00.320000;0;0.0;0.0;0.0;-0.0156;0.0351;0.9906
00:00:00.330000;0;0.0;0.0;0.0;-0.0273;0.0039;0.9711
00:00:00.340000;0;0.0;0.0;0.0;-0.0078;0.0351;0.975
00:00:00.350000;0;0.0;0.0;0.0;-0.039;0.0195;0.9945
00:00:00.360000;0;0.0;0.0;0.0;-0.0195;0.0312;0.9789
00:00:00.370000;0;0.0;0.0;0.0;-0.0273;0.039;1.0062
00:00:00.380000;0;0.0;0.0;0.0;-0.0234;0.0156;0.975
00:00:00.390000;0;0.0;0.0;0.0;0.0;0.0156;0.9594
00:00:00.400000;0;0.0;0.0;0.0;-0.0507;0.0468;0.9555
00:00:00.410000;0;0.0;0.0;0.0;-0.0312;0.0117;0.9438
00:00:00.420000;0;0.0;0.0;0.0;-0.0117;0.0507;0.9048
00:00:00.430000;0;0.0;0.0;0.0;-0.0195;0.0234;0.8853
00:00:00.440000;0;0.0;0.0;0.0;-0.0117;0.0;0.8697
00:00:00.450000;0;0.0;0.0;0.0;-0.0429;0.0234;0.8931
00:00:00.460000;0;0.0;0.0;0.0;-0.0273;0.0117;0.9048
00:00:00.470000;0;0.0;0.0;0.0;0.0039;0.0156;0.9243
00:00:00.480000;0;0.0;0.0;0.0;-0.0624;0.0351;0.9243
00:00:00.490000;0;0.0;0.0;0.0;-0.0078;0.0117;0.9555
00:00:00.500000;0;0.0;0.0;0.0;-0.0078;0.0468;0.975
00:00:00.510000;0;0.0;0.0;0.0;-0.0702;0.0546;0.9672
00:00:00.520000;0;0.0;0.0;0.0;0.0117;0.0351;0.9594
00:00:00.530000;0;0.0;0.0;0.0;-0.0351;0.0702;0.9633
00:00:00.540000;0;0.0;0.0;0.0;-0.0429;0.0585;0.9906
00:00:00.550000;0;0.0;0.0;0.0;0.0;0.0585;1.014
00:00:00.560000;0;0.0;0.0;0.0;-0.039;0.078;0.9789
00:00:00.570000;0;0.0;0.0;0.0;-0.0273;0.0468;0.9126
00:00:00.580000;0;0.0;0.0;0.0;-0.0078;0.0507;0.9321
00:00:00.590000;0;0.0;0.0;0.0;-0.0273;0.0702;0.9243
00:00:00.600000;0;0.0;0.0;0.0;-0.0312;0.0312;0.9321
00:00:00.610000;0;0.0;0.0;0.0;-0.039;0.0663;0.9633
00:00:00.620000;0;0.0;0.0;0.0;-0.0468;0.039;0.9594
00:00:00.630000;0;0.0;0.0;0.0;-0.0039;0.0156;0.9867
00:00:00.640000;0;0.0;0.0;0.0;-0.0273;0.0195;0.9828
00:00:00.650000;0;0.0;0.0;0.0;-0.0078;0.0234;1.014
00:00:00.660000;0;0.0;0.0;0.0;-0.0195;0.0312;0.9984
00:00:00.670000;0;0.0;0.0;0.0;-0.0546;0.0156;1.0179
00:00:00.680000;0;0.0;0.0;0.0;0.0156;0.0234;1.0257
00:00:00.690000;0;0.0;0.0;0.0;-0.0234;0.0195;1.0569
00:00:00.700000;0;0.0;0.0;0.0;-0.0507;0.0312;1.0296
00:00:00.710000;0;0.0;0.0;0.0;-0.0312;0.0351;1.0218
00:00:00.720000;0;0.0;0.0;0.0;0.0156;0.0039;1.0023
00:00:00.730000;0;0.0;0.0;0.0;0.0078;0.0;0.9789
00:00:00.740000;0;0.0;0.0;0.0;-0.0351;0.0312;0.9399
00:00:00.750000;0;0.0;0.0;0.0;-0.0546;0.0351;0.9516
00:00:00.760000;0;0.0;0.0;0.0;-0.0156;0.0351;0.9789
00:00:00.770000;0;0.0;0.0;0.0;-0.0078;0.0117;0.9165
00:00:00.780000;0;0.0;0.0;0.0;-0.0039;-0.0039;0.9087
00:00:00.790000;0;0.0;0.0;0.0;-0.0078;0.0;0.9243
00:00:00.800000;0;0.0;0.0;0.0;-0.0546;0.0273;0.975
00:00:00.810000;0;0.0;0.0;0.0;-0.0273;0.0585;0.9828
00:00:00.820000;0;0.0;0.0;0.0;-0.0273;0.0273;0.9867
00:00:00.830000;0;0.0;0.0;0.0;-0.0468;0.0273;0.9711
00:00:00.840000;0;0.0;0.0;0.0;-0.0234;0.0;0.9594
00:00:00.850000;0;0.0;0.0;0.0;0.0117;0.0078;0.9945
00:00:00.860000;0;0.0;0.0;0.0;-0.0156;0.0195;0.9867
00:00:00.870000;0;0.0;0.0;0.0;-0.0156;0.0234;0.9555
00:00:00.880000;0;0.0;0.0;0.0;-0.0351;0.0507;0.9672
00:00:00.890000;0;0.0;0.0;0.0;-0.0312;0.0195;0.9399
00:00:00.900000;0;0.0;0.0;0.0;0.0117;0.0078;0.9009
00:00:00.910000;0;0.0;0.0;0.0;-0.0273;0.0078;0.8814
00:00:00.920000;0;0.0;0.0;0.0;-0.0507;0.0351;0.8697
00:00:00.930000;0;0.0;0.0;0.0;-0.0351;0.0273;0.8502
00:00:00.940000;0;0.0;0.0;0.0;-0.0156;0.0078;0.9009
00:00:00.950000;0;0.0;0.0;0.0;-0.0078;0.0156;0.9087
00:00:00.960000;0;0.0;0.0;0.0;-0.0351;0.0078;0.936
00:00:00.970000;0;0.0;0.0;0.0;-0.0195;-0.0039;0.9438
00:00:00.980000;0;0.0;0.0;0.0;-0.039;-0.0078;0.9984
00:00:00.990000;0;0.0;0.0;0.0;0.0;-0.0039;0.9789
00:00:01;1;3.7120294655568;51.0129040333533;7.6;0.0117;-0.0234;0.9204
00:00:01.010000;0;0.0;0.0;0.0;-0.0429;-0.0195;0.936
00:00:01.020000;0;0.0;0.0;0.0;-0.0273;0.0039;0.9399
00:00:01.030000;0;0.0;0.0;0.0;-0.0156;0.0234;0.9438
00:00:01.040000;0;0.0;0.0;0.0;-0.0039;0.0039;0.9672
00:00:01.050000;0;0.0;0.0;0.0;-0.0351;0.0351;0.936
00:00:01.060000;0;0.0;0.0;0.0;-0.0546;0.0234;0.9204
00:00:01.070000;0;0.0;0.0;0.0;0.0039;0.0117;0.8892
00:00:01.080000;0;0.0;0.0;0.0;-0.0273;0.0156;0.8463
00:00:01.090000;0;0.0;0.0;0.0;-0.0195;0.0468;0.8424
00:00:01.100000;0;0.0;0.0;0.0;-0.0546;0.0546;0.9009
00:00:01.110000;0;0.0;0.0;0.0;-0.0624;0.0468;0.9243
00:00:01.120000;0;0.0;0.0;0.0;-0.0078;0.0234;0.9321
00:00:01.130000;0;0.0;0.0;0.0;0.0;-0.0039;0.9009
00:00:01.140000;0;0.0;0.0;0.0;-0.0156;0.0156;0.8814
00:00:01.150000;0;0.0;0.0;0.0;-0.039;0.0234;0.936
00:00:01.160000;0;0.0;0.0;0.0;-0.0312;0.0234;0.9945
00:00:01.170000;0;0.0;0.0;0.0;-0.0429;0.0546;1.0296
00:00:01.180000;0;0.0;0.0;0.0;-0.0351;0.0507;1.0881
00:00:01.190000;0;0.0;0.0;0.0;-0.0195;0.0468;1.0881
00:00:01.200000;0;0.0;0.0;0.0;-0.0156;0.0234;1.0647
00:00:01.210000;0;0.0;0.0;0.0;-0.0078;0.0195;0.9867
00:00:01.220000;0;0.0;0.0;0.0;-0.0546;0.0663;1.0062
00:00:01.230000;0;0.0;0.0;0.0;-0.0273;0.0234;0.9867
00:00:01.240000;0;0.0;0.0;0.0;-0.0117;0.0117;0.9087
00:00:01.250000;0;0.0;0.0;0.0;-0.0507;0.0429;0.8814
00:00:01.260000;0;0.0;0.0;0.0;-0.0078;0.0117;0.9516
00:00:01.270000;0;0.0;0.0;0.0;-0.0078;0.0507;0.9321
00:00:01.280000;0;0.0;0.0;0.0;-0.0741;0.0078;0.9243
00:00:01.290000;0;0.0;0.0;0.0;-0.0078;0.0234;0.9594
00:00:01.300000;0;0.0;0.0;0.0;-0.0351;0.0039;0.936
00:00:01.310000;0;0.0;0.0;0.0;0.0;-0.0156;0.9204
00:00:01.320000;0;0.0;0.0;0.0;-0.0195;-0.0078;0.897
00:00:01.330000;0;0.0;0.0;0.0;-0.0351;0.0195;0.9555
00:00:01.340000;0;0.0;0.0;0.0;0.0;0.0039;0.9867
00:00:01.350000;0;0.0;0.0;0.0;-0.0117;0.0039;0.9555
00:00:01.360000;0;0.0;0.0;0.0;-0.0234;0.0156;0.9672
00:00:01.370000;0;0.0;0.0;0.0;-0.0273;-0.0039;0.975
00:00:01.380000;0;0.0;0.0;0.0;-0.0117;0.0234;0.9945
00:00:01.390000;0;0.0;0.0;0.0;-0.0312;0.0156;0.975
00:00:01.400000;0;0.0;0.0;0.0;-0.0117;-0.0078;0.9672
00:00:01.410000;0;0.0;0.0;0.0;0.0039;0.0039;0.9867
00:00:01.420000;0;0.0;0.0;0.0;-0.0234;-0.0078;0.9282
00:00:01.430000;0;0.0;0.0;0.0;-0.0078;0.0156;0.9204
00:00:01.440000;0;0.0;0.0;0.0;-0.0156;0.0078;0.9516
00:00:01.450000;0;0.0;0.0;0.0;-0.0234;0.0351;0.9672
00:00:01.460000;0;0.0;0.0;0.0;-0.039;0.0273;0.9594
00:00:01.470000;0;0.0;0.0;0.0;-0.0351;0.0156;0.9633
00:00:01.480000;0;0.0;0.0;0.0;-0.0117;0.0195;1.0023
00:00:01.490000;0;0.0;0.0;0.0;-0.0078;0.0234;0.975
00:00:01.500000;0;0.0;0.0;0.0;-0.0507;0.0351;0.9867
00:00:01.510000;0;0.0;0.0;0.0;-0.0156;0.0585;0.9867
00:00:01.520000;0;0.0;0.0;0.0;-0.0351;0.0273;0.9711
00:00:01.530000;0;0.0;0.0;0.0;-0.0351;0.0351;0.9672
00:00:01.540000;0;0.0;0.0;0.0;-0.0351;0.0312;0.9555
00:00:01.550000;0;0.0;0.0;0.0;-0.0351;0.0507;0.9672
00:00:01.560000;0;0.0;0.0;0.0;-0.0234;0.0702;0.9711
00:00:01.570000;0;0.0;0.0;0.0;-0.0234;0.039;0.9828
00:00:01.580000;0;0.0;0.0;0.0;-0.0351;0.0234;0.9438
00:00:01.590000;0;0.0;0.0;0.0;-0.0312;0.039;0.9984
00:00:01.600000;0;0.0;0.0;0.0;-0.0273;0.0312;1.0218
00:00:01.610000;0;0.0;0.0;0.0;-0.0351;0.0429;1.0296
00:00:01.620000;0;0.0;0.0;0.0;0.0078;0.0429;1.0374
00:00:01.630000;0;0.0;0.0;0.0;-0.0078;0.0117;1.0218
00:00:01.640000;0;0.0;0.0;0.0;-0.0156;0.0156;0.9672
00:00:01.650000;0;0.0;0.0;0.0;-0.039;0.0156;0.9633
00:00:01.660000;0;0.0;0.0;0.0;-0.0234;0.0195;0.9711
00:00:01.670000;0;0.0;0.0;0.0;-0.0039;0.0039;0.9438
00:00:01.680000;0;0.0;0.0;0.0;-0.0039;0.0195;0.9594
00:00:01.690000;0;0.0;0.0;0.0;-0.0195;0.0;0.9555
00:00:01.700000;0;0.0;0.0;0.0;-0.0078;-0.0039;0.9555
00:00:01.710000;0;0.0;0.0;0.0;-0.0195;0.0273;0.8892
00:00:01.720000;0;0.0;0.0;0.0;-0.0468;0.0351;0.9633
00:00:01.730000;0;0.0;0.0;0.0;-0.0195;0.0156;0.8814
00:00:01.740000;0;0.0;0.0;0.0;-0.0195;0.0117;0.9048
00:00:01.750000;0;0.0;0.0;0.0;-0.0039;0.0273;0.9048
00:00:01.760000;0;0.0;0.0;0.0;-0.039;-0.0039;0.9048
00:00:01.770000;0;0.0;0.0;0.0;-0.0234;0.039;0.9087
00:00:01.780000;0;0.0;0.0;0.0;-0.0546;0.0351;0.8931
00:00:01.790000;0;0.0;0.0;0.0;-0.0078;0.0;0.9009
00:00:01.800000;0;0.0;0.0;0.0;-0.0273;0.0429;0.8736
00:00:01.810000;0;0.0;0.0;0.0;-0.0507;0.0078;0.9321
00:00:01.820000;0;0.0;0.0;0.0;-0.0078;0.0468;0.9126
00:00:01.830000;0;0.0;0.0;0.0;-0.0312;0.0195;0.9438
00:00:01.840000;0;0.0;0.0;0.0;0.0039;0.0117;0.9984
00:00:01.850000;0;0.0;0.0;0.0;-0.0273;0.0234;0.975
00:00:01.860000;0;0.0;0.0;0.0;-0.0234;0.0117;0.9789
00:00:01.870000;0;0.0;0.0;0.0;-0.0273;0.039;1.0296
00:00:01.880000;0;0.0;0.0;0.0;-0.0195;0.0273;0.9906
00:00:01.890000;0;0.0;0.0;0.0;-0.0234;0.0429;0.9477
00:00:01.900000;0;0.0;0.0;0.0;-0.0546;0.0351;1.0101
00:00:01.910000;0;0.0;0.0;0.0;0.0;0.0312;1.0062
00:00:01.920000;0;0.0;0.0;0.0;-0.0273;0.0156;0.9594
00:00:01.930000;0;0.0;0.0;0.0;-0.039;0.039;0.9399
00:00:01.940000;0;0.0;0.0;0.0;-0.0117;0.0156;0.9945
00:00:01.950000;0;0.0;0.0;0.0;-0.0507;0.0468;0.9438
00:00:01.960000;0;0.0;0.0;0.0;-0.0312;0.0429;0.9594
00:00:01.970000;0;0.0;0.0;0.0;-0.0078;0.0156;0.9165
00:00:01.980000;0;0.0;0.0;0.0;-0.0468;0.039;0.9282
00:00:01.990000;0;0.0;0.0;0.0;-0.0234;0.0156;0.9204
00:00:02;1;3.7120294655568;51.0129040333533;7.6;-0.0273;0.0234;0.9516
00:00:02.010000;0;0.0;0.0;0.0;-0.0312;0.0156;0.9516
00:00:02.020000;0;0.0;0.0;0.0;-0.0078;0.0078;0.9672
00:00:02.030000;0;0.0;0.0;0.0;-0.0195;0.0156;0.9438
00:00:02.040000;0;0.0;0.0;0.0;-0.0468;0.039;0.9399
00:00:02.050000;0;0.0;0.0;0.0;-0.0156;0.0273;0.9711
00:00:02.060000;0;0.0;0.0;0.0;0.0078;0.0195;0.9438
00:00:02.070000;0;0.0;0.0;0.0;-0.039;0.0312;0.936
00:00:02.080000;0;0.0;0.0;0.0;-0.0273;0.0156;0.9009
00:00:02.090000;0;0.0;0.0;0.0;-0.0195;0.0039;0.9126
00:00:02.100000;0;0.0;0.0;0.0;-0.0156;0.0429;0.9165
00:00:02.110000;0;0.0;0.0;0.0;-0.0039;0.0156;0.8697
00:00:02.120000;0;0.0;0.0;0.0;0.0;0.0273;0.9516
00:00:02.130000;0;0.0;0.0;0.0;-0.0741;0.0234;0.9516
00:00:02.140000;0;0.0;0.0;0.0;-0.0234;0.0351;0.9984
00:00:02.150000;0;0.0;0.0;0.0;-0.0039;0.0312;0.9945
00:00:02.160000;0;0.0;0.0;0.0;-0.0117;0.0039;0.9867
00:00:02.170000;0;0.0;0.0;0.0;-0.0234;0.0273;0.9867
00:00:02.180000;0;0.0;0.0;0.0;-0.0585;0.0273;0.9984
00:00:02.190000;0;0.0;0.0;0.0;0.0078;0.039;1.014
00:00:02.200000;0;0.0;0.0;0.0;-0.0078;0.0156;0.9594
00:00:02.210000;0;0.0;0.0;0.0;-0.0429;0.0429;0.9477
00:00:02.220000;0;0.0;0.0;0.0;-0.0195;0.0468;0.9945
00:00:02.230000;0;0.0;0.0;0.0;-0.0234;0.0585;1.0101
00:00:02.240000;0;0.0;0.0;0.0;-0.0351;0.0546;0.9165
00:00:02.250000;0;0.0;0.0;0.0;-0.0117;0.0312;0.9399
00:00:02.260000;0;0.0;0.0;0.0;-0.0351;0.0351;0.9477
00:00:02.270000;0;0.0;0.0;0.0;-0.0624;0.039;0.9438
00:00:02.280000;0;0.0;0.0;0.0;-0.0195;0.0624;0.9945
00:00:02.290000;0;0.0;0.0;0.0;-0.0234;0.0117;0.9594
00:00:02.300000;0;0.0;0.0;0.0;-0.0234;0.0273;0.9438
00:00:02.310000;0;0.0;0.0;0.0;-0.0468;0.0468;1.0023
00:00:02.320000;0;0.0;0.0;0.0;-0.0312;0.0078;0.9555
00:00:02.330000;0;0.0;0.0;0.0;-0.0078;0.0312;0.9165
00:00:02.340000;0;0.0;0.0;0.0;-0.039;0.0117;0.9516
00:00:02.350000;0;0.0;0.0;0.0;-0.0156;0.0273;0.9633
00:00:02.360000;0;0.0;0.0;0.0;-0.0507;0.0312;0.9282
00:00:02.370000;0;0.0;0.0;0.0;-0.0312;0.0273;0.9633
00:00:02.380000;0;0.0;0.0;0.0;-0.0156;0.0234;0.9555
00:00:02.390000;0;0.0;0.0;0.0;-0.0156;0.039;0.9399
00:00:02.400000;0;0.0;0.0;0.0;-0.0312;0.0234;0.9555
00:00:02.410000;0;0.0;0.0;0.0;-0.0234;0.0078;0.9672
00:00:02.420000;0;0.0;0.0;0.0;-0.039;0.0156;0.9399
00:00:02.430000;0;0.0;0.0;0.0;-0.0975;0.0897;0.9594
00:00:02.440000;0;0.0;0.0;0.0;-0.0234;-0.0234;0.9867
00:00:02.450000;0;0.0;0.0;0.0;0.0312;-0.0078;0.9282
00:00:02.460000;0;0.0;0.0;0.0;-0.0312;0.0039;0.936
00:00:02.470000;0;0.0;0.0;0.0;0.0156;-0.0273;0.9828
00:00:02.480000;0;0.0;0.0;0.0;-0.0351;0.0234;0.9477
00:00:02.490000;0;0.0;0.0;0.0;-0.0819;0.0585;0.9984
00:00:02.500000;0;0.0;0.0;0.0;-0.0195;-0.0234;0.9282
00:00:02.510000;0;0.0;0.0;0.0;0.0273;-0.039;0.9087
00:00:02.520000;0;0.0;0.0;0.0;-0.0312;0.0156;0.9438
00:00:02.530000;0;0.0;0.0;0.0;-0.0819;0.0234;0.9516
00:00:02.540000;0;0.0;0.0;0.0;-0.0039;0.0351;0.9594
00:00:02.550000;0;0.0;0.0;0.0;-0.0312;0.0195;0.975
00:00:02.560000;0;0.0;0.0;0.0;0.0234;0.0;0.9555
00:00:02.570000;0;0.0;0.0;0.0;-0.0195;-0.0039;0.9243
00:00:02.580000;0;0.0;0.0;0.0;-0.0624;0.0234;0.897
00:00:02.590000;0;0.0;0.0;0.0;-0.0312;0.0351;0.8814
00:00:02.600000;0;0.0;0.0;0.0;-0.0312;0.0351;0.9048
00:00:02.610000;0;0.0;0.0;0.0;-0.0117;0.0351;0.9321
00:00:02.620000;0;0.0;0.0;0.0;-0.0351;0.0078;0.9243
00:00:02.630000;0;0.0;0.0;0.0;0.0;-0.0078;0.9438
00:00:02.640000;0;0.0;0.0;0.0;-0.0078;0.0507;0.975
00:00:02.650000;0;0.0;0.0;0.0;-0.039;0.0195;0.9594
00:00:02.660000;0;0.0;0.0;0.0;-0.0039;0.0429;0.975
00:00:02.670000;0;0.0;0.0;0.0;-0.0819;0.0468;0.9945
00:00:02.680000;0;0.0;0.0;0.0;-0.0078;0.0039;1.0023
00:00:02.690000;0;0.0;0.0;0.0;-0.0312;0.0117;1.014
00:00:02.700000;0;0.0;0.0;0.0;-0.0507;0.0429;1.0335
00:00:02.710000;0;0.0;0.0;0.0;0.0039;0.039;1.0881
00:00:02.720000;0;0.0;0.0;0.0;-0.0234;0.0273;1.0842
00:00:02.730000;0;0.0;0.0;0.0;-0.0039;0.0;1.0101
00:00:02.740000;0;0.0;0.0;0.0;0.0312;-0.039;0.9087
00:00:02.750000;0;0.0;0.0;0.0;-0.0039;-0.0273;0.8736
00:00:02.760000;0;0.0;0.0;0.0;-0.078;0.0312;0.8151
00:00:02.770000;0;0.0;0.0;0.0;-0.0351;0.0273;0.8814
00:00:02.780000;0;0.0;0.0;0.0;-0.0429;0.0741;1.0257
00:00:02.790000;0;0.0;0.0;0.0;-0.0507;0.0039;0.9906
00:00:02.800000;0;0.0;0.0;0.0;0.0;0.0741;1.0218
00:00:02.810000;0;0.0;0.0;0.0;-0.0273;0.0039;0.9945
00:00:02.820000;0;0.0;0.0;0.0;-0.0585;0.0546;0.9321
00:00:02.830000;0;0.0;0.0;0.0;-0.0624;0.0078;0.9399
00:00:02.840000;0;0.0;0.0;0.0;0.0507;0.0117;0.9438
00:00:02.850000;0;0.0;0.0;0.0;-0.0546;0.0078;0.9594
00:00:02.860000;0;0.0;0.0;0.0;-0.0039;0.0;0.9906
00:00:02.870000;0;0.0;0.0;0.0;-0.0468;0.0273;1.0413
00:00:02.880000;0;0.0;0.0;0.0;-0.0351;0.0351;0.9984
00:00:02.890000;0;0.0;0.0;0.0;-0.0078;0.0273;0.9204
00:00:02.900000;0;0.0;0.0;0.0;-0.0663;0.0156;0.9984
00:00:02.910000;0;0.0;0.0;0.0;0.0039;0.0468;0.9672
00:00:02.920000;0;0.0;0.0;0.0;-0.0351;0.039;0.9828
00:00:02.930000;0;0.0;0.0;0.0;-0.0312;0.0312;1.0413
00:00:02.940000;0;0.0;0.0;0.0;-0.0039;0.0429;1.0101
00:00:02.950000;0;0.0;0.0;0.0;-0.0351;0.0663;0.9672
00:00:02.960000;0;0.0;0.0;0.0;-0.0507;0.0468;1.0023
00:00:02.970000;0;0.0;0.0;0.0;-0.0195;0.039;0.9048
00:00:02.980000;0;0.0;0.0;0.0;-0.0117;0.0234;0.8385
00:00:02.990000;0;0.0;0.0;0.0;-0.0234;0.0;0.8424
00:00:03;1;3.7120294655568;51.0129040333533;7.6;-0.0546;0.0195;0.858
00:00:03.010000;0;0.0;0.0;0.0;-0.0312;0.0195;0.936
00:00:03.020000;0;0.0;0.0;0.0;-0.0156;0.0156;0.9789
00:00:03.030000;0;0.0;0.0;0.0;-0.0039;-0.0117;0.9594
00:00:03.040000;0;0.0;0.0;0.0;-0.0078;-0.0117;0.9789
00:00:03.050000;0;0.0;0.0;0.0;-0.0234;0.0273;1.0374
00:00:03.060000;0;0.0;0.0;0.0;-0.039;0.039;1.0374
00:00:03.070000;0;0.0;0.0;0.0;-0.0039;0.0195;1.014
00:00:03.080000;0;0.0;0.0;0.0;-0.0117;0.0234;0.9243
00:00:03.090000;0;0.0;0.0;0.0;-0.0741;-0.039;0.8346
00:00:03.100000;0;0.0;0.0;0.0;0.0195;0.0;0.8853
00:00:03.110000;0;0.0;0.0;0.0;-0.0585;0.0546;0.8463
00:00:03.120000;0;0.0;0.0;0.0;-0.078;0.0;0.8658
00:00:03.130000;0;0.0;0.0;0.0;0.0507;-0.0078;0.9438
00:00:03.140000;0;0.0;0.0;0.0;-0.0663;0.0195;0.975
00:00:03.150000;0;0.0;0.0;0.0;-0.0273;0.0039;0.9672
00:00:03.160000;0;0.0;0.0;0.0;0.0117;0.0351;1.0062
00:00:03.170000;0;0.0;0.0;0.0;-0.1014;0.0546;1.0725
00:00:03.180000;0;0.0;0.0;0.0;0.0078;-0.0039;1.0686
00:00:03.190000;0;0.0;0.0;0.0;0.0156;-0.0156;0.9828
00:00:03.200000;0;0.0;0.0;0.0;-0.039;0.0039;0.9048
00:00:03.210000;0;0.0;0.0;0.0;0.0468;0.0429;0.9477
00:00:03.220000;0;0.0;0.0;0.0;-0.0819;0.0195;0.7917
00:00:03.230000;0;0.0;0.0;0.0;-0.117;0.0195;0.9087
00:00:03.240000;0;0.0;0.0;0.0;0.0156;-0.0156;0.9828
00:00:03.250000;0;0.0;0.0;0.0;-0.0117;0.0546;1.0413
00:00:03.260000;0;0.0;0.0;0.0;-0.0468;0.0078;0.9984
00:00:03.270000;0;0.0;0.0;0.0;0.0195;0.0312;0.9867
00:00:03.280000;0;0.0;0.0;0.0;-0.0234;0.0429;0.9906
00:00:03.290000;0;0.0;0.0;0.0;-0.0078;0.0312;0.9945
00:00:03.300000;0;0.0;0.0;0.0;-0.0195;0.0195;0.9672
00:00:03.310000;0;0.0;0.0;0.0;-0.0351;0.0078;0.9399
00:00:03.320000;0;0.0;0.0;0.0;0.0117;-0.0078;0.9789
00:00:03.330000;0;0.0;0.0;0.0;-0.0507;0.0117;0.8931
00:00:03.340000;0;0.0;0.0;0.0;-0.0663;0.0234;0.9555
00:00:03.350000;0;0.0;0.0;0.0;-0.0039;0.0273;0.975
00:00:03.360000;0;0.0;0.0;0.0;-0.0039;-0.0078;0.9399
00:00:03.370000;0;0.0;0.0;0.0;0.0078;-0.0117;0.9126
00:00:03.380000;0;0.0;0.0;0.0;-0.0156;0.0117;0.9048
00:00:03.390000;0;0.0;0.0;0.0;-0.0234;0.0;0.8931
00:00:03.400000;0;0.0;0.0;0.0;-0.0078;0.0078;0.8307
00:00:03.410000;0;0.0;0.0;0.0;-0.0702;0.0156;0.8541
00:00:03.420000;0;0.0;0.0;0.0;0.0039;0.0078;0.897
00:00:03.430000;0;0.0;0.0;0.0;-0.0039;0.0078;0.9204
00:00:03.440000;0;0.0;0.0;0.0;-0.0741;0.0156;0.9555
00:00:03.450000;0;0.0;0.0;0.0;-0.0312;0.0312;0.9789
00:00:03.460000;0;0.0;0.0;0.0;-0.0312;0.0546;1.0296
00:00:03.470000;0;0.0;0.0;0.0;0.0;0.0078;1.0257
00:00:03.480000;0;0.0;0.0;0.0;0.0078;0.0039;0.9945
00:00:03.490000;0;0.0;0.0;0.0;-0.0234;0.0234;0.9828
00:00:03.500000;0;0.0;0.0;0.0;0.0078;0.0156;0.9867
00:00:03.510000;0;0.0;0.0;0.0;-0.039;0.0819;0.9906
00:00:03.520000;0;0.0;0.0;0.0;-0.0585;0.0351;0.9672
00:00:03.530000;0;0.0;0.0;0.0;0.0351;0.0078;0.9672
00:00:03.540000;0;0.0;0.0;0.0;-0.039;0.0819;0.9945
00:00:03.550000;0;0.0;0.0;0.0;-0.0468;0.0468;0.9243
00:00:03.560000;0;0.0;0.0;0.0;0.0;0.0351;0.9087
00:00:03.570000;0;0.0;0.0;0.0;-0.0312;0.0468;0.9594
00:00:03.580000;0;0.0;0.0;0.0;-0.0078;0.0195;0.8931
00:00:03.590000;0;0.0;0.0;0.0;-0.0195;0.0273;0.9009
00:00:03.600000;0;0.0;0.0;0.0;-0.0702;0.0585;0.9711
00:00:03.610000;0;0.0;0.0;0.0;-0.0078;0.0429;0.9672
00:00:03.620000;0;0.0;0.0;0.0;0.0039;0.0585;1.0335
00:00:03.630000;0;0.0;0.0;0.0;-0.0234;-0.0078;1.0257
00:00:03.640000;0;0.0;0.0;0.0;-0.0195;0.0273;0.9945
00:00:03.650000;0;0.0;0.0;0.0;-0.0507;0.0663;1.0179
00:00:03.660000;0;0.0;0.0;0.0;0.0039;0.0039;0.9984
00:00:03.670000;0;0.0;0.0;0.0;0.0195;0.0312;0.9243
00:00:03.680000;0;0.0;0.0;0.0;-0.0663;0.0351;0.9789
00:00:03.690000;0;0.0;0.0;0.0;0.0156;0.0273;1.0257
00:00:03.700000;0;0.0;0.0;0.0;-0.0624;0.0351;0.9282
00:00:03.710000;0;0.0;0.0;0.0;-0.0312;0.0468;0.9672
00:00:03.720000;0;0.0;0.0;0.0;0.039;0.039;0.8931
00:00:03.730000;0;0.0;0.0;0.0;-0.0741;0.0975;0.9516
00:00:03.740000;0;0.0;0.0;0.0;-0.0312;0.0273;0.9516
00:00:03.750000;0;0.0;0.0;0.0;-0.0039;0.0039;0.9243
00:00:03.760000;0;0.0;0.0;0.0;-0.0507;0.0078;0.9204
00:00:03.770000;0;0.0;0.0;0.0;0.0117;0.0117;0.897
00:00:03.780000;0;0.0;0.0;0.0;-0.0312;0.0468;0.9867
00:00:03.790000;0;0.0;0.0;0.0;-0.0468;0.0468;1.014
00:00:03.800000;0;0.0;0.0;0.0;-0.039;0.0468;0.9984
00:00:03.810000;0;0.0;0.0;0.0;-0.0078;0.0117;1.053
00:00:03.820000;0;0.0;0.0;0.0;-0.0741;0.0702;1.0374
00:00:03.830000;0;0.0;0.0;0.0;0.0117;0.0234;1.0764
00:00:03.840000;0;0.0;0.0;0.0;-0.0078;0.0663;1.0062
00:00:03.850000;0;0.0;0.0;0.0;-0.0546;0.0624;0.9984
00:00:03.860000;0;0.0;0.0;0.0;0.0858;0.0;0.9789
00:00:03.870000;0;0.0;0.0;0.0;-0.0702;0.0273;0.9048
00:00:03.880000;0;0.0;0.0;0.0;-0.0507;0.0546;0.9243
00:00:03.890000;0;0.0;0.0;0.0;0.0351;0.0663;0.9204
00:00:03.900000;0;0.0;0.0;0.0;-0.0702;0.0156;0.8229
00:00:03.910000;0;0.0;0.0;0.0;-0.0507;0.0312;0.7917
00:00:03.920000;0;0.0;0.0;0.0;-0.0351;0.0039;0.858
00:00:03.930000;0;0.0;0.0;0.0;-0.0039;0.0039;0.8814
00:00:03.940000;0;0.0;0.0;0.0;-0.0039;0.0039;0.9399
00:00:03.950000;0;0.0;0.0;0.0;-0.0195;0.039;0.9906
00:00:03.960000;0;0.0;0.0;0.0;-0.0195;0.0351;0.975
00:00:03.970000;0;0.0;0.0;0.0;-0.0156;0.0117;1.0062
00:00:03.980000;0;0.0;0.0;0.0;-0.0117;0.0273;0.975
00:00:03.990000;0;0.0;0.0;0.0;-0.0312;0.0039;0.936
00:00:04;1;3.7120294655568;51.0129040333533;7.6;-0.0273;0.0078;0.9399
00:00:04.010000;0;0.0;0.0;0.0;-0.0585;0.0702;1.0023
00:00:04.020000;0;0.0;0.0;0.0;-0.0195;0.0351;1.0335
00:00:04.030000;0;0.0;0.0;0.0;-0.0078;0.0468;0.9711
00:00:04.040000;0;0.0;0.0;0.0;0.0078;0.0;0.9516
00:00:04.050000;0;0.0;0.0;0.0;-0.0312;-0.0078;0.9438
00:00:04.060000;0;0.0;0.0;0.0;-0.0624;0.0507;0.9009
00:00:04.070000;0;0.0;0.0;0.0;-0.0273;0.0429;0.9399
00:00:04.080000;0;0.0;0.0;0.0;-0.0429;0.0897;1.0023
00:00:04.090000;0;0.0;0.0;0.0;-0.0039;0.039;0.9477
00:00:04.100000;0;0.0;0.0;0.0;-0.0234;0.0039;0.9048
00:00:04.110000;0;0.0;0.0;0.0;-0.039;-0.0078;0.8775
00:00:04.120000;0;0.0;0.0;0.0;-0.0117;0.0156;0.8697
00:00:04.130000;0;0.0;0.0;0.0;-0.0234;0.0624;0.8658
00:00:04.140000;0;0.0;0.0;0.0;-0.0312;0.0078;0.8736
00:00:04.150000;0;0.0;0.0;0.0;0.0078;0.0546;1.0218
00:00:04.160000;0;0.0;0.0;0.0;-0.0741;0.0312;0.9828
00:00:04.170000;0;0.0;0.0;0.0;-0.0234;0.0156;1.0296
00:00:04.180000;0;0.0;0.0;0.0;0.0273;0.0546;1.0647
00:00:04.190000;0;0.0;0.0;0.0;-0.0819;0.0624;0.9984
00:00:04.200000;0;0.0;0.0;0.0;0.0195;0.0;0.9633
00:00:04.210000;0;0.0;0.0;0.0;-0.0195;0.0312;0.858
00:00:04.220000;0;0.0;0.0;0.0;-0.0468;0.0702;0.8151
00:00:04.230000;0;0.0;0.0;0.0;-0.2223;-0.0546;0.8229
00:00:04.240000;0;0.0;0.0;0.0;-0.4017;0.0585;0.7644
00:00:04.250000;0;0.0;0.0;0.0;-0.2847;0.2457;0.8658
00:00:04.260000;0;0.0;0.0;0.0;-0.1131;0.117;0.8658
00:00:04.270000;0;0.0;0.0;0.0;0.1794;0.0585;1.0062
00:00:04.280000;0;0.0;0.0;0.0;0.0663;-0.0468;1.0608
00:00:04.290000;0;0.0;0.0;0.0;-0.0507;0.039;1.0023
00:00:04.300000;0;0.0;0.0;0.0;-0.2301;0.0195;0.8658
00:00:04.310000;0;0.0;0.0;0.0;-0.1248;0.0585;0.8034
00:00:04.320000;0;0.0;0.0;0.0;0.0585;0.0312;0.9126
00:00:04.330000;0;0.0;0.0;0.0;-0.0117;0.0312;0.8736
00:00:04.340000;0;0.0;0.0;0.0;-0.0819;0.0234;0.9282
00:00:04.350000;0;0.0;0.0;0.0;-0.0117;0.0273;1.0023
00:00:04.360000;0;0.0;0.0;0.0;-0.0546;-0.0078;0.9945
00:00:04.370000;0;0.0;0.0;0.0;0.0468;0.0663;1.0023
00:00:04.380000;0;0.0;0.0;0.0;0.117;0.0078;0.9594
00:00:04.390000;0;0.0;0.0;0.0;0.0858;-0.0156;1.014
00:00:04.400000;0;0.0;0.0;0.0;0.0195;0.0078;0.9438
00:00:04.410000;0;0.0;0.0;0.0;-0.0273;-0.0234;1.0296
00:00:04.420000;0;0.0;0.0;0.0;-0.0351;0.039;1.0686
00:00:04.430000;0;0.0;0.0;0.0;0.0;-0.0078;1.0725
00:00:04.440000;0;0.0;0.0;0.0;0.0741;-0.0078;1.0101
00:00:04.450000;0;0.0;0.0;0.0;-0.0117;0.0;1.014
00:00:04.460000;0;0.0;0.0;0.0;-0.0039;-0.0429;1.0218
00:00:04.470000;0;0.0;0.0;0.0;0.0468;-0.0117;1.0335
00:00:04.480000;0;0.0;0.0;0.0;0.0195;-0.0156;1.0608
00:00:04.490000;0;0.0;0.0;0.0;0.1248;-0.0156;1.0374
00:00:04.500000;0;0.0;0.0;0.0;0.0858;0.0156;1.053
00:00:04.510000;0;0.0;0.0;0.0;0.0195;0.0546;1.014
00:00:04.520000;0;0.0;0.0;0.0;0.0039;-0.0117;0.9945
00:00:04.530000;0;0.0;0.0;0.0;0.0;0.0273;0.9399
00:00:04.540000;0;0.0;0.0;0.0;-0.0273;0.0117;0.9477
00:00:04.550000;0;0.0;0.0;0.0;0.0117;0.0429;0.9711
00:00:04.560000;0;0.0;0.0;0.0;0.0;0.0273;0.9516
00:00:04.570000;0;0.0;0.0;0.0;0.0078;0.0507;0.9906
00:00:04.580000;0;0.0;0.0;0.0;0.078;0.0195;1.404
00:00:04.590000;0;0.0;0.0;0.0;0.0858;-0.1209;1.5756
00:00:04.600000;0;0.0;0.0;0.0;-0.3705;0.2106;1.7472
00:00:04.610000;0;0.0;0.0;0.0;-0.0858;0.117;2.0241
00:00:04.620000;0;0.0;0.0;0.0;0.4758;-0.0273;2.0007
00:00:04.630000;0;0.0;0.0;0.0;0.2379;0.0663;1.9773
00:00:04.640000;0;0.0;0.0;0.0;0.1911;0.0507;1.4196
00:00:04.650000;0;0.0;0.0;0.0;-0.0195;-0.0819;1.4274
00:00:04.660000;0;0.0;0.0;0.0;-0.0117;0.078;1.3806
00:00:04.670000;0;0.0;0.0;0.0;-0.2574;0.1638;1.1427
00:00:04.680000;0;0.0;0.0;0.0;0.1677;-0.0156;1.0218
00:00:04.690000;0;0.0;0.0;0.0;0.1716;0.1599;1.0569
00:00:04.700000;0;0.0;0.0;0.0;-0.1794;0.1209;1.1427
00:00:04.710000;0;0.0;0.0;0.0;0.2457;-0.0156;0.8736
00:00:04.720000;0;0.0;0.0;0.0;0.0936;-0.0273;0.7722
00:00:04.730000;0;0.0;0.0;0.0;-0.0975;0.0936;0.7293
00:00:04.740000;0;0.0;0.0;0.0;0.0507;0.0936;0.5265
00:00:04.750000;0;0.0;0.0;0.0;0.0585;-0.0468;0.5109
00:00:04.760000;0;0.0;0.0;0.0;-0.1716;0.0741;0.5577
00:00:04.770000;0;0.0;0.0;0.0;-0.1482;0.0936;0.4953
00:00:04.780000;0;0.0;0.0;0.0;-0.0468;-0.039;0.6045
00:00:04.790000;0;0.0;0.0;0.0;-0.1404;0.0741;0.5616
00:00:04.800000;0;0.0;0.0;0.0;-0.0507;0.0195;0.5226
00:00:04.810000;0;0.0;0.0;0.0;-0.039;0.0234;0.4524
00:00:04.820000;0;0.0;0.0;0.0;-0.1794;0.0429;0.3627
00:00:04.830000;0;0.0;0.0;0.0;-0.1053;0.0;0.312
00:00:04.840000;0;0.0;0.0;0.0;-0.0936;0.0195;0.4212
00:00:04.850000;0;0.0;0.0;0.0;-0.1248;-0.0156;0.4953
00:00:04.860000;0;0.0;0.0;0.0;-0.1248;0.0078;0.3744
00:00:04.870000;0;0.0;0.0;0.0;-0.1482;0.0351;0.4173
00:00:04.880000;0;0.0;0.0;0.0;-0.1716;-0.0117;0.4251
00:00:04.890000;0;0.0;0.0;0.0;-0.2301;0.0117;0.4368
00:00:04.900000;0;0.0;0.0;0.0;-0.1755;-0.0156;0.5577
00:00:04.910000;0;0.0;0.0;0.0;-0.1209;-0.0312;0.6435
00:00:04.920000;0;0.0;0.0;0.0;-0.1131;-0.0351;0.6474
00:00:04.930000;0;0.0;0.0;0.0;-0.0975;0.0156;0.7137
00:00:04.940000;0;0.0;0.0;0.0;-0.0702;0.0039;0.4251
00:00:04.950000;0;0.0;0.0;0.0;-0.0975;0.0429;0.312
00:00:04.960000;0;0.0;0.0;0.0;-0.0624;0.0195;0.1989
00:00:04.970000;0;0.0;0.0;0.0;-0.1053;0.0156;0.1638
00:00:04.980000;0;0.0;0.0;0.0;-0.1326;0.0273;0.0936
00:00:04.990000;0;0.0;0.0;0.0;-0.0507;0.0039;0.0078
00:00:05;1;3.71175292030228;51.0129347305939;7.5;-0.0234;-0.0234;-0.0507
00:00:05.010000;0;0.0;0.0;0.0;-0.2028;-0.1404;0.6942
00:00:05.020000;0;0.0;0.0;0.0;-0.0741;0.1443;0.897
00:00:05.030000;0;0.0;0.0;0.0;0.0702;-0.0429;0.7098
00:00:05.040000;0;0.0;0.0;0.0;-0.0429;-0.0039;0.9048
00:00:05.050000;0;0.0;0.0;0.0;-0.0585;-0.0195;1.1466
00:00:05.060000;0;0.0;0.0;0.0;0.0624;-0.0234;1.2324
00:00:05.070000;0;0.0;0.0;0.0;-0.0858;0.0546;1.1934
00:00:05.080000;0;0.0;0.0;0.0;0.0117;0.0312;1.17
00:00:05.090000;0;0.0;0.0;0.0;0.1326;-0.0507;1.2597
00:00:05.100000;0;0.0;0.0;0.0;0.0429;-0.0312;1.5015
00:00:05.110000;0;0.0;0.0;0.0;0.0273;0.0351;1.5717
00:00:05.120000;0;0.0;0.0;0.0;0.0039;-0.0078;1.6029
00:00:05.130000;0;0.0;0.0;0.0;-0.039;0.0585;1.7355
00:00:05.140000;0;0.0;0.0;0.0;-0.0234;0.0039;1.6419
00:00:05.150000;0;0.0;0.0;0.0;0.0585;-0.0312;1.5795
00:00:05.160000;0;0.0;0.0;0.0;0.0195;0.0078;1.5639
00:00:05.170000;0;0.0;0.0;0.0;0.0663;0.0117;1.6185
00:00:05.180000;0;0.0;0.0;0.0;0.1248;0.0078;1.6965
00:00:05.190000;0;0.0;0.0;0.0;0.0429;0.0195;1.716
00:00:05.200000;0;0.0;0.0;0.0;0.0702;0.0273;1.7043
00:00:05.210000;0;0.0;0.0;0.0;0.1248;0.0195;1.5912
00:00:05.220000;0;0.0;0.0;0.0;0.0312;-0.0078;1.5288
00:00:05.230000;0;0.0;0.0;0.0;0.0741;0.0585;1.6029
00:00:05.240000;0;0.0;0.0;0.0;0.0351;0.039;1.5132
00:00:05.250000;0;0.0;0.0;0.0;0.0195;0.0156;1.443
00:00:05.260000;0;0.0;0.0;0.0;0.0468;0.0234;1.404
00:00:05.270000;0;0.0;0.0;0.0;0.1014;0.0156;1.2792
00:00:05.280000;0;0.0;0.0;0.0;0.0663;-0.0078;1.1661
00:00:05.290000;0;0.0;0.0;0.0;0.0039;0.0351;1.131
00:00:05.300000;0;0.0;0.0;0.0;0.0624;0.0273;1.0842
00:00:05.310000;0;0.0;0.0;0.0;0.0429;0.0195;1.053
00:00:05.320000;0;0.0;0.0;0.0;0.0;0.0312;1.0374
00:00:05.330000;0;0.0;0.0;0.0;0.0507;-0.0039;1.0023
00:00:05.340000;0;0.0;0.0;0.0;0.0078;0.0195;0.9633
00:00:05.350000;0;0.0;0.0;0.0;-0.0234;0.0234;0.9048
00:00:05.360000;0;0.0;0.0;0.0;0.0117;0.0273;0.8658
00:00:05.370000;0;0.0;0.0;0.0;-0.0117;0.0156;0.8658
00:00:05.380000;0;0.0;0.0;0.0;-0.0078;0.0195;0.8385
00:00:05.390000;0;0.0;0.0;0.0;0.0039;0.0234;0.7839
00:00:05.400000;0;0.0;0.0;0.0;-0.0039;0.0117;0.7956
00:00:05.410000;0;0.0;0.0;0.0;-0.0195;0.0741;0.7566
00:00:05.420000;0;0.0;0.0;0.0;-0.0156;0.039;0.7215
00:00:05.430000;0;0.0;0.0;0.0;-0.0273;0.0273;0.7020000000000001
00:00:05.440000;0;0.0;0.0;0.0;-0.0546;0.0273;0.6591
00:00:05.450000;0;0.0;0.0;0.0;-0.0312;0.0156;0.6629999999999999
00:00:05.460000;0;0.0;0.0;0.0;-0.0468;0.039;0.6396
00:00:05.470000;0;0.0;0.0;0.0;-0.0624;0.0273;0.6552
00:00:05.480000;0;0.0;0.0;0.0;-0.0234;0.0351;0.6435
00:00:05.490000;0;0.0;0.0;0.0;-0.0741;0.0234;0.6669
00:00:05.500000;0;0.0;0.0;0.0;-0.039;0.0156;0.6513
00:00:05.510000;0;0.0;0.0;0.0;-0.0429;0.0156;0.6864
00:00:05.520000;0;0.0;0.0;0.0;-0.0585;0.0195;0.7098
00:00:05.530000;0;0.0;0.0;0.0;-0.0195;0.0078;0.6981
00:00:05.540000;0;0.0;0.0;0.0;-0.0624;0.0195;0.741
00:00:05.550000;0;0.0;0.0;0.0;-0.0468;0.0156;0.7761
00:00:05.560000;0;0.0;0.0;0.0;-0.0312;0.0039;0.8268
00:00:05.570000;0;0.0;0.0;0.0;-0.0585;0.0351;0.8307
00:00:05.580000;0;0.0;0.0;0.0;-0.0429;0.0234;0.8775
00:00:05.590000;0;0.0;0.0;0.0;-0.0273;0.0429;0.8775
00:00:05.600000;0;0.0;0.0;0.0;-0.0507;0.0468;0.8931
00:00:05.610000;0;0.0;0.0;0.0;-0.0429;0.039;0.9009
00:00:05.620000;0;0.0;0.0;0.0;-0.0156;0.0117;0.9282
00:00:05.630000;0;0.0;0.0;0.0;-0.0234;0.0195;0.936
00:00:05.640000;0;0.0;0.0;0.0;-0.0273;0.0312;0.9633
00:00:05.650000;0;0.0;0.0;0.0;0.0;0.0117;1.0218
00:00:05.660000;0;0.0;0.0;0.0;-0.0312;0.0195;0.9633
00:00:05.670000;0;0.0;0.0;0.0;-0.0273;0.0117;0.9711
00:00:05.680000;0;0.0;0.0;0.0;0.0039;-0.0039;0.9867
00:00:05.690000;0;0.0;0.0;0.0;-0.0078;0.0195;1.0257
00:00:05.700000;0;0.0;0.0;0.0;-0.0312;0.0156;1.0179
00:00:05.710000;0;0.0;0.0;0.0;-0.0273;0.0039;1.0413
00:00:05.720000;0;0.0;0.0;0.0;-0.0117;0.0078;1.0608
00:00:05.730000;0;0.0;0.0;0.0;-0.0078;0.0156;1.0491
00:00:05.740000;0;0.0;0.0;0.0;-0.0039;-0.0039;1.0374
00:00:05.750000;0;0.0;0.0;0.0;0.0039;0.0195;1.0725
00:00:05.760000;0;0.0;0.0;0.0;-0.0234;0.0078;1.0803
00:00:05.770000;0;0.0;0.0;0.0;0.0078;-0.0156;1.0374
00:00:05.780000;0;0.0;0.0;0.0;-0.0195;0.0195;1.053
00:00:05.790000;0;0.0;0.0;0.0;-0.0117;0.0117;1.0296
00:00:05.800000;0;0.0;0.0;0.0;0.0117;0.0273;1.0296
00:00:05.810000;0;0.0;0.0;0.0;-0.0663;0.0312;1.0101
00:00:05.820000;0;0.0;0.0;0.0;-0.0195;0.039;1.0335
00:00:05.830000;0;0.0;0.0;0.0;0.0039;0.0312;1.0374
00:00:05.840000;0;0.0;0.0;0.0;-0.0273;0.0234;1.0062
00:00:05.850000;0;0.0;0.0;0.0;-0.0234;0.0429;0.9906
00:00:05.860000;0;0.0;0.0;0.0;-0.0273;0.0156;0.9711
00:00:05.870000;0;0.0;0.0;0.0;-0.0195;0.0312;0.9516
00:00:05.880000;0;0.0;0.0;0.0;-0.0546;0.0429;0.9516
00:00:05.890000;0;0.0;0.0;0.0;-0.0039;0.0273;0.9906
00:00:05.900000;0;0.0;0.0;0.0;-0.0117;0.0;0.975
00:00:05.910000;0;0.0;0.0;0.0;-0.0546;0.039;0.9711
00:00:05.920000;0;0.0;0.0;0.0;-0.039;0.0195;0.975
00:00:05.930000;0;0.0;0.0;0.0;-0.0195;0.0351;0.9789
00:00:05.940000;0;0.0;0.0;0.0;0.0;0.0234;0.9555
00:00:05.950000;0;0.0;0.0;0.0;-0.0156;-0.0117;0.9165
00:00:05.960000;0;0.0;0.0;0.0;-0.0351;0.0273;0.936
00:00:05.970000;0;0.0;0.0;0.0;-0.0117;-0.0195;0.936
00:00:05.980000;0;0.0;0.0;0.0;-0.0078;0.0312;0.9009
00:00:05.990000;0;0.0;0.0;0.0;-0.0468;0.0234;0.9165
00:00:06;1;3.71175292030228;51.0129347305939;7.5;-0.0039;-0.0234;0.8736
00:00:06.010000;0;0.0;0.0;0.0;-0.0312;0.0078;0.8892
00:00:06.020000;0;0.0;0.0;0.0;-0.0429;0.0;0.8736
00:00:06.030000;0;0.0;0.0;0.0;0.0234;-0.0078;0.897
00:00:06.040000;0;0.0;0.0;0.0;-0.0312;0.0078;0.8658
00:00:06.050000;0;0.0;0.0;0.0;-0.0195;0.0;0.8385
00:00:06.060000;0;0.0;0.0;0.0;-0.0234;-0.0156;0.8931
00:00:06.070000;0;0.0;0.0;0.0;-0.0312;0.0;0.9633
00:00:06.080000;0;0.0;0.0;0.0;-0.0234;-0.0195;0.9789
00:00:06.090000;0;0.0;0.0;0.0;-0.0117;-0.0156;0.9945
00:00:06.100000;0;0.0;0.0;0.0;-0.0117;0.0117;1.0335
00:00:06.110000;0;0.0;0.0;0.0;0.0039;0.0156;1.0218
00:00:06.120000;0;0.0;0.0;0.0;-0.0078;0.0039;0.9789
00:00:06.130000;0;0.0;0.0;0.0;-0.0429;-0.0039;0.9672
00:00:06.140000;0;0.0;0.0;0.0;-0.0117;0.0156;1.0101
00:00:06.150000;0;0.0;0.0;0.0;0.0078;0.0351;0.9945
00:00:06.160000;0;0.0;0.0;0.0;-0.0234;0.0312;0.9906
00:00:06.170000;0;0.0;0.0;0.0;-0.0273;0.0546;0.9945
00:00:06.180000;0;0.0;0.0;0.0;-0.0195;0.0117;0.9672
00:00:06.190000;0;0.0;0.0;0.0;-0.0039;0.039;0.9789
00:00:06.200000;0;0.0;0.0;0.0;-0.0468;0.0117;0.9555
00:00:06.210000;0;0.0;0.0;0.0;0.0;0.0351;0.9594
00:00:06.220000;0;0.0;0.0;0.0;-0.0156;0.0273;0.9516
00:00:06.230000;0;0.0;0.0;0.0;-0.0312;0.0351;0.9399
00:00:06.240000;0;0.0;0.0;0.0;0.0078;0.0156;0.9633
00:00:06.250000;0;0.0;0.0;0.0;-0.0117;0.0039;0.9633
00:00:06.260000;0;0.0;0.0;0.0;-0.0117;0.0312;0.975
00:00:06.270000;0;0.0;0.0;0.0;-0.0351;0.0078;0.9789
00:00:06.280000;0;0.0;0.0;0.0;-0.0312;0.0351;1.0179
00:00:06.290000;0;0.0;0.0;0.0;-0.0156;0.0273;1.0101
00:00:06.300000;0;0.0;0.0;0.0;0.0039;0.0078;0.975
00:00:06.310000;0;0.0;0.0;0.0;0.0;-0.0078;0.9594
00:00:06.320000;0;0.0;0.0;0.0;-0.0156;0.0078;0.9906
00:00:06.330000;0;0.0;0.0;0.0;-0.0117;0.0195;0.9516
00:00:06.340000;0;0.0;0.0;0.0;-0.0078;-0.0117;0.9048
00:00:06.350000;0;0.0;0.0;0.0;-0.0039;0.0117;0.9594
00:00:06.360000;0;0.0;0.0;0.0;-0.0195;-0.0039;0.9711
00:00:06.370000;0;0.0;0.0;0.0;-0.0351;-0.0039;0.9711
00:00:06.380000;0;0.0;0.0;0.0;-0.0273;0.0195;0.9633
00:00:06.390000;0;0.0;0.0;0.0;-0.0195;0.0;0.9828
00:00:06.400000;0;0.0;0.0;0.0;-0.0039;0.0;0.9126
00:00:06.410000;0;0.0;0.0;0.0;-0.0312;0.0;0.9438
00:00:06.420000;0;0.0;0.0;0.0;-0.0078;0.0039;0.9126
00:00:06.430000;0;0.0;0.0;0.0;-0.0195;-0.0117;0.8736
00:00:06.440000;0;0.0;0.0;0.0;-0.0273;-0.0078;0.9477
00:00:06.450000;0;0.0;0.0;0.0;-0.0273;0.0;0.9438
00:00:06.460000;0;0.0;0.0;0.0;-0.0078;0.0;0.9399
00:00:06.470000;0;0.0;0.0;0.0;-0.0156;0.0078;0.9321
00:00:06.480000;0;0.0;0.0;0.0;-0.0234;0.0039;0.9711
00:00:06.490000;0;0.0;0.0;0.0;-0.0234;0.0;0.9204
00:00:06.500000;0;0.0;0.0;0.0;-0.0312;0.0078;0.9165
00:00:06.510000;0;0.0;0.0;0.0;-0.0117;0.0;0.9087
00:00:06.520000;0;0.0;0.0;0.0;-0.0195;0.0195;0.9282
00:00:06.530000;0;0.0;0.0;0.0;-0.0507;0.0156;0.8931
00:00:06.540000;0;0.0;0.0;0.0;-0.0117;0.0156;0.9204
00:00:06.550000;0;0.0;0.0;0.0;-0.0234;0.0234;0.9243
00:00:06.560000;0;0.0;0.0;0.0;-0.0117;0.0117;0.9126
00:00:06.570000;0;0.0;0.0;0.0;0.0039;0.0468;0.936
00:00:06.580000;0;0.0;0.0;0.0;-0.0624;0.0234;0.9438
00:00:06.590000;0;0.0;0.0;0.0;-0.0156;0.0117;0.9009
00:00:06.600000;0;0.0;0.0;0.0;-0.0273;0.0351;0.9321
00:00:06.610000;0;0.0;0.0;0.0;-0.0078;0.0156;0.9204
00:00:06.620000;0;0.0;0.0;0.0;-0.0156;0.0117;0.8931
00:00:06.630000;0;0.0;0.0;0.0;-0.0741;0.039;0.9672
00:00:06.640000;0;0.0;0.0;0.0;-0.0195;0.0195;0.9633
00:00:06.650000;0;0.0;0.0;0.0;-0.0312;0.0195;0.9633
00:00:06.660000;0;0.0;0.0;0.0;-0.039;0.0273;0.9594
00:00:06.670000;0;0.0;0.0;0.0;-0.0117;0.0351;0.9555
00:00:06.680000;0;0.0;0.0;0.0;-0.0273;0.0312;0.9477
00:00:06.690000;0;0.0;0.0;0.0;-0.0273;0.0156;0.9555
00:00:06.700000;0;0.0;0.0;0.0;-0.0156;0.0;0.9399
00:00:06.710000;0;0.0;0.0;0.0;-0.0039;0.0195;0.9555
00:00:06.720000;0;0.0;0.0;0.0;-0.0312;0.0273;0.9945
00:00:06.730000;0;0.0;0.0;0.0;-0.0429;0.0273;0.9477
00:00:06.740000;0;0.0;0.0;0.0;-0.0273;0.0195;1.0023
00:00:06.750000;0;0.0;0.0;0.0;-0.0078;0.0;0.936
00:00:06.760000;0;0.0;0.0;0.0;-0.0507;-0.0039;0.9789
00:00:06.770000;0;0.0;0.0;0.0;0.0039;0.0234;0.9867
00:00:06.780000;0;0.0;0.0;0.0;-0.039;0.0117;0.9672
00:00:06.790000;0;0.0;0.0;0.0;-0.0312;0.0156;0.9789
00:00:06.800000;0;0.0;0.0;0.0;-0.0195;-0.0156;0.9672
00:00:06.810000;0;0.0;0.0;0.0;0.0039;0.0;0.9984
00:00:06.820000;0;0.0;0.0;0.0;-0.0234;0.0273;0.9672
00:00:06.830000;0;0.0;0.0;0.0;-0.0351;-0.0195;0.9438
00:00:06.840000;0;0.0;0.0;0.0;0.0039;0.0;0.9594
00:00:06.850000;0;0.0;0.0;0.0;-0.0312;-0.0117;0.9906
00:00:06.860000;0;0.0;0.0;0.0;0.0195;-0.0078;0.9633
00:00:06.870000;0;0.0;0.0;0.0;-0.0351;0.0117;0.9594
00:00:06.880000;0;0.0;0.0;0.0;-0.0468;-0.0117;0.9594
00:00:06.890000;0;0.0;0.0;0.0;0.0039;0.0039;0.9321
00:00:06.900000;0;0.0;0.0;0.0;-0.0351;0.0;0.9243
00:00:06.910000;0;0.0;0.0;0.0;0.0;0.0039;0.9711
00:00:06.920000;0;0.0;0.0;0.0;-0.0039;0.0195;0.9399
00:00:06.930000;0;0.0;0.0;0.0;-0.0468;0.0078;0.9516
00:00:06.940000;0;0.0;0.0;0.0;-0.0078;0.0;0.9477
00:00:06.950000;0;0.0;0.0;0.0;-0.0117;0.0117;0.9516
00:00:06.960000;0;0.0;0.0;0.0;-0.0117;0.0039;0.9477
00:00:06.970000;0;0.0;0.0;0.0;-0.0156;-0.0039;0.9438
00:00:06.980000;0;0.0;0.0;0.0;-0.0039;0.0117;0.9516
00:00:06.990000;0;0.0;0.0;0.0;-0.0234;-0.0273;0.9516
00:00:07;1;3.71175292030228;51.0129347305939;7.5;-0.0312;0.0;0.9945
00:00:07.010000;0;0.0;0.0;0.0;-0.0078;0.0;0.9906
00:00:07.020000;0;0.0;0.0;0.0;-0.0117;0.0039;0.9828
00:00:07.030000;0;0.0;0.0;0.0;-0.0234;0.0117;0.9867
00:00:07.040000;0;0.0;0.0;0.0;-0.0117;-0.0195;0.9633
00:00:07.050000;0;0.0;0.0;0.0;-0.0156;-0.0156;0.936
00:00:07.060000;0;0.0;0.0;0.0;-0.0351;-0.0039;0.9282
00:00:07.070000;0;0.0;0.0;0.0;-0.0117;-0.0156;0.9438
00:00:07.080000;0;0.0;0.0;0.0;0.0;0.0117;0.9399
00:00:07.090000;0;0.0;0.0;0.0;-0.0546;0.0;0.9516
00:00:07.100000;0;0.0;0.0;0.0;-0.0078;-0.0039;0.9438
00:00:07.110000;0;0.0;0.0;0.0;-0.0195;0.0039;0.9516
00:00:07.120000;0;0.0;0.0;0.0;-0.0117;0.0;0.936
00:00:07.130000;0;0.0;0.0;0.0;-0.0078;0.0039;0.9516
00:00:07.140000;0;0.0;0.0;0.0;-0.0273;0.0078;0.9438
00:00:07.150000;0;0.0;0.0;0.0;-0.0312;0.0;0.9711
00:00:07.160000;0;0.0;0.0;0.0;-0.0312;-0.0078;0.936
00:00:07.170000;0;0.0;0.0;0.0;-0.0078;0.0078;0.9282
00:00:07.180000;0;0.0;0.0;0.0;-0.0507;0.0234;0.9516
00:00:07.190000;0;0.0;0.0;0.0;-0.0195;0.0117;0.9516
00:00:07.200000;0;0.0;0.0;0.0;-0.0507;0.039;0.936
00:00:07.210000;0;0.0;0.0;0.0;-0.0195;0.0117;0.9399
00:00:07.220000;0;0.0;0.0;0.0;-0.0078;0.0273;0.9594
00:00:07.230000;0;0.0;0.0;0.0;-0.0351;0.0039;0.9711
00:00:07.240000;0;0.0;0.0;0.0;-0.0117;0.0156;0.9594
00:00:07.250000;0;0.0;0.0;0.0;-0.039;0.0195;0.9594
00:00:07.260000;0;0.0;0.0;0.0;0.0156;0.0078;0.9477
00:00:07.270000;0;0.0;0.0;0.0;-0.0429;-0.0039;0.9399
00:00:07.280000;0;0.0;0.0;0.0;-0.0156;0.0195;0.9438
00:00:07.290000;0;0.0;0.0;0.0;-0.0468;0.0117;0.9165
00:00:07.300000;0;0.0;0.0;0.0;-0.0273;0.0195;0.9477
00:00:07.310000;0;0.0;0.0;0.0;-0.0078;0.0273;0.9126
00:00:07.320000;0;0.0;0.0;0.0;-0.0507;0.0195;0.9477
00:00:07.330000;0;0.0;0.0;0.0;-0.0039;0.0195;0.9048
00:00:07.340000;0;0.0;0.0;0.0;-0.0117;0.0039;0.9399
00:00:07.350000;0;0.0;0.0;0.0;-0.0117;0.0507;0.936
00:00:07.360000;0;0.0;0.0;0.0;-0.0234;-0.0078;0.9594
00:00:07.370000;0;0.0;0.0;0.0;-0.0039;0.0195;0.9906
00:00:07.380000;0;0.0;0.0;0.0;-0.0351;0.0156;0.9633
00:00:07.390000;0;0.0;0.0;0.0;-0.0078;0.0;0.9516
00:00:07.400000;0;0.0;0.0;0.0;-0.0078;-0.0039;0.9516
00:00:07.410000;0;0.0;0.0;0.0;-0.0429;0.0156;1.0023
00:00:07.420000;0;0.0;0.0;0.0;-0.0546;0.0;0.9789
00:00:07.430000;0;0.0;0.0;0.0;-0.0078;0.0039;0.9828
00:00:07.440000;0;0.0;0.0;0.0;-0.0195;-0.0078;0.975
00:00:07.450000;0;0.0;0.0;0.0;-0.0234;0.0039;0.9906
00:00:07.460000;0;0.0;0.0;0.0;-0.0351;0.0039;0.9828
00:00:07.470000;0;0.0;0.0;0.0;-0.0273;-0.0039;0.9906
00:00:07.480000;0;0.0;0.0;0.0;-0.0195;0.0429;0.9867
00:00:07.490000;0;0.0;0.0;0.0;-0.0273;-0.039;0.9399
00:00:07.500000;0;0.0;0.0;0.0;0.0078;0.0039;0.9789
00:00:07.510000;0;0.0;0.0;0.0;-0.0585;0.0078;0.9555
00:00:07.520000;0;0.0;0.0;0.0;-0.0156;-0.0117;0.9594
00:00:07.530000;0;0.0;0.0;0.0;-0.0039;0.0;0.975
00:00:07.540000;0;0.0;0.0;0.0;-0.0312;-0.0156;0.9789
00:00:07.550000;0;0.0;0.0;0.0;-0.0312;0.0078;0.9516
00:00:07.560000;0;0.0;0.0;0.0;-0.0624;-0.0039;0.9906
00:00:07.570000;0;0.0;0.0;0.0;0.0078;-0.0078;0.9828
00:00:07.580000;0;0.0;0.0;0.0;-0.0234;-0.0078;1.0218
00:00:07.590000;0;0.0;0.0;0.0;-0.0195;-0.0156;0.9711
00:00:07.600000;0;0.0;0.0;0.0;0.0039;-0.0117;0.9906
00:00:07.610000;0;0.0;0.0;0.0;0.0039;0.0039;0.9477
00:00:07.620000;0;0.0;0.0;0.0;-0.0312;-0.0273;0.9243
00:00:07.630000;0;0.0;0.0;0.0;0.0039;0.0;0.9438
00:00:07.640000;0;0.0;0.0;0.0;-0.0663;0.0039;0.9204
00:00:07.650000;0;0.0;0.0;0.0;-0.0078;-0.0078;0.8931
00:00:07.660000;0;0.0;0.0;0.0;0.0234;-0.0039;0.9321
00:00:07.670000;0;0.0;0.0;0.0;-0.0351;0.0156;0.9282
00:00:07.680000;0;0.0;0.0;0.0;-0.0273;0.0195;0.936
00:00:07.690000;0;0.0;0.0;0.0;-0.0468;0.0117;0.9204
00:00:07.700000;0;0.0;0.0;0.0;-0.0156;0.0117;0.9594
00:00:07.710000;0;0.0;0.0;0.0;-0.0117;0.0117;0.9321
00:00:07.720000;0;0.0;0.0;0.0;-0.0468;0.0117;0.9711
00:00:07.730000;0;0.0;0.0;0.0;-0.0234;0.0078;0.9321
00:00:07.740000;0;0.0;0.0;0.0;-0.0234;0.0078;0.9087
00:00:07.750000;0;0.0;0.0;0.0;-0.0078;-0.0039;0.9711
00:00:07.760000;0;0.0;0.0;0.0;-0.0585;0.0312;0.9789
00:00:07.770000;0;0.0;0.0;0.0;-0.0624;0.0156;0.9828
00:00:07.780000;0;0.0;0.0;0.0;0.0;-0.0117;0.9867
00:00:07.790000;0;0.0;0.0;0.0;-0.0039;-0.0117;0.9984
00:00:07.800000;0;0.0;0.0;0.0;-0.0117;-0.0078;0.936
00:00:07.810000;0;0.0;0.0;0.0;-0.0351;0.0039;0.9282
00:00:07.820000;0;0.0;0.0;0.0;-0.0741;0.0078;0.9555
00:00:07.830000;0;0.0;0.0;0.0;-0.0195;0.0195;0.8814
00:00:07.840000;0;0.0;0.0;0.0;-0.0156;-0.0312;0.9126
00:00:07.850000;0;0.0;0.0;0.0;-0.0039;-0.0234;0.8853
00:00:07.860000;0;0.0;0.0;0.0;-0.0429;0.0273;0.8931
00:00:07.870000;0;0.0;0.0;0.0;-0.0273;-0.0117;0.9126
00:00:07.880000;0;0.0;0.0;0.0;-0.0156;-0.0078;0.8931
00:00:07.890000;0;0.0;0.0;0.0;-0.0273;0.0;0.9204
00:00:07.900000;0;0.0;0.0;0.0;0.0039;-0.0078;0.9984
00:00:07.910000;0;0.0;0.0;0.0;-0.0546;0.0078;1.0062
00:00:07.920000;0;0.0;0.0;0.0;-0.0234;0.0039;0.9711
00:00:07.930000;0;0.0;0.0;0.0;-0.0078;-0.0195;0.9906
00:00:07.940000;0;0.0;0.0;0.0;-0.0078;-0.0195;0.975
00:00:07.950000;0;0.0;0.0;0.0;-0.0429;0.0039;0.936
00:00:07.960000;0;0.0;0.0;0.0;-0.0312;-0.0039;0.9204
00:00:07.970000;0;0.0;0.0;0.0;-0.0117;0.0117;0.9672
00:00:07.980000;0;0.0;0.0;0.0;-0.0468;0.0156;0.9204
00:00:07.990000;0;0.0;0.0;0.0;0.0078;0.0;0.9438
00:00:08;1;3.7114723882692497;51.0129480749006;7.5;-0.0351;0.039;0.9828
00:00:08.010000;0;0.0;0.0;0.0;-0.0195;0.0117;0.9438
00:00:08.020000;0;0.0;0.0;0.0;0.0039;0.0273;0.9282
00:00:08.030000;0;0.0;0.0;0.0;-0.0702;0.0039;0.9594
00:00:08.040000;0;0.0;0.0;0.0;-0.0117;0.0234;0.9243
00:00:08.050000;0;0.0;0.0;0.0;-0.0312;0.0312;0.9867
00:00:08.060000;0;0.0;0.0;0.0;-0.0234;0.0468;0.975
00:00:08.070000;0;0.0;0.0;0.0;-0.039;0.0117;1.0179
00:00:08.080000;0;0.0;0.0;0.0;-0.0156;0.0429;1.0101
00:00:08.090000;0;0.0;0.0;0.0;-0.0117;0.0;1.0023
00:00:08.100000;0;0.0;0.0;0.0;0.0078;0.0078;0.975
00:00:08.110000;0;0.0;0.0;0.0;-0.0156;0.0234;1.0218
00:00:08.120000;0;0.0;0.0;0.0;-0.0429;0.0117;1.0296
00:00:08.130000;0;0.0;0.0;0.0;-0.0234;0.0195;1.0413
00:00:08.140000;0;0.0;0.0;0.0;0.0078;0.0078;1.0179
00:00:08.150000;0;0.0;0.0;0.0;0.0195;-0.0039;0.975
00:00:08.160000;0;0.0;0.0;0.0;-0.0429;0.0273;0.9555
00:00:08.170000;0;0.0;0.0;0.0;-0.0273;0.0039;0.9516
00:00:08.180000;0;0.0;0.0;0.0;-0.039;0.0312;0.9867
00:00:08.190000;0;0.0;0.0;0.0;-0.039;-0.0468;0.858
00:00:08.200000;0;0.0;0.0;0.0;0.0624;-0.039;0.9126
00:00:08.210000;0;0.0;0.0;0.0;-0.0546;-0.0078;0.9789
00:00:08.220000;0;0.0;0.0;0.0;-0.0585;-0.0039;0.9711
00:00:08.230000;0;0.0;0.0;0.0;-0.0117;-0.0039;0.9789
00:00:08.240000;0;0.0;0.0;0.0;-0.0195;-0.0351;0.9984
00:00:08.250000;0;0.0;0.0;0.0;0.0273;-0.0234;0.9867
00:00:08.260000;0;0.0;0.0;0.0;-0.0234;-0.0078;0.936
00:00:08.270000;0;0.0;0.0;0.0;-0.0624;0.0117;0.9555
00:00:08.280000;0;0.0;0.0;0.0;-0.0078;-0.0039;0.9555
00:00:08.290000;0;0.0;0.0;0.0;-0.0156;-0.0351;0.9399
00:00:08.300000;0;0.0;0.0;0.0;-0.0429;-0.0195;0.9594
00:00:08.310000;0;0.0;0.0;0.0;-0.0234;-0.0039;0.9672
00:00:08.320000;0;0.0;0.0;0.0;0.0078;-0.0195;0.9633
00:00:08.330000;0;0.0;0.0;0.0;-0.0117;-0.0234;1.0218
00:00:08.340000;0;0.0;0.0;0.0;-0.0117;0.0312;1.0803
00:00:08.350000;0;0.0;0.0;0.0;-0.0039;-0.0117;1.0101
00:00:08.360000;0;0.0;0.0;0.0;-0.0195;0.0039;0.9477
00:00:08.370000;0;0.0;0.0;0.0;-0.078;0.0039;0.9477
00:00:08.380000;0;0.0;0.0;0.0;-0.0195;0.0;0.9516
00:00:08.390000;0;0.0;0.0;0.0;0.0039;-0.0039;0.9945
00:00:08.400000;0;0.0;0.0;0.0;-0.0156;0.0078;0.9438
00:00:08.410000;0;0.0;0.0;0.0;-0.039;0.0351;0.9009
00:00:08.420000;0;0.0;0.0;0.0;0.0312;-0.0078;0.9477
00:00:08.430000;0;0.0;0.0;0.0;0.0;0.0312;0.9165
00:00:08.440000;0;0.0;0.0;0.0;-0.0507;0.0546;0.8814
00:00:08.450000;0;0.0;0.0;0.0;-0.0039;0.0273;0.9009
00:00:08.460000;0;0.0;0.0;0.0;-0.0273;0.0312;0.9438
00:00:08.470000;0;0.0;0.0;0.0;-0.0429;0.0273;0.9087
00:00:08.480000;0;0.0;0.0;0.0;-0.0117;-0.0078;0.8853
00:00:08.490000;0;0.0;0.0;0.0;-0.0234;0.0312;0.9126
00:00:08.500000;0;0.0;0.0;0.0;-0.078;0.0429;0.9516
00:00:08.510000;0;0.0;0.0;0.0;-0.0156;0.0117;0.9399
00:00:08.520000;0;0.0;0.0;0.0;-0.0039;0.0039;0.9516
00:00:08.530000;0;0.0;0.0;0.0;-0.039;-0.0156;0.9126
00:00:08.540000;0;0.0;0.0;0.0;-0.0117;0.0;0.9555
00:00:08.550000;0;0.0;0.0;0.0;-0.0156;0.0624;1.1076
00:00:08.560000;0;0.0;0.0;0.0;0.0312;0.0351;1.1232
00:00:08.570000;0;0.0;0.0;0.0;0.0156;-0.0039;1.0764
00:00:08.580000;0;0.0;0.0;0.0;-0.0624;-0.0429;0.9633
00:00:08.590000;0;0.0;0.0;0.0;-0.0234;-0.0195;0.9048
00:00:08.600000;0;0.0;0.0;0.0;-0.0039;-0.0117;0.9321
00:00:08.610000;0;0.0;0.0;0.0;-0.0117;0.0351;0.9243
00:00:08.620000;0;0.0;0.0;0.0;-0.0234;0.0039;0.9282
00:00:08.630000;0;0.0;0.0;0.0;-0.0117;0.0039;0.9399
00:00:08.640000;0;0.0;0.0;0.0;-0.0273;0.0078;0.975
00:00:08.650000;0;0.0;0.0;0.0;-0.0078;0.0039;0.9633
00:00:08.660000;0;0.0;0.0;0.0;-0.0273;-0.0195;0.8658
00:00:08.670000;0;0.0;0.0;0.0;-0.0624;0.0117;0.8424
00:00:08.680000;0;0.0;0.0;0.0;-0.0117;-0.0078;0.9516
00:00:08.690000;0;0.0;0.0;0.0;0.0117;-0.0039;0.936
00:00:08.700000;0;0.0;0.0;0.0;-0.078;0.0156;0.9204
00:00:08.710000;0;0.0;0.0;0.0;-0.0468;-0.0351;0.9243
00:00:08.720000;0;0.0;0.0;0.0;0.0351;0.0312;1.0374
00:00:08.730000;0;0.0;0.0;0.0;-0.0702;0.0156;1.0023
00:00:08.740000;0;0.0;0.0;0.0;0.0117;-0.0195;0.9984
00:00:08.750000;0;0.0;0.0;0.0;-0.0234;0.0156;1.0179
00:00:08.760000;0;0.0;0.0;0.0;-0.0702;-0.0117;1.0023
00:00:08.770000;0;0.0;0.0;0.0;0.0117;0.0351;0.9945
00:00:08.780000;0;0.0;0.0;0.0;-0.0507;0.0078;0.9282
00:00:08.790000;0;0.0;0.0;0.0;-0.0117;0.0429;0.8697
00:00:08.800000;0;0.0;0.0;0.0;-0.0312;0.0195;0.8541
00:00:08.810000;0;0.0;0.0;0.0;-0.0624;-0.0078;0.8346
00:00:08.820000;0;0.0;0.0;0.0;-0.0234;0.0;0.8307
00:00:08.830000;0;0.0;0.0;0.0;-0.039;-0.039;0.858
00:00:08.840000;0;0.0;0.0;0.0;0.0234;-0.0234;0.8736
00:00:08.850000;0;0.0;0.0;0.0;-0.0585;0.0117;0.9594
00:00:08.860000;0;0.0;0.0;0.0;-0.0351;-0.0507;0.9945
00:00:08.870000;0;0.0;0.0;0.0;-0.0195;-0.0117;1.0647
00:00:08.880000;0;0.0;0.0;0.0;0.0312;-0.0975;1.0374
00:00:08.890000;0;0.0;0.0;0.0;0.0702;-0.0624;1.014
00:00:08.900000;0;0.0;0.0;0.0;-0.0741;0.0507;1.0023
00:00:08.910000;0;0.0;0.0;0.0;-0.0702;0.0663;0.8658
00:00:08.920000;0;0.0;0.0;0.0;-0.0117;-0.0273;0.9048
00:00:08.930000;0;0.0;0.0;0.0;0.0;-0.0468;0.9048
00:00:08.940000;0;0.0;0.0;0.0;-0.078;0.0702;1.0101
00:00:08.950000;0;0.0;0.0;0.0;0.039;0.0078;1.0413
00:00:08.960000;0;0.0;0.0;0.0;0.0117;-0.0039;0.9516
00:00:08.970000;0;0.0;0.0;0.0;-0.1014;0.0741;0.9204
00:00:08.980000;0;0.0;0.0;0.0;0.0624;-0.0312;0.9282
00:00:08.990000;0;0.0;0.0;0.0;-0.0117;0.0;0.9438
00:00:09;1;3.7114723882692497;51.0129480749006;7.6;-0.1014;0.0273;0.9594
00:00:09.010000;0;0.0;0.0;0.0;0.0078;0.0;0.9906
00:00:09.020000;0;0.0;0.0;0.0;-0.0156;0.0195;0.9789
00:00:09.030000;0;0.0;0.0;0.0;-0.0507;-0.0195;0.9633
00:00:09.040000;0;0.0;0.0;0.0;0.0273;-0.0078;0.9438
00:00:09.050000;0;0.0;0.0;0.0;-0.0702;0.0273;0.9555
00:00:09.060000;0;0.0;0.0;0.0;-0.0585;-0.0351;0.9477
00:00:09.070000;0;0.0;0.0;0.0;0.039;-0.0195;0.975
00:00:09.080000;0;0.0;0.0;0.0;-0.0234;-0.0195;1.0062
00:00:09.090000;0;0.0;0.0;0.0;-0.0078;-0.0624;0.9672
00:00:09.100000;0;0.0;0.0;0.0;0.0195;0.0039;1.0374
00:00:09.110000;0;0.0;0.0;0.0;-0.0585;-0.0156;1.0023
00:00:09.120000;0;0.0;0.0;0.0;-0.0078;-0.039;0.9906
00:00:09.130000;0;0.0;0.0;0.0;-0.0117;-0.039;0.9633
00:00:09.140000;0;0.0;0.0;0.0;-0.0585;-0.0078;0.9828
00:00:09.150000;0;0.0;0.0;0.0;-0.0078;-0.0039;1.0023
00:00:09.160000;0;0.0;0.0;0.0;-0.039;-0.0039;0.975
00:00:09.170000;0;0.0;0.0;0.0;-0.0273;-0.0078;0.9984
00:00:09.180000;0;0.0;0.0;0.0;0.0;-0.0156;0.9867
00:00:09.190000;0;0.0;0.0;0.0;-0.039;-0.0312;0.9282
00:00:09.200000;0;0.0;0.0;0.0;-0.0039;0.0351;1.0062
00:00:09.210000;0;0.0;0.0;0.0;-0.0429;0.0156;1.0179
00:00:09.220000;0;0.0;0.0;0.0;-0.039;0.0351;0.9555
00:00:09.230000;0;0.0;0.0;0.0;-0.0156;-0.0351;0.8697
00:00:09.240000;0;0.0;0.0;0.0;0.0078;-0.0585;0.858
00:00:09.250000;0;0.0;0.0;0.0;-0.0273;0.0195;0.8385
00:00:09.260000;0;0.0;0.0;0.0;-0.0663;-0.0117;0.8541
00:00:09.270000;0;0.0;0.0;0.0;-0.0195;-0.0117;0.9087
00:00:09.280000;0;0.0;0.0;0.0;-0.0156;0.0312;0.9516
00:00:09.290000;0;0.0;0.0;0.0;-0.039;-0.0156;0.9243
00:00:09.300000;0;0.0;0.0;0.0;0.0156;-0.0117;0.9126
00:00:09.310000;0;0.0;0.0;0.0;-0.0663;0.0117;0.8931
00:00:09.320000;0;0.0;0.0;0.0;-0.0429;-0.0039;0.9282
00:00:09.330000;0;0.0;0.0;0.0;0.0;0.0078;0.9867
00:00:09.340000;0;0.0;0.0;0.0;-0.0351;0.0;0.9321
00:00:09.350000;0;0.0;0.0;0.0;-0.0156;-0.0078;0.9321
00:00:09.360000;0;0.0;0.0;0.0;-0.0078;-0.0195;0.9204
00:00:09.370000;0;0.0;0.0;0.0;-0.0507;-0.0156;0.9672
00:00:09.380000;0;0.0;0.0;0.0;-0.0195;-0.0195;0.9477
00:00:09.390000;0;0.0;0.0;0.0;-0.0312;0.0039;0.9789
00:00:09.400000;0;0.0;0.0;0.0;-0.0195;-0.0273;0.9555
00:00:09.410000;0;0.0;0.0;0.0;-0.0117;-0.0078;0.9204
00:00:09.420000;0;0.0;0.0;0.0;-0.0429;-0.0078;0.9789
00:00:09.430000;0;0.0;0.0;0.0;-0.0117;-0.0117;0.9438
00:00:09.440000;0;0.0;0.0;0.0;-0.0429;0.0078;0.9633
00:00:09.450000;0;0.0;0.0;0.0;-0.0156;-0.0078;0.9165
00:00:09.460000;0;0.0;0.0;0.0;0.0117;-0.0117;0.9321
00:00:09.470000;0;0.0;0.0;0.0;-0.0507;0.0078;0.9438
00:00:09.480000;0;0.0;0.0;0.0;-0.0273;-0.0117;0.9126
00:00:09.490000;0;0.0;0.0;0.0;0.0078;-0.0156;0.9555
00:00:09.500000;0;0.0;0.0;0.0;-0.0351;0.0039;0.9789
00:00:09.510000;0;0.0;0.0;0.0;-0.0078;-0.0156;0.936
00:00:09.520000;0;0.0;0.0;0.0;-0.0156;-0.0039;0.9672
00:00:09.530000;0;0.0;0.0;0.0;-0.0273;-0.0078;0.9789
00:00:09.540000;0;0.0;0.0;0.0;-0.0312;0.0;0.9711
00:00:09.550000;0;0.0;0.0;0.0;-0.0273;-0.0039;0.9516
00:00:09.560000;0;0.0;0.0;0.0;-0.0234;-0.0078;0.975
00:00:09.570000;0;0.0;0.0;0.0;-0.0429;0.0156;0.9321
00:00:09.580000;0;0.0;0.0;0.0;-0.0429;0.0;0.9204
00:00:09.590000;0;0.0;0.0;0.0;-0.0039;-0.0039;0.9828
00:00:09.600000;0;0.0;0.0;0.0;-0.0156;0.0039;0.9672
00:00:09.610000;0;0.0;0.0;0.0;-0.0429;-0.0117;0.9126
00:00:09.620000;0;0.0;0.0;0.0;-0.0273;-0.0078;0.936
00:00:09.630000;0;0.0;0.0;0.0;-0.0078;-0.0156;0.9282
00:00:09.640000;0;0.0;0.0;0.0;-0.0273;0.0039;0.9633
00:00:09.650000;0;0.0;0.0;0.0;-0.039;-0.0117;0.9711
00:00:09.660000;0;0.0;0.0;0.0;-0.0234;-0.0039;0.975
00:00:09.670000;0;0.0;0.0;0.0;-0.0273;0.0039;0.9789
00:00:09.680000;0;0.0;0.0;0.0;-0.0234;-0.0195;0.9594
00:00:09.690000;0;0.0;0.0;0.0;-0.0156;0.0;0.9477
00:00:09.700000;0;0.0;0.0;0.0;-0.0351;0.0039;0.9789
00:00:09.710000;0;0.0;0.0;0.0;-0.0078;-0.0078;0.9672
00:00:09.720000;0;0.0;0.0;0.0;-0.0195;-0.0117;0.9282
00:00:09.730000;0;0.0;0.0;0.0;0.0039;0.0117;0.9399
00:00:09.740000;0;0.0;0.0;0.0;-0.039;0.0039;0.9477
00:00:09.750000;0;0.0;0.0;0.0;-0.0273;0.0195;0.9633
00:00:09.760000;0;0.0;0.0;0.0;-0.0312;0.0039;0.9477
00:00:09.770000;0;0.0;0.0;0.0;-0.0117;0.0039;0.9165
00:00:09.780000;0;0.0;0.0;0.0;0.0;-0.0039;0.9555
00:00:09.790000;0;0.0;0.0;0.0;-0.0312;0.0156;0.9438
00:00:09.800000;0;0.0;0.0;0.0;-0.0468;0.0078;0.9282
00:00:09.810000;0;0.0;0.0;0.0;0.0039;0.0078;0.9633
00:00:09.820000;0;0.0;0.0;0.0;-0.0234;0.0078;0.9789
00:00:09.830000;0;0.0;0.0;0.0;-0.0156;0.0078;0.9321
00:00:09.840000;0;0.0;0.0;0.0;-0.0156;0.0117;0.9555
00:00:09.850000;0;0.0;0.0;0.0;-0.0351;0.0078;0.9945
00:00:09.860000;0;0.0;0.0;0.0;0.0;-0.0039;0.9399
00:00:09.870000;0;0.0;0.0;0.0;-0.0234;-0.0078;0.936
00:00:09.880000;0;0.0;0.0;0.0;-0.0351;0.0;0.9555
00:00:09.890000;0;0.0;0.0;0.0;0.0;-0.0117;0.975
00:00:09.900000;0;0.0;0.0;0.0;-0.0429;-0.0078;0.9555
00:00:09.910000;0;0.0;0.0;0.0;-0.0351;-0.0195;0.9594
00:00:09.920000;0;0.0;0.0;0.0;-0.0078;-0.0234;1.0062
00:00:09.930000;0;0.0;0.0;0.0;-0.039;-0.0234;0.9399
00:00:09.940000;0;0.0;0.0;0.0;-0.0078;-0.0507;0.936
00:00:09.950000;0;0.0;0.0;0.0;-0.0195;-0.0234;0.9555
00:00:09.960000;0;0.0;0.0;0.0;-0.0429;-0.0234;0.9633
00:00:09.970000;0;0.0;0.0;0.0;-0.0234;-0.0195;0.9789
00:00:09.980000;0;0.0;0.0;0.0;-0.0273;-0.0234;0.9672
00:00:09.990000;0;0.0;0.0;0.0;0.0195;-0.0234;0.9789
00:00:10;1;3.7114723882692497;51.0129480749006;7.6;-0.0195;-0.0156;1.0101
00:00:10.010000;0;0.0;0.0;0.0;-0.0585;-0.0078;0.9711
00:00:10.020000;0;0.0;0.0;0.0;-0.0078;-0.0273;0.9906
00:00:10.030000;0;0.0;0.0;0.0;0.0078;0.0;0.9867
00:00:10.040000;0;0.0;0.0;0.0;-0.0312;-0.0117;0.9204
00:00:10.050000;0;0.0;0.0;0.0;-0.0039;0.0273;0.9477
00:00:10.060000;0;0.0;0.0;0.0;-0.0429;0.0;0.9555
00:00:10.070000;0;0.0;0.0;0.0;-0.0234;0.0195;0.9477
00:00:10.080000;0;0.0;0.0;0.0;-0.0273;0.0039;0.9555
00:00:10.090000;0;0.0;0.0;0.0;-0.0312;0.0273;0.9516
00:00:10.100000;0;0.0;0.0;0.0;-0.0273;0.0273;0.9165
00:00:10.110000;0;0.0;0.0;0.0;-0.0429;0.0429;0.9048
00:00:10.120000;0;0.0;0.0;0.0;-0.0273;0.0156;0.9204
00:00:10.130000;0;0.0;0.0;0.0;-0.0234;0.0351;0.9009
00:00:10.140000;0;0.0;0.0;0.0;-0.039;0.0351;0.9204
00:00:10.150000;0;0.0;0.0;0.0;-0.0078;0.0195;0.9087
00:00:10.160000;0;0.0;0.0;0.0;-0.039;0.0234;0.9204
00:00:10.170000;0;0.0;0.0;0.0;-0.0351;0.0273;0.9165
00:00:10.180000;0;0.0;0.0;0.0;-0.0351;-0.0078;0.9282
00:00:10.190000;0;0.0;0.0;0.0;-0.0156;0.0273;0.9438
00:00:10.200000;0;0.0;0.0;0.0;-0.0507;0.0156;0.9243
00:00:10.210000;0;0.0;0.0;0.0;-0.0234;-0.0273;0.9555
00:00:10.220000;0;0.0;0.0;0.0;-0.0429;0.0156;0.9672
00:00:10.230000;0;0.0;0.0;0.0;-0.0468;0.0;1.0062
00:00:10.240000;0;0.0;0.0;0.0;0.0195;-0.0234;0.975
00:00:10.250000;0;0.0;0.0;0.0;-0.0468;0.0117;1.014
00:00:10.260000;0;0.0;0.0;0.0;-0.0351;-0.0546;0.9633
00:00:10.270000;0;0.0;0.0;0.0;0.0117;-0.039;1.0062
00:00:10.280000;0;0.0;0.0;0.0;-0.0429;-0.0195;0.9828
00:00:10.290000;0;0.0;0.0;0.0;-0.0039;-0.039;0.9594
00:00:10.300000;0;0.0;0.0;0.0;-0.0039;-0.0156;0.9867
00:00:10.310000;0;0.0;0.0;0.0;-0.0507;-0.0195;0.9672
00:00:10.320000;0;0.0;0.0;0.0;0.0078;-0.0117;0.9867
00:00:10.330000;0;0.0;0.0;0.0;-0.0234;-0.0234;0.9477
00:00:10.340000;0;0.0;0.0;0.0;-0.0117;0.0156;0.9633
00:00:10.350000;0;0.0;0.0;0.0;-0.0312;0.0234;0.9477
00:00:10.360000;0;0.0;0.0;0.0;-0.0156;0.0195;0.9594
00:00:10.370000;0;0.0;0.0;0.0;-0.0273;0.0156;0.9009
00:00:10.380000;0;0.0;0.0;0.0;0.0;-0.0078;0.9399
00:00:10.390000;0;0.0;0.0;0.0;-0.0273;0.0195;0.9555
00:00:10.400000;0;0.0;0.0;0.0;-0.0546;0.0195;0.9594
00:00:10.410000;0;0.0;0.0;0.0;0.0117;0.0312;0.975
00:00:10.420000;0;0.0;0.0;0.0;-0.0156;0.0078;0.9594
00:00:10.430000;0;0.0;0.0;0.0;-0.0156;0.0;0.9516
00:00:10.440000;0;0.0;0.0;0.0;-0.0468;0.0195;0.9516
00:00:10.450000;0;0.0;0.0;0.0;-0.0468;0.0;0.975
00:00:10.460000;0;0.0;0.0;0.0;-0.0078;0.0195;0.9516
00:00:10.470000;0;0.0;0.0;0.0;-0.0429;0.0;0.975
00:00:10.480000;0;0.0;0.0;0.0;-0.0117;-0.0078;0.9672
00:00:10.490000;0;0.0;0.0;0.0;-0.0585;0.0117;0.9633
00:00:10.500000;0;0.0;0.0;0.0;-0.0351;0.0;0.9711
00:00:10.510000;0;0.0;0.0;0.0;0.0078;-0.0351;0.9477
00:00:10.520000;0;0.0;0.0;0.0;-0.0351;0.0117;0.9672
00:00:10.530000;0;0.0;0.0;0.0;-0.0273;-0.0195;0.9867
00:00:10.540000;0;0.0;0.0;0.0;-0.0234;-0.0117;0.9867
00:00:10.550000;0;0.0;0.0;0.0;-0.0468;-0.0351;0.9594
00:00:10.560000;0;0.0;0.0;0.0;-0.0039;-0.0273;0.9516
00:00:10.570000;0;0.0;0.0;0.0;-0.0507;-0.0156;0.9828
00:00:10.580000;0;0.0;0.0;0.0;-0.0351;-0.0234;0.936
00:00:10.590000;0;0.0;0.0;0.0;-0.0234;-0.0117;0.9321
00:00:10.600000;0;0.0;0.0;0.0;-0.0429;-0.0273;0.9594
00:00:10.610000;0;0.0;0.0;0.0;-0.0195;-0.0195;0.9477
00:00:10.620000;0;0.0;0.0;0.0;-0.039;-0.0078;0.9282
00:00:10.630000;0;0.0;0.0;0.0;-0.0507;-0.0039;0.9282
00:00:10.640000;0;0.0;0.0;0.0;-0.0312;0.0;0.9243
00:00:10.650000;0;0.0;0.0;0.0;-0.0117;-0.0156;0.9204
00:00:10.660000;0;0.0;0.0;0.0;-0.0312;0.0039;0.9438
00:00:10.670000;0;0.0;0.0;0.0;-0.0156;-0.0117;0.936
00:00:10.680000;0;0.0;0.0;0.0;-0.0117;-0.0078;0.9126
00:00:10.690000;0;0.0;0.0;0.0;-0.0468;0.0156;0.9477
00:00:10.700000;0;0.0;0.0;0.0;-0.0195;-0.0078;0.9438
00:00:10.710000;0;0.0;0.0;0.0;-0.0507;0.0234;0.936
00:00:10.720000;0;0.0;0.0;0.0;-0.0312;0.0078;0.9321
00:00:10.730000;0;0.0;0.0;0.0;-0.0195;-0.0039;0.9009
00:00:10.740000;0;0.0;0.0;0.0;-0.039;0.0195;0.9282
00:00:10.750000;0;0.0;0.0;0.0;-0.0468;0.0156;0.9243
00:00:10.760000;0;0.0;0.0;0.0;-0.0429;0.0;0.936
00:00:10.770000;0;0.0;0.0;0.0;0.0;-0.0078;0.8775
00:00:10.780000;0;0.0;0.0;0.0;-0.0156;-0.0117;0.9399
00:00:10.790000;0;0.0;0.0;0.0;-0.039;0.0078;1.0062
00:00:10.800000;0;0.0;0.0;0.0;-0.0273;-0.0078;0.936
00:00:10.810000;0;0.0;0.0;0.0;-0.039;0.0;0.9321
00:00:10.820000;0;0.0;0.0;0.0;-0.0312;-0.0078;0.9828
00:00:10.830000;0;0.0;0.0;0.0;-0.0039;0.0;0.9516
00:00:10.840000;0;0.0;0.0;0.0;-0.0507;0.0078;0.9789
00:00:10.850000;0;0.0;0.0;0.0;-0.0273;-0.0195;0.9945
00:00:10.860000;0;0.0;0.0;0.0;-0.0273;-0.0039;0.9945
00:00:10.870000;0;0.0;0.0;0.0;-0.0312;0.0;1.0218
00:00:10.880000;0;0.0;0.0;0.0;-0.0351;0.0039;1.0257
00:00:10.890000;0;0.0;0.0;0.0;-0.0546;0.0078;0.9789
00:00:10.900000;0;0.0;0.0;0.0;-0.0117;-0.0156;0.9594
00:00:10.910000;0;0.0;0.0;0.0;-0.0156;-0.0195;1.0296
00:00:10.920000;0;0.0;0.0;0.0;-0.0546;0.0117;0.975
00:00:10.930000;0;0.0;0.0;0.0;-0.0312;0.0;0.9828
00:00:10.940000;0;0.0;0.0;0.0;-0.0156;-0.0117;0.9828
00:00:10.950000;0;0.0;0.0;0.0;-0.0468;0.0078;0.9594
00:00:10.960000;0;0.0;0.0;0.0;-0.0234;0.0;0.9555
00:00:10.970000;0;0.0;0.0;0.0;-0.0507;0.0195;0.9984
00:00:10.980000;0;0.0;0.0;0.0;-0.0351;0.0;0.9789
00:00:10.990000;0;0.0;0.0;0.0;-0.0234;0.0117;0.9399
